1
1
1
1
1
1
1
1
1
1
353176
353176
1
353176
353176
353176
353176
353176
1
1
353176
952539
1
353176
353176
353176
1
353176
353176
1
353176
353176
952539
353176
353817
1
353817
1
952539
353176
952539
1
1
353176
353176
952539
952539
952539
353176
1
1
1
1
353817
353176
952539
1
633364
633364
353176
1
353817
1
952539
1
633364
353817
952539
915100
353817
915100
353817
353176
795555
866427
870703
870703
353817
633364
405428
353817
866427
494020
915100
353817
633364
1
236346
824767
1
870703
353176
633364
353176
633364
795555
866427
952539
1
494020
236346
795555
176232
1
176232
1
405428
1
824767
236346
915100
176232
353817
353176
176232
353176
824767
494020
176232
1
353817
952539
353817
633364
405428
454007
795555
633364
236346
866427
746716
176232
870703
236346
353176
915100
176232
795555
494020
353176
746716
176232
405428
952539
795555
494020
176232
176232
494020
748353
866427
633364
353176
494020
866427
176232
870703
952539
866427
353817
914897
870703
795555
915100
866427
824767
746716
353817
746716
914897
915100
1
353176
236346
915100
952539
494020
353817
353817
866427
454007
952539
236346
952539
353817
915100
454007
866427
748353
1
824767
866427
405428
454007
494020
746716
633364
353176
952539
633364
176232
746716
746716
494020
914897
1
633364
866427
236346
748011
915100
824767
795555
353817
236346
1
866427
630443
405428
494020
353176
176232
748353
866427
870703
633364
630443
870703
1
176232
947688
353176
720499
140090
176232
947688
494020
824767
494020
952539
353817
746716
952539
915100
140090
795555
353817
947688
494020
353176
914897
748011
140090
555578
284402
720499
748011
630443
555578
914897
353176
870703
1
405428
284402
748353
405428
748011
746716
353817
870703
630443
494020
870703
561974
494020
1
824767
284402
978072
405428
630443
748011
748353
72397
284402
748353
748011
405428
176232
870703
1
795555
795555
914897
353817
870703
72397
914897
172521
720499
952539
555578
405428
633364
494020
353176
761473
268587
633364
915100
405428
952539
952539
268587
236346
1
72397
748353
555578
555578
561974
1
555578
236346
353176
102792
720499
866427
870703
1
866427
454007
978072
952539
1
268587
102792
176232
795555
236346
707278
748353
630443
353176
63433
284402
824767
707278
707278
952539
172521
870703
707278
172521
761473
284402
947688
707278
947688
405428
384525
915100
172521
494020
384525
633364
915100
353817
353817
172521
720499
718678
795555
561974
707278
454007
866427
947688
561974
176232
761473
720499
72397
746716
172521
465925
947688
915100
633364
268587
494020
353176
663128
494020
978072
748353
870703
870703
72397
746716
866427
555578
630443
947688
720499
824767
720499
102792
633364
561974
454007
172521
824767
176232
978072
746716
633364
384525
454007
885202
465925
748011
718678
325724
748011
761473
172521
63433
947688
718678
405428
633364
284402
915100
384525
176232
712251
561974
555578
707278
952539
115322
718678
947688
707278
748353
405428
405428
494020
465925
978072
555578
870703
870703
284402
555578
72397
566613
384525
172521
532009
870703
494020
48668
663128
1
633364
384525
720499
353176
633364
325724
203447
663128
384525
102792
474494
566613
555578
325724
63433
400685
102792
824767
1
474494
761473
405428
48668
566613
795555
952539
353176
454007
746716
176232
102792
213173
250399
630443
465925
824767
48668
795555
454007
405428
663128
720251
824767
720251
748011
1
997308
978072
561974
720499
997308
325948
384525
952539
997308
321916
707278
915100
284402
566613
952539
978072
997308
321916
284402
465925
997308
284402
284402
72397
457655
914897
486909
454007
494020
72397
384525
7551
203447
795555
566613
400685
474494
115322
952539
236346
405428
384525
282345
869117
282345
250399
7551
746716
353176
832411
213173
746716
325724
978072
566613
1
761473
866427
870703
454007
325948
140090
102792
555578
748353
63433
952539
180274
140090
832411
761473
720251
325948
140090
72397
405428
486909
933494
72397
847007
978072
601598
718678
630443
720499
140090
102792
400685
245551
284402
633364
325724
601598
384525
494020
486909
720499
115322
561974
947688
7551
176232
605338
978072
236346
236346
720499
305615
718678
561974
176232
663128
663128
102792
245551
720251
321916
353176
824767
720499
405428
1
748353
712251
824767
353817
601598
870703
712251
228595
172521
630443
72397
870703
7551
72397
566613
605338
384525
305615
457655
486909
566613
140090
176232
245551
213173
630443
746716
1
866427
486909
48668
250399
321916
997308
394184
947688
454007
454007
24555
304076
242676
245551
320828
870703
866427
566613
24555
555578
663128
992042
305615
325724
268587
384525
866427
474494
213173
486909
824767
384525
180274
952539
284402
746716
245551
712251
605338
947539
808377
140090
748353
405428
400685
997308
808377
7551
630443
761473
605338
808377
746716
63433
712251
384525
245551
561974
102792
640862
718678
454007
268587
555578
761473
947539
384525
748011
795555
866427
933494
320828
992042
284402
258838
63433
746716
562085
176232
268587
384525
284402
115322
997308
663128
601598
630443
63433
325948
228595
933494
885202
284402
258838
7551
830307
605338
663128
176232
555578
683303
914897
228595
245050
520317
405428
474494
718678
305615
405428
305615
180274
494020
847007
258838
748011
400685
213173
748011
952539
748353
933494
180274
213173
48668
978072
7551
677313
748011
305615
305615
180274
172521
677313
457655
298976
203447
952539
947539
304076
282345
203447
268587
304076
304076
562085
203447
933494
720251
304076
382891
400685
298976
405428
520317
640862
832411
520317
746716
305615
176232
847007
746716
268587
353817
866427
48668
405428
869117
683303
213173
242676
640862
236346
24555
284402
248729
649549
474494
4658
663128
720499
353176
978072
140633
601598
561974
1
384525
140090
633364
677313
549383
555578
486909
640862
250399
236346
486909
978072
140633
933494
630443
761473
321916
140633
601598
401575
228595
562085
566613
520317
677313
325948
683303
443771
115322
474494
443771
172521
465925
304076
997308
320828
720499
952539
992042
140090
245551
72397
952539
947688
282345
63433
77764
677313
140633
683303
712251
382891
633364
63433
992042
77764
228595
140090
405859
707278
549383
746716
761473
443771
677313
115322
720251
1
630443
457655
562085
394184
102792
77764
486909
298976
561974
140090
707278
401575
140633
997308
562085
321916
325724
933494
321916
353176
649549
176232
744686
947688
520317
605338
48668
306858
236346
245050
4658
454007
808377
180274
720251
320828
640862
978072
63433
486909
947688
180274
633364
72397
915100
221196
795555
640862
282345
325724
532009
48668
242676
298976
382891
561974
497235
951040
607513
140633
795555
274709
640862
997308
7551
394184
172521
454007
304076
992042
795555
795555
663128
497235
268587
744686
933494
808377
720251
400685
63433
245551
282345
384525
978072
808377
274709
830307
180274
683303
549383
228595
970574
320828
992042
457655
555578
847007
394184
720251
870703
474494
7551
808377
633364
633364
997308
947166
279637
353817
320394
401575
520317
795555
213173
140090
947539
172521
454007
497235
320828
718678
48668
284402
282345
683303
925838
630443
140633
268587
720499
915100
744686
997308
947539
381662
830307
746716
683303
744686
720499
947539
564160
869117
282345
885202
683303
830307
353817
245551
707278
486909
915100
564160
236346
24555
4658
633364
474494
947166
304076
48668
176232
561974
405859
298976
718678
115322
677313
443771
140090
1
250399
649549
81361
707278
683303
258838
520317
869117
245551
381662
997308
382998
180274
630443
486909
970574
228595
997308
203447
400685
321916
236346
607513
221196
749020
933494
630443
225804
1
115322
749020
72397
325948
649549
245050
35012
1
649549
716583
102792
683303
306858
914897
978072
48668
869117
851704
320828
274709
919383
176232
384525
72397
824767
236346
400685
885202
720251
663128
561974
382998
284402
382891
382891
946033
749020
401575
707278
992042
110961
946033
353176
697047
522695
497235
225804
381662
663128
284402
213173
203447
48668
320394
102792
720251
465925
250399
947539
298976
866427
707278
115322
824767
63433
952539
320394
869117
941231
242676
677313
72397
274709
748353
497235
486909
4658
832411
761473
748011
325724
683303
320394
683303
394184
242676
707278
443771
81361
443771
830307
353817
925838
761473
947539
746716
474494
325724
532009
555578
869117
72397
746716
250399
885202
549383
744686
279637
532009
746716
561974
847007
808253
824767
180274
250399
997308
716583
203447
35012
497235
700615
110961
870703
140090
381662
457655
279637
401575
808377
748353
640862
176232
640862
63433
707278
915100
914897
933494
391234
140090
914897
919383
24555
885202
605338
110961
601598
578237
115322
320394
176232
258838
649549
282345
951040
718678
947166
401575
947539
274709
866427
555578
746716
869117
941231
48668
140633
320828
555578
242676
325724
274709
258838
4658
140633
952539
7551
405859
847007
248729
17466
225804
72397
885202
180274
661460
578237
712251
115322
744640
578237
941231
72397
561974
191758
556804
832411
298976
997308
761473
749020
640862
870703
242676
561974
869117
857063
601598
353817
494020
101517
947688
898587
947688
746716
284402
824767
640862
17466
663128
830307
325948
63433
683303
110961
63433
1
795555
24555
532009
497235
649549
522695
1
633364
898587
140090
795555
486909
824767
566613
24555
683303
847007
952539
640862
630443
320828
769130
686170
77764
640862
401575
1
761473
391234
824767
707278
102792
191758
457655
391234
353176
374434
578237
72397
866427
486909
7551
673176
744686
454007
561974
298976
700615
978072
306858
857063
605338
532009
140090
465925
213173
933494
941231
203447
520317
661460
401575
630443
649549
951040
258838
748353
946033
72409
382998
401575
405428
321916
382998
866427
564160
77764
951040
697047
215947
494020
707278
382891
884191
744640
242676
749020
857063
382998
304076
7551
683303
683303
228595
268587
245050
545760
172521
474494
282345
707278
952539
102792
236346
605338
997308
884191
633364
532009
268587
946033
115322
992042
870703
140090
744640
697047
712251
992042
203447
236346
394184
374434
769130
389474
946033
48668
180274
191758
716583
925838
712251
933494
545760
180274
81361
857063
284402
712251
846769
795555
405428
744686
157781
677313
320394
568166
63433
832411
561974
541696
282345
140090
17466
221196
236346
248729
915100
663128
457655
325724
562085
279637
279637
77764
946033
870703
832411
298976
769130
258838
673176
401575
633364
474494
50837
153913
978072
245551
374434
248729
443771
830307
72397
972734
640862
857063
394184
601598
832411
384525
884191
633364
298976
761473
748011
258838
274709
391234
640862
405859
946033
914897
673453
919383
605338
697047
915100
925838
50837
720251
236346
952539
438906
223930
391234
268196
172521
374434
381662
63433
180274
35012
274709
919383
245050
830307
72409
970574
925838
405859
832411
744686
305615
221196
568166
17466
394184
564160
997663
35012
375132
1
564160
494020
749020
50837
545760
947166
919383
787469
268587
321916
306858
305615
274709
545760
568166
375132
589538
541696
102792
532009
325948
568166
787469
700615
607513
306858
568166
869117
846769
673176
77764
952539
474494
848757
279352
203447
325948
101517
400685
140090
242676
947539
305615
686170
172521
846769
1
769130
549383
306858
707278
761473
686170
832411
191758
601598
176232
555578
225804
279352
465925
746716
110961
81361
997448
88427
795555
748011
391234
320394
933494
947166
568166
857063
391234
48668
63433
761473
305615
829728
972734
749020
605338
236346
286625
454007
77764
474494
284882
497235
454007
532009
268587
365309
298976
951040
225804
353176
397368
604051
397368
353817
250399
35012
941231
223930
1
604051
50837
485943
869117
830307
556804
1
72409
885202
697047
769130
794489
176232
898587
898587
661460
140633
35012
77764
339699
485943
700429
787469
382891
806056
72397
884191
777417
298976
180274
846769
700615
884191
191758
795555
561974
607513
229731
17466
258838
919383
339699
389474
394184
520317
604051
263660
720499
382891
70366
748353
700615
824767
744686
855397
140633
914897
549383
263660
72397
716583
761473
88427
971183
630443
749020
248729
927222
808377
102792
683303
925838
286625
857063
673176
522695
925838
700429
284882
374434
70366
562085
102792
526957
952539
176232
401575
564160
263660
397340
970574
229731
50837
48668
566613
630443
846769
80727
157781
746716
673453
221196
566613
325948
229731
353176
268196
17422
919383
77764
884191
77764
353176
50837
153913
336270
157781
545760
562085
610719
744686
851704
869117
110961
661460
485943
947539
720499
924781
353817
748011
172521
566613
640862
26966
846769
971183
397368
116702
997663
371205
857063
997308
700429
371205
697047
223930
865580
970574
663128
630443
228595
997663
925838
787253
898587
305615
325724
248729
110961
918780
712251
555578
926316
707278
663128
578237
564160
439207
4658
245050
397368
970574
494020
568166
601598
744686
562085
81361
532009
997448
630443
229731
474494
806056
282345
599931
808253
405428
391234
918780
663128
409415
992042
832411
497235
946033
601598
81361
885202
947688
397340
245050
918780
716583
915100
520317
677313
91225
795555
605338
17422
50837
869117
474494
409415
556804
700429
279352
769130
520317
794489
663128
48668
236346
914897
242676
866427
914897
568166
673453
761473
245551
927222
389474
245551
382891
777417
229731
397368
191758
474494
236346
607513
50837
716583
225804
941231
978072
80727
81361
663128
191758
115322
744640
229731
180274
284882
63433
176232
17422
700615
769130
720251
268587
915100
279352
176232
926316
486909
720251
919383
919383
870703
381662
397368
191758
522695
72409
82774
55279
601598
157781
556804
191758
305615
325724
545760
610719
438906
549383
748011
263660
462117
298976
486909
561974
333938
865580
494020
339699
970574
562085
707278
857063
72397
926316
607513
214381
157781
541696
561974
633364
17422
820046
744686
924781
578237
17422
279637
855397
293455
102868
848757
333938
397340
919383
898587
116702
686170
485943
140633
884191
526957
711892
748353
72409
293455
486909
884191
972734
225804
263660
673453
454007
861967
214381
91225
847007
457655
140633
952539
374434
820046
918780
808377
7551
885202
115322
907360
898587
673176
847007
439207
397368
599931
851704
952539
549383
462117
191758
927222
919383
541696
439207
55279
952539
604051
286625
848757
191758
35012
321916
951040
915100
630443
497235
180274
769130
213173
827644
520317
268587
697047
321916
497235
353817
374434
865580
919383
353817
72397
375132
855397
918780
377080
405859
997448
978072
70366
857063
725856
808253
700429
997663
885202
474494
830307
70366
263660
381662
946033
374434
288625
110961
546806
397340
720251
716583
50837
997448
673176
70366
997448
203447
848757
176232
286625
225804
374434
555578
250399
462117
617177
700429
203447
827644
465925
700615
80727
947166
180274
607513
65490
215947
70366
274709
605338
697047
442818
663128
223930
855397
824767
933494
353817
371205
250399
223930
268587
589538
465925
898587
761473
465925
830307
250399
885202
832411
947688
465428
245050
258838
462117
17466
77764
742834
248729
365309
282345
610719
549383
7551
673176
630443
865580
116702
683303
720251
947166
532009
284882
212260
832411
418052
457655
700429
282345
686170
225804
288145
671728
17422
865580
605338
568166
70366
454007
465428
245551
443771
438906
284882
279637
457655
417633
556804
898587
110961
686170
566613
915100
520317
526957
978072
885202
443771
671728
397368
180543
601598
391234
562085
72409
671728
865580
561974
589538
401575
918780
951040
848757
157781
157781
978072
1
382998
698572
951040
749020
65490
919383
321916
997308
229731
102868
409415
24555
354737
673453
214381
992042
365309
599931
320394
389474
91225
223792
906201
65490
808377
566613
462117
77764
268196
268587
263660
229731
63433
992042
115322
978086
751626
926316
992042
442992
700429
515006
223930
532009
274709
442992
101517
925838
279352
592276
4658
457655
746716
140090
671728
504641
744640
798657
353817
298976
728838
946033
465925
306858
474494
915100
63433
857063
400685
970574
746716
640862
746716
941231
698572
115322
611026
673176
375132
716583
268587
330032
115322
81361
869117
556804
65490
258838
742834
191758
545760
970574
454007
947621
952539
72409
306858
545760
947166
88427
245050
607513
391234
87334
649549
461540
941231
934084
947621
321916
353817
744686
333938
933348
830307
384525
599397
858318
504641
971183
568166
80727
157781
305615
946033
203447
915100
562085
927222
375132
203447
228595
313618
228595
374434
418052
806056
305615
248729
384525
941231
861967
461540
997448
541696
683303
663128
972734
997663
238172
70366
17466
339699
382891
697047
7551
306858
978086
671728
885202
820046
298976
221196
673176
997663
858318
604051
462117
439207
744640
391234
288625
933348
707799
242676
578237
946033
153913
282345
80727
365309
374434
180274
101517
978072
545760
504641
649549
284402
330032
546806
336270
191758
381662
749020
744686
389474
228595
288625
250399
698773
971183
698572
48668
830307
711892
630443
919383
212260
223792
439207
180543
176232
180251
228595
564160
17466
418052
485943
381662
48668
933348
389474
700615
87334
325948
683303
924781
282345
604051
140633
952539
288145
769130
848757
354737
504641
711892
391234
832411
418052
268587
306858
742834
522695
268990
180251
248729
116702
375132
282345
545894
77764
933494
546806
63433
906201
223792
562085
214381
566613
457655
284402
391234
520317
34693
433505
772447
433505
102868
827644
333938
874184
343654
925838
869117
409415
238172
611026
700615
258838
353817
742834
353817
858318
997448
1
374434
992042
140090
605338
520317
381662
947166
63433
442992
918780
1
279637
397340
213173
461540
162926
405428
162926
180274
268990
555578
607513
898587
562085
701578
787469
545760
545760
211293
245050
926316
88427
353817
748011
599397
288145
203447
698773
484588
397368
777417
397368
978072
102868
720251
80727
601598
48668
253733
952539
229446
599931
312291
808253
787469
971183
528333
50837
698572
48668
761473
389474
744640
978072
947621
77764
55279
700615
214381
870703
312291
787253
418052
532009
884191
855397
832411
640862
91225
391234
661460
741187
806056
686170
63433
951040
405859
720499
101517
633364
520317
946033
417633
384525
442992
474494
941231
497235
63433
221196
673176
848757
701578
738430
250399
866427
561974
312291
401575
848757
88427
268990
549383
72409
698773
115322
751626
382891
153913
497235
34693
532009
564160
870703
446255
716583
1
284882
777417
545760
532009
330032
313618
81361
375132
520317
941231
375132
611026
795555
919383
738430
279352
263660
978086
381662
279637
102792
947688
663128
336270
415072
315051
433505
528333
914897
952539
457655
677313
180251
874184
566613
145053
926316
622788
65490
919383
927222
827644
566613
213173
153913
457655
211293
334342
992042
336270
250399
748011
23223
820046
607513
443771
562085
405859
250399
661460
320394
81361
417633
925838
140090
48668
268196
162926
304076
693790
931416
794489
211293
172521
546806
772447
486909
286625
716583
248729
236346
214381
707571
166871
978086
443771
171914
191758
268196
748011
288625
454007
171914
907360
439207
55279
389474
223792
857063
23223
585847
250399
417633
532965
110961
725856
429634
462117
661460
971183
442818
245551
415072
442992
933348
394184
38891
305615
549383
229446
474494
382891
449359
305615
339699
377080
245551
738430
738430
268990
528333
515006
787253
738430
947688
716583
330032
777417
140090
566613
297293
870703
417633
72409
997308
334342
545894
30344
401575
749020
820046
268196
232427
870703
927222
343654
728838
268990
698773
997663
884191
38891
592276
263660
520317
87610
258838
777417
229731
683303
788292
462990
700429
87610
391234
418052
742834
228595
798657
941231
858318
465925
81361
381662
562085
915100
592276
418052
978086
409415
151340
673176
88427
808377
34693
110961
946033
751626
617177
520317
306858
465428
229446
72397
683303
403706
707571
997448
330032
401575
865580
140633
942735
787253
649549
720499
166169
23223
4658
50837
978072
212260
661460
486909
997663
794489
312291
412926
38891
663128
312015
545760
55279
916029
442992
4658
203447
48668
17422
274709
772447
808253
391234
325724
65490
166871
336270
88427
320871
947621
151340
279637
561974
951040
288625
820046
744640
315051
225804
744686
334342
320394
412926
305615
474494
279637
716583
932371
320828
213173
807118
926837
34693
824767
417633
522695
228595
320828
465428
400685
449359
718678
80727
762462
36545
777417
213173
191758
700429
191758
794147
225804
382891
926837
744686
866427
102868
382998
673453
992042
101517
545894
683303
719148
556804
250399
870703
725856
229446
258838
38891
578237
599397
334342
215947
374434
728838
927222
258838
397340
795555
526957
997663
382891
663128
778473
378039
225804
462990
81361
389474
320394
248190
978086
601598
23223
330032
933494
787253
26966
330032
180251
333938
846769
941231
693790
592276
225804
673453
374434
330032
110961
855397
898587
728838
825579
1
281682
180274
617177
931416
589538
545760
65490
401575
157781
279352
561974
333938
528333
693790
926837
1
857063
88427
474494
515006
777417
997308
914897
869117
857063
306858
874184
443771
371205
761473
947688
611026
284882
610719
229446
167492
312015
7551
418052
102792
238172
180251
829728
711892
794147
229731
970574
700615
605338
415072
914897
365309
34693
353817
270846
825579
847007
692142
827644
215519
232427
321916
151340
270846
992042
461540
504641
417633
485943
762462
568166
70366
916029
140090
211293
245050
439207
253733
915100
91154
223792
375132
561974
166871
741187
343654
23223
65490
268587
263660
925838
769130
412926
744640
482173
457655
465925
248729
263660
947621
671728
102868
934084
751626
788292
874184
245050
832411
585847
180543
932371
767434
825579
770278
744640
545894
741187
798657
91154
221196
787253
952539
70828
915100
589538
321916
24555
568166
429634
415072
229731
885202
663128
537007
389474
926837
712257
825579
486909
279352
932518
601598
50837
751626
268990
223930
712251
102792
167492
549383
782422
820046
866427
229446
671728
707571
215947
686170
537007
806056
772447
907360
861967
947539
947688
630443
180543
971183
578237
238172
605338
769130
794147
982413
545894
162926
745853
997663
218518
23223
72409
707799
578237
358515
827644
415072
931416
633364
720251
673176
180543
941231
997663
777417
646451
409415
857159
866427
400685
825579
903547
555578
7551
91225
223930
62075
738430
72409
728838
898587
787253
827644
857159
418052
515006
794489
213173
229446
429634
806056
794147
213173
562598
72409
236346
649549
947621
520317
692142
377080
297293
541696
762462
906201
640862
330032
17422
484588
24555
7333
378039
191758
50837
782422
223930
304076
320828
545760
610719
762462
640862
615769
997448
435474
970574
353176
494020
248729
145053
545894
377080
504641
650633
145053
778473
650633
405428
772447
400685
744640
473555
281682
438906
857063
320828
537007
769130
552656
151340
415072
405859
748011
914262
692142
933494
110961
712251
608571
698572
622788
405859
38891
778473
698572
4658
62075
725856
325724
218518
947166
245050
176232
898587
62075
884191
371205
377080
762462
263660
787469
947688
427100
787469
926316
777417
141024
830307
515006
298976
700615
38891
952539
223792
87610
562085
36545
339699
72409
460762
870703
782422
808253
221196
526957
742834
946033
751626
711892
381662
562598
484588
421743
548868
391234
381662
442992
787253
279352
941231
449359
435474
288625
1
545894
578237
697047
874184
548965
228595
384525
962669
382998
686170
412926
223930
677313
858318
720499
700429
926837
526957
749020
568166
556804
622788
549383
700429
520317
270846
515006
70828
728472
911459
794147
162926
304076
110961
55279
442992
932371
952539
707278
808377
919383
485943
707799
7551
902432
391234
171914
707571
293455
561974
17422
673176
166169
72409
180274
171914
203447
37401
571520
528333
256516
391234
937616
215947
808377
26081
599397
107212
223792
532009
661460
88427
927222
937616
245551
37401
225804
707799
418052
520317
854262
151340
745853
556804
748353
253733
378039
175050
683303
749020
70366
872601
397340
30344
228595
221196
477794
640862
417633
288145
238172
353176
911459
34693
248729
855397
494020
712251
742834
770278
306858
330032
438906
728472
870703
183257
830307
37401
353817
646451
788292
107212
23223
72397
494020
919383
343654
34693
50858
242676
215519
268990
340621
87610
655635
229731
650633
435474
377080
707278
884191
564160
568166
701578
281682
744686
258838
81361
885202
599931
915100
933348
30344
946033
707799
242676
288625
418052
485943
864616
562598
442992
937616
548965
382998
885202
934084
951040
707278
70366
937616
258838
499755
566613
778473
748011
334342
435474
465925
633364
26966
649549
914262
253733
48668
63893
552656
947621
229446
827644
907360
549383
499755
971183
268587
857063
964578
449359
419001
611026
649549
545894
827644
284882
365309
522695
719148
477794
788292
324074
571520
87610
36440
340621
343654
617177
700615
55279
23223
320871
454007
920057
744686
748353
827644
788292
263660
256516
72397
17466
748011
772447
382998
403706
304076
770278
330032
957771
750819
762462
870703
334342
365309
592276
157781
7333
911459
446255
857159
599931
824767
615769
1
91225
633364
497235
532009
562598
992042
150791
397340
857063
782422
622788
253733
794147
462117
711892
320828
515006
172521
787469
288625
545760
305615
15718
324074
48278
26966
468204
855397
215519
312291
808377
293455
151340
497235
17422
924781
601598
225804
725856
485943
325724
829728
707799
865580
38891
145053
407012
794147
474494
288625
176232
29918
203447
947688
431185
48668
562598
238172
744640
474530
461567
920057
604051
325948
561243
215519
601598
180543
270846
528333
697047
920057
633364
746716
795555
504641
820046
561243
532965
7244
248251
87610
442818
180543
941231
180251
167492
401575
284402
305615
324074
914897
397340
926630
494020
268196
854262
515901
401575
409415
911459
795555
232427
268196
215519
35012
48668
918780
546806
162926
461567
269758
978086
562598
515006
484588
245551
947539
646451
218518
865580
661460
449359
334201
145053
333938
81361
183257
545894
358515
520317
473555
87610
357530
711892
942735
661460
315051
397340
150791
926630
326947
874184
561974
107776
242676
649549
140633
268196
750819
751626
707278
931416
898587
804904
268196
334342
951040
377080
750819
711892
62075
701578
751626
972734
952539
91154
898587
522695
223930
442818
61615
718678
504641
15718
649549
504641
808377
175050
415072
832411
324074
37401
80727
389474
926837
971183
240779
933348
474530
795555
157781
601598
633364
794147
175050
107212
855397
449359
248251
88427
582752
81361
102792
140633
982413
70828
762462
421743
908245
926630
470061
446255
707278
334201
433505
851704
157781
306858
698773
932371
284882
719148
524250
898587
409415
409415
167492
334201
741187
263660
223930
377080
865580
375132
19522
36440
615769
248729
903547
382998
485943
19522
400685
748011
978996
825579
377080
707278
87334
700615
394184
446255
427100
497235
400685
421743
336270
915100
932518
48668
978086
465925
857159
622788
343654
865580
397607
333938
102868
916029
829728
167492
825579
157781
866427
172521
240779
72409
777417
532009
982413
978996
925838
225804
605338
474530
992042
617177
592276
7244
474530
339699
223792
107776
326947
926316
911459
630443
215519
407012
391234
997663
926837
874184
63893
442818
70366
770278
281682
599931
312291
412926
26081
617177
825579
951040
288625
333938
545894
61615
357530
320828
37401
931416
848757
926630
879311
903547
599931
673176
725856
462990
601598
374434
284402
24555
415072
223930
874184
462117
712257
649549
268587
474494
223792
925838
29918
339699
320871
48668
443771
857063
320871
701578
698572
964578
343654
683303
80727
279352
375132
585847
842497
397340
405428
306444
279352
885202
36440
937616
788292
427100
354737
728472
409415
820241
601598
68303
371205
947166
48278
248251
211293
442818
288145
532965
931416
673176
617177
762462
782422
545760
7244
72397
673176
745853
767434
377080
927222
288640
522695
997448
926630
947166
397607
577099
34693
418052
524250
218518
749020
712251
661460
191758
846769
284882
87610
172521
213173
788292
320828
446255
599397
761473
429634
90342
537007
748353
353176
150791
107212
934084
378039
118911
524250
48668
245050
748353
947166
972734
914262
150791
845051
707799
320394
548965
494020
298976
762634
610719
927222
212260
825579
37401
746716
842497
164303
48278
429634
741187
673453
787469
903547
947688
745853
268587
750819
663128
320394
725856
29918
808253
175050
693790
947539
610719
286625
465428
528333
382998
334342
778473
50837
578237
926837
746716
974211
762462
325724
150791
548332
599931
247936
582752
72409
160824
176232
7551
225804
253733
340621
931416
274709
180251
38891
762634
608571
35012
400685
305615
997308
61615
549383
409255
313618
7244
183257
141024
866427
378039
532965
673176
141024
160824
442818
315051
772447
770278
330032
409415
926630
933348
17422
520317
515901
397340
898587
268196
306444
820046
608571
541696
90342
728472
63433
465428
926837
555578
353176
17422
941150
515901
357530
548868
845051
396876
381662
419001
778473
63893
191758
24555
914897
711892
762462
312291
37401
738430
7244
212260
284402
150791
952539
279637
585847
36440
604051
70366
951040
91225
313618
377080
476334
972734
719148
457655
191758
232427
397607
577099
744686
582752
772447
48668
585847
957771
520317
397368
183257
415072
68303
673176
857063
671728
630443
50837
284402
820046
17422
61615
343654
354737
884191
468204
806056
608571
556804
926837
107212
442818
442818
269758
741187
623429
286625
562598
972734
957771
907360
592276
933494
471744
663128
578237
964578
268196
378039
728838
997308
297293
830307
429634
7244
397340
215519
808377
82774
62075
229731
524250
141024
248729
247936
788292
394184
997448
343654
842497
221196
365309
465428
854262
91154
297293
116702
847007
865580
825579
184768
305615
738430
655635
808253
284882
354737
166871
582752
166169
150791
343654
62075
978072
268990
577099
804959
842497
820046
191758
562598
435474
561243
759527
607513
748353
504641
381662
745853
532009
720251
101517
997448
916029
48278
238172
685340
183257
320871
427100
157781
269758
725856
934084
284882
562598
381662
15056
1689
166871
29918
412926
381662
81361
661460
808253
782422
997308
671728
461540
931416
561974
334201
180274
804904
330032
110961
153913
462117
183257
394184
851704
740299
417682
515901
740299
258838
825579
884191
4224
381662
846769
397368
474530
397607
115322
650633
284402
333938
630443
700615
315051
610719
306444
777417
769130
465428
872601
711892
787253
381662
394184
499755
268990
970574
167492
354737
697047
63433
808377
532965
589340
808377
306858
245551
820046
646451
421743
808377
256516
26081
578237
405859
270846
171914
446255
63893
70366
26081
443771
90342
599397
577099
412005
274889
646632
582752
17466
528333
240779
263660
462117
141024
937616
903547
214381
171914
101517
306444
166169
5836
686170
720251
63893
270118
924781
504641
215947
250399
269758
811033
820046
589538
787469
250399
268196
562598
842497
17422
405428
115322
607513
87610
229731
183257
245050
409415
997663
418052
524250
746716
279637
242676
707571
700615
29918
623429
319376
107212
38764
325948
646451
957771
223930
171914
375132
268990
865580
15718
908245
449359
955698
524250
409255
692142
107212
869117
24114
720251
27934
778473
795555
371205
846769
804904
761473
607513
827644
565544
646451
865580
903547
245551
326947
748353
851704
176232
407012
884191
556804
433505
610719
748011
371205
749020
568166
279637
872601
712251
172521
577479
832411
473555
187808
685340
343654
63433
789526
29918
324074
748011
908245
228595
906201
693721
964578
338366
799078
562598
952539
744686
700429
749020
548965
857974
992042
166871
382998
19522
637948
271678
515901
911459
526957
178213
34693
537584
357530
578237
622788
409415
692142
857063
80390
61615
214381
601598
462990
861967
274889
214381
306858
794489
151340
683303
522695
128102
952539
707571
8140
30344
564160
403706
661460
449359
997308
515901
101517
336270
65490
884191
744686
522695
604051
116433
102792
269758
72409
394184
63893
397607
820241
63433
605338
746716
900188
184848
17422
153913
698773
926316
497235
17422
697047
461567
762634
611026
555382
619223
746716
288640
548332
82774
746716
598033
232427
650633
365309
268587
794489
24114
927222
931416
375132
184768
417633
81361
750819
972734
5836
62075
919383
354737
162926
556804
794147
72409
326376
698572
306444
175050
706277
919383
401575
978996
282345
999191
707571
26081
947688
728838
824767
218518
284882
288145
546806
751626
939933
472651
857159
974211
353176
918780
212260
384525
438906
926837
212260
413634
315051
358515
782422
397607
484588
964578
274889
661386
461567
808322
145053
409255
442818
957771
874184
389474
63433
375132
738430
601598
526957
555578
607513
439207
17466
978072
799078
288640
34693
794147
759527
183257
38891
354737
964578
795555
324074
806056
354737
619223
365309
334201
649549
431185
761473
353176
741187
806056
941150
902432
19522
407012
646451
102792
160824
178414
789526
846769
545760
247936
236346
565544
382998
748011
749020
915100
982413
926837
270846
211293
847007
673453
382998
162906
118911
384382
906201
555578
706277
38891
449359
443771
446255
70828
326947
281682
65490
248729
608571
417682
474494
605338
81578
38764
582752
401575
384525
312015
36545
915100
589340
457655
722295
68303
412005
63433
245050
26966
829728
334201
951040
787253
918780
610719
248190
223930
811033
942735
526957
279352
343654
610719
673453
284882
852335
808322
68303
907360
902432
288625
865580
242676
598033
820046
804959
671520
72397
7551
114651
70828
157455
677313
671520
101517
460762
484588
19522
970574
932371
431185
326947
180543
879311
615769
401575
748353
951040
315331
214381
602523
879311
77764
744640
114651
326947
325724
599931
454007
742834
640862
546806
562598
903547
824767
683303
305615
564160
320394
485943
320828
541696
906201
906201
962669
338366
325724
982413
274709
72409
313618
804904
825579
442992
305615
214381
770278
770278
761473
1
175050
982413
808322
673176
918780
87147
577479
462990
898587
320871
700390
602523
947539
998956
769130
937616
772447
140633
605338
17422
236346
462117
541696
477794
926630
375132
321916
716583
324074
787253
91225
617177
745853
378039
236346
81361
334201
315331
300785
589538
391234
738430
157455
315331
232427
433505
767434
952539
358515
403706
87334
978086
811033
932518
77764
236473
578237
847007
557266
592276
872601
141024
978086
872601
741187
284402
808253
951040
87334
925838
338366
661460
825579
646632
254335
313618
497235
461567
650633
15056
172521
720251
902432
443771
15718
72409
70366
229446
27934
231643
298976
566613
81361
102868
698773
592276
564160
806056
442992
854262
589340
744640
36545
999191
661386
162906
545760
722295
245551
623429
412005
472651
107212
700390
548332
561974
820046
26081
256516
978086
339699
918780
700390
807118
562085
213173
548332
661386
865580
248729
306858
107212
269758
281682
559895
229731
23223
746716
621311
673453
457655
934084
671520
777417
118911
37401
485943
87334
63433
65490
499755
91225
720251
315051
269758
160824
218518
298976
952539
394184
685340
157455
997663
55279
972734
297293
284402
746716
562598
978086
661386
846769
857974
245551
288640
207644
422675
807118
326947
778473
926630
939933
939933
924781
974211
830307
845051
728472
471744
171914
242676
598033
166871
98902
407012
914897
866427
490361
914897
313618
677313
827644
707799
80390
115322
746716
319376
673453
900188
978072
955698
711892
320871
741187
925838
411522
183257
477794
728472
847007
391234
412005
284402
537584
76609
454007
789244
939933
116433
907360
709530
319376
746716
907360
829728
305615
497235
183257
545894
221196
212260
964578
744686
38764
382998
871810
820241
598033
297293
589340
971183
80390
884191
214381
19522
118911
941150
166169
777417
778473
187808
355977
172521
830307
476231
245050
229446
861121
240779
384382
978086
272705
906201
789244
555578
858318
738430
15056
248729
70828
569249
68303
17422
405428
767434
4658
661460
306444
282345
656466
140090
187808
55279
977957
354737
808322
353817
761417
999191
571520
412926
279352
933494
116702
191758
207644
592276
947621
160824
162906
279637
473555
933494
761473
313618
604051
787469
160824
7244
937616
914897
212260
605338
306858
485943
288625
247936
371205
166169
5626
978086
349431
336270
435474
313618
415072
698572
903547
978996
203447
87610
951040
855397
15718
175050
869117
777417
417633
693721
646660
640862
807118
5626
552656
34693
212260
70366
427100
462117
748353
545894
476231
401575
365309
555382
171914
175050
978996
707799
866427
578237
409255
977957
389474
293455
604349
166169
271879
150791
858318
180251
312291
962669
449359
215519
274889
320828
561243
707799
918780
646660
623429
382891
167492
559895
484588
557266
599931
55279
128102
38891
852335
820241
17422
999191
474530
384382
305615
119488
552656
236346
271678
382998
377287
36440
334342
761417
153913
7551
357530
401575
468204
673176
978996
306858
236346
215519
646451
997448
745853
706277
87610
160824
608571
80727
38764
486909
313618
435474
707571
477794
324074
258838
796723
358515
545760
548332
400685
407012
804959
847007
377320
7551
650633
284402
263660
116702
102868
738430
176232
562085
36440
213173
546806
673453
454007
898587
762634
242676
671520
750819
4224
248251
435474
998956
419001
947688
700429
932371
306444
746716
35012
808253
846769
7244
236473
168694
274709
761417
150791
857159
253733
748353
256516
461567
671728
903547
623429
728838
417633
214381
978086
164303
435474
871810
750819
947166
761417
340621
903547
389474
556804
522695
957771
413634
571520
221196
621311
67732
834202
545894
494020
110961
808253
377320
274889
820046
934084
746879
537584
271879
248251
751626
247936
997663
871810
787469
728472
999191
889795
114651
707799
693721
157781
296667
545894
806056
861130
920057
592276
545760
615769
268196
409255
879311
611026
762462
537584
637948
916029
56510
700615
555382
159584
872601
24114
866427
722295
858318
378039
857974
998956
17466
384525
892198
808253
947166
306444
528333
934084
997308
187808
285431
38891
63433
834202
997448
926316
879311
847007
589538
845051
394184
637948
286625
397368
374434
325948
455510
761473
872601
933902
846769
312015
789526
269758
384525
728472
187808
268587
180274
242676
761417
718678
107776
229731
48278
604051
758952
315051
116433
248190
782422
947166
91154
772447
602523
446255
465925
946033
153913
925838
26081
861130
55279
561974
829728
745853
711892
422675
900188
761473
285431
442818
374434
959407
671728
740299
236473
245050
1689
48278
70366
415072
964050
866427
740299
365309
312015
349431
947688
80390
582752
522695
167492
358788
528333
490361
70828
377320
305615
759527
548965
23223
474494
422675
5836
978072
593529
282345
770278
306444
68303
248190
87610
865580
72409
397368
250399
438906
65490
354737
34693
686170
176232
974211
855397
214381
692142
646451
892198
683303
140633
168694
339699
214381
160824
582752
65490
693721
744686
633364
939933
962669
997663
525935
892198
855397
707278
354737
889795
885202
439207
562598
750819
834202
48668
789526
782422
613416
50858
646451
455510
7333
286625
548868
298976
937616
759527
824767
746879
694928
871810
82774
212260
854262
304076
770278
593529
282345
497235
561243
750819
640862
284882
256516
869117
36440
358788
394501
532009
673453
857159
932518
110961
405428
474530
340621
151340
933348
107776
865580
462990
81578
157455
80727
599397
141024
686170
673176
315331
806056
991937
305615
520227
538693
577479
834202
499755
962669
834202
537584
84344
462117
532965
997663
325724
566613
686102
326947
720499
141024
789244
271879
532965
685340
312291
566613
964534
741187
465925
663128
470061
834652
978072
153913
907360
401575
598033
941231
533808
952539
315331
248251
411522
36440
325724
140090
762462
384382
358788
263496
969587
474494
537007
593529
357530
48278
959407
767434
88427
24114
232427
794489
621311
748011
533808
343654
90342
982413
333938
485943
87147
8140
913857
525799
263660
683303
947166
36440
411522
151340
417633
709530
471744
107212
616948
769130
770278
231643
245551
562085
72409
472651
707571
203447
240779
374434
160824
593529
978072
978996
191933
184848
353817
767434
254335
460762
725856
245050
858001
67732
907360
924781
326376
431185
693721
941150
686102
974211
56510
804959
315331
859714
742834
525799
942735
377320
962669
313618
301807
611026
886787
864616
745853
180251
608571
187808
473555
87334
650633
168694
941231
417633
582752
157455
978086
446255
229731
88427
102792
213173
589340
528333
820241
524250
160824
288640
37401
795555
417633
616948
578237
394501
694928
288145
561243
906630
312264
374434
231643
284882
489790
187808
116433
101517
750819
473555
114651
798657
861967
207644
943985
947539
455510
203447
780317
537584
288640
663128
748353
321916
808253
162906
82774
497235
240779
457655
178213
371205
601598
296667
957471
221988
274889
176232
304076
808322
930744
70366
431185
907360
353176
615769
221988
57688
412005
524250
490361
153913
462117
577099
240779
40893
741187
780317
77764
577479
520227
157781
119488
336270
728472
419001
293455
845051
942735
102868
319376
460762
956676
964050
153913
829728
561243
78605
582752
159584
947539
926837
36440
336270
23223
858318
864616
248190
707571
610719
719148
5836
315331
630443
320394
353817
172521
321916
162926
437068
119488
382891
57688
412005
397340
633364
391234
700615
166169
622788
48668
537007
55279
870703
405428
24114
422675
655635
274889
607513
212260
907360
780317
564160
808322
748353
858318
274889
927222
407012
107776
288640
406093
750819
760647
532009
587175
84344
229446
417682
102792
238172
166169
355977
700615
119488
616948
315331
761473
978072
848757
497268
62075
427100
957771
830307
258838
270118
902432
926630
824767
978072
504641
782422
384525
254335
637173
924870
808322
65490
825500
377320
164303
932371
5626
301807
218518
861130
746879
162926
36440
409255
23223
556804
462990
61615
769130
84344
650633
221988
808377
27934
102868
845051
263660
789526
336270
462117
411522
744174
962669
932371
87334
701578
871810
15056
716583
847007
552973
749020
176232
941150
125167
55279
175050
746879
4224
157781
748011
80390
578237
857159
68303
150791
159584
607513
770278
577479
872601
358515
288640
686102
279637
744174
673453
997663
408232
295981
401575
548868
760820
914897
178213
623429
992042
589340
701578
548868
403706
886787
455510
326947
231643
325724
812579
422675
545760
470061
333938
858001
76609
465428
400685
825500
484588
497235
589340
566613
494020
555578
191758
737964
313618
486909
7333
270118
933494
991937
528333
353176
330533
561243
970574
271678
24114
65490
381662
405428
87147
937616
532009
497268
50837
655635
933494
829728
240779
978072
494020
484588
24114
956676
578237
706277
382998
175447
622788
221196
842497
515901
259919
525935
102868
145053
377287
293588
827644
38764
671728
697047
457655
883218
77764
241922
673453
91154
562598
270846
77764
902432
1
820241
522829
272705
391234
758952
686170
919328
295981
592276
515901
916029
978086
282345
646660
465428
552656
263660
330032
555578
403706
964578
56510
470061
870703
997448
700615
999191
485943
933902
865580
273946
919328
377287
906630
610719
720251
229731
698773
150791
39225
442992
700390
125167
167492
259919
697047
707571
269465
15718
494020
698572
381662
832411
246592
555382
301807
15056
400685
982413
640862
804959
605338
306858
26081
336270
454007
24555
394184
162926
178213
263660
656466
397607
268990
417633
892198
107212
571520
773220
184768
561974
30344
682374
340621
207644
601598
978072
24114
895931
627256
646451
321916
697047
207644
795555
279352
865580
931416
943985
203447
510719
649549
524250
82774
384382
396876
90342
62760
100658
956676
358788
693721
151340
926630
957471
640862
417633
933494
178213
418052
762462
903547
933902
336270
520317
770278
568166
151340
279352
82774
737964
445399
619223
221988
119488
305615
808253
861967
407012
82774
435474
941150
422675
403706
884191
50837
541696
184768
619223
459204
902432
549383
941150
969587
926316
268196
972154
770275
15718
685721
918780
61615
770278
650633
808253
408232
919328
902432
926837
419001
76609
438906
162770
115322
476231
274709
354737
413634
805847
577479
532009
830307
701116
357530
663128
119488
81871
225523
789526
920057
236346
624094
19522
525799
728838
231643
530911
598033
722295
673176
221988
110961
486909
400685
673176
353817
56510
326947
924870
153913
191758
627256
925838
63433
8140
1
701578
397607
858001
35012
286625
577479
81361
5626
589340
221196
312224
613416
389474
377080
160121
72409
435474
34727
538693
794489
268196
760820
145053
957471
358788
34693
250399
247936
869117
566613
671728
472826
851704
171914
788292
231643
964534
671728
998956
242676
671520
869117
438906
532965
128102
634230
406093
191758
295981
330533
198772
964578
5836
907360
357530
858001
686170
598033
706277
474530
621311
780317
77764
832411
924870
551041
538693
892198
787469
409415
634230
486513
868159
279352
706277
824767
349431
353817
229416
858001
854041
172521
214381
497268
780317
382891
725856
906630
472826
788292
701116
371205
70366
24114
465428
760820
718678
861121
555578
415072
272705
460762
598033
937616
358515
555578
972734
832411
228595
933348
749020
637173
339699
178213
622788
865580
36440
693721
382998
461567
102792
300972
477122
391234
895931
532009
297293
442818
241922
947688
273946
510719
24555
162770
686102
339699
770278
830307
162926
446265
545894
555578
562085
577099
640862
778473
864256
243998
247936
297293
454007
895931
701578
114651
98902
232427
214381
907360
707278
738430
528333
934084
592276
15718
926316
646660
787469
486970
782713
906201
692142
656466
569249
330032
857159
957471
409415
39451
569249
381662
608571
231643
258838
615769
742834
564160
176232
140090
722295
409415
772447
864616
882733
247936
421743
978072
982413
578237
72397
184768
927222
599931
229731
816890
576229
612278
602523
67732
215519
26081
334342
533808
413634
848757
56510
198772
742834
850516
15056
119488
783768
515901
700429
253733
829728
919383
401575
315051
115322
760647
183257
608571
885202
62760
615769
927222
81871
930744
297293
933902
258838
50837
300785
861967
538693
798733
592276
671520
707278
760647
621311
2589
26966
269465
65490
65490
442818
166871
852335
868159
166871
834202
191933
858001
349431
552656
474494
541696
541696
824767
203447
160824
982413
312015
330533
951040
808253
150791
630443
926837
77764
279352
532009
744686
100658
191758
559895
66823
947688
107776
242676
879311
829728
248729
932371
520227
263660
417682
499755
140633
532965
313618
511111
728472
769130
569249
879311
470061
643617
484588
883218
728472
100658
522829
312291
401575
417633
384382
371205
964050
725856
388291
333938
942735
718678
34727
530911
746716
164303
107776
630443
294173
312264
551291
39225
761417
34693
330032
532965
288145
624094
799078
325724
455510
293455
449359
758952
515901
538693
850516
285431
816890
847007
213173
340621
978996
320828
17422
114651
160824
353176
270846
913857
778950
906630
241922
248190
847007
354737
619223
569249
429634
566613
215519
171914
522695
760647
697047
17466
850516
671728
655635
728472
589340
919383
36545
114021
694928
391234
405428
223792
982413
613416
504641
2589
19522
889795
107776
808377
391234
745853
700615
214381
357530
834652
924870
693721
472651
417682
578237
943985
100223
613416
924781
1
128102
861967
984129
400685
808377
183257
546806
377080
816890
744174
396876
80390
472826
599397
780317
167492
236346
562598
520317
673453
405428
157455
188300
157455
153913
728838
568166
241922
120397
4658
999191
916029
396876
622788
23223
782713
956676
48278
697047
166169
920057
40893
230160
585847
613416
906201
2589
214381
871810
526957
870703
612278
992042
561243
505188
486513
389474
998956
100658
461540
682374
889795
65490
555382
939881
151340
180543
336270
381662
793980
566613
744174
80390
279352
537007
947688
738430
230443
599931
198772
371205
878399
430059
17466
602523
215947
561243
279352
229731
365309
762634
526957
671728
17422
203447
229446
238172
762462
100223
555382
223792
2589
178213
852335
720499
919383
258838
68303
933348
114021
646632
728838
166169
861802
549383
561012
869117
532965
34693
746716
811033
777417
693790
88427
610719
599397
611026
974211
324074
605338
587175
325724
510719
933494
62075
622788
355977
427100
559657
157737
528333
869117
145053
851704
719148
484588
223930
883218
176232
649549
474530
176232
566613
978086
34727
120397
693721
87147
68303
441488
586663
236346
628202
166169
834202
808377
353481
70366
39225
478466
957771
72409
548965
171914
933902
315051
412005
982413
997236
24114
861130
997663
698773
166169
293588
735500
477794
377080
334342
559895
459204
459204
324074
773220
91154
700429
701578
808253
446265
804904
328786
719148
100658
883218
472651
569249
91225
286625
538693
461540
50858
449359
279637
974211
770278
18105
157781
320871
39451
84344
627256
15718
767434
825500
725856
933348
918780
698572
882733
978996
242676
325948
465925
927222
555382
460762
151340
616948
885202
275978
467804
782713
476231
459204
598033
741187
354737
446255
712257
799078
223930
808377
545894
720410
258838
861130
17422
736958
718678
494020
799078
788292
340621
315051
140633
546806
744640
293455
997308
582692
525935
879311
377080
906630
56510
151340
964534
712257
63433
919328
564160
320871
808377
530911
612278
610546
736958
564160
286625
518727
856399
221988
605338
700615
68303
808322
391234
646451
70828
162770
160121
274709
221988
126946
188755
972734
566613
449359
461540
229416
920057
460762
964050
685340
340621
415072
620545
246592
72542
271879
712251
782713
188300
267443
879311
294921
312291
997236
15056
454007
297293
871810
552656
357530
166871
377080
782713
559657
720499
462990
700429
805847
707278
559657
256516
787469
467804
269465
547704
955698
611026
39451
825579
256480
78605
812757
180274
924870
37401
520227
351292
497268
865580
125167
998956
749020
767899
489790
857896
566613
861967
613416
499755
761473
138042
898587
183257
663128
686170
337705
494020
417682
673453
807118
661460
551041
547704
585847
696751
627933
725856
286625
593529
956676
520317
312291
605338
116433
569249
24114
561012
471744
184848
263496
267443
253733
707278
400685
955698
706277
557266
35012
4658
240779
787253
857974
91225
546806
787469
999191
548332
628202
633364
396876
26081
745853
305615
807141
634230
248251
869117
461540
858001
926837
250399
337705
698572
438906
738430
26081
886787
525799
159584
355977
55279
561012
767236
762634
933937
555578
279352
707571
937616
254335
90342
522695
736958
650633
169792
334342
296667
820167
172079
780317
939881
351292
556535
773220
358788
27934
312291
934084
820167
510719
438906
746879
555382
304076
1
111662
565544
34727
325724
138042
851704
465428
409415
470061
798657
677313
538693
515901
175050
804959
18105
655635
978072
68303
267443
486909
361532
176232
546806
682374
153913
50837
160824
767899
489030
236346
510719
494020
673176
932371
157781
57688
767236
561012
601598
377320
515006
741135
393760
868159
24555
381662
808377
507926
215947
18105
489030
320828
878399
829728
215947
992979
623429
520227
955698
919383
162906
421743
270118
769134
461567
701578
511111
477794
288625
367943
964050
472826
388443
353176
388443
471744
315331
35012
331907
939933
566613
325724
957471
671520
126946
783768
140633
643617
100223
335164
71859
577099
5836
391234
947166
646451
62075
700615
288625
900188
274709
461540
679385
933494
391938
537007
848757
595802
633364
759527
863950
84344
15718
577099
524250
932518
762634
804959
772447
962669
420311
522695
744174
522829
683206
114021
288640
71859
709530
601598
449359
70366
7333
772447
334342
913857
947539
98902
442818
325948
916029
920057
751626
964534
477122
552973
457655
203447
760647
736958
114021
465428
735500
90342
700615
931416
335164
162926
525935
977890
268587
720251
640862
548868
871810
886787
931416
617177
939933
772447
334342
409415
565544
712251
389474
477794
72542
221196
157781
339699
190
248190
268990
692142
693721
406093
820046
486909
319376
378039
29918
382998
100658
656466
331907
832411
138042
256516
407012
612278
472651
445399
787253
947621
552973
964578
382891
825579
820167
327645
547704
656466
601598
808322
391938
80727
925838
340621
477122
848757
334201
409255
230443
696751
969587
190
933937
865580
358515
7244
101517
245551
320828
947621
116433
359410
188300
473555
961138
361532
824767
581066
23223
461540
494020
486909
304076
716583
489790
957471
628202
581066
353817
442818
338366
412926
679385
616948
472826
581066
858130
556804
102792
933937
548332
107776
229446
811899
587175
476231
537584
141916
140090
941150
568166
26081
740299
81361
972734
15718
172079
962669
437068
473555
434695
693721
499755
340621
720251
582752
349431
872601
804904
520227
850516
913857
272705
229416
247139
7244
157781
773220
906630
532965
358788
55279
617213
7551
215947
394501
377287
388443
295981
357530
780317
541696
238172
611026
335164
375132
555382
562085
293588
472651
66823
315840
477740
972734
978072
77764
102792
525799
247936
438906
269758
518727
126946
964578
293455
868159
213173
762462
4658
607513
765557
301807
811899
746591
298976
928841
476231
892198
62075
412005
789016
557266
522695
371205
66823
477794
190
724149
26966
561974
17466
430059
497268
646660
794147
116702
173781
361532
722295
582752
397607
294173
799078
623429
15056
548868
315051
854041
861802
294921
522695
599931
567969
236346
969587
114651
263496
520227
698572
87147
397340
461540
215947
355977
298976
246592
78475
762634
997663
241922
406093
916029
812757
693790
77764
306444
820241
184848
213173
371205
760647
845051
267443
720251
334201
939933
882733
951040
61615
88410
742834
655635
15718
624094
343654
816890
746879
854041
959407
245050
933348
4658
834202
173781
943985
621311
111662
977890
761417
169792
70366
858318
406093
931856
505188
854262
576229
914262
358515
120678
707278
87147
164303
974211
355340
387453
441488
556535
748011
320394
586663
407012
847007
116702
138368
56254
162770
284402
545894
794147
285431
683303
798733
605338
787469
126946
429634
675513
693790
87147
300972
15056
27934
977890
339699
915100
978086
403706
858130
420957
611980
567969
746591
857974
279952
920057
419001
866427
63433
955698
740299
172521
4224
964050
956676
646660
120678
510719
637173
484588
76609
268990
962669
472651
675513
296667
81578
751626
50858
459204
847007
978072
473555
50858
555578
769134
812757
300972
931416
627933
589340
535546
245551
549383
213173
794147
571520
693790
780317
722755
91225
166871
85216
552973
409255
72397
489030
504776
110961
749020
221196
191933
578237
655635
489030
24114
798733
606263
761417
861130
520227
285431
808377
738430
111662
38891
102868
847007
545894
994955
100658
101517
686170
315331
646632
746879
548332
172521
420957
406093
750819
286625
214381
401575
188755
535546
141916
212260
24012
767899
946033
546806
175447
374434
789526
365309
274889
834652
253733
152290
630443
334342
30344
857896
746716
760820
229731
906630
282345
507926
650633
952539
711892
190
397368
203447
477740
281682
72397
186829
446265
297293
288640
352553
17422
978086
41812
671520
388443
946033
394184
5836
592948
157781
292860
673176
312015
232427
716583
820167
203447
928841
62075
535546
341352
320828
111662
762983
548868
417682
628716
698572
724149
858130
181033
82774
782311
832411
248251
334342
895931
952539
685721
537007
293588
108425
381662
187808
931416
351292
622788
808322
203895
546806
415072
903547
758952
932518
77764
924870
850516
911459
870703
184768
40893
537584
9479
557266
357530
992042
515901
70828
39225
240779
442818
863950
180274
693790
391234
610719
556535
449359
932518
419001
569249
183257
764484
812579
735500
606263
595802
741135
804562
789244
430059
288640
473555
789526
505188
325619
36440
169792
615623
476231
171914
27934
997308
141916
569249
157781
522829
176232
327645
696751
331907
637173
537007
33071
496467
415072
449359
320871
555382
315331
7333
15056
100223
762983
604322
874184
593529
964578
101517
274709
548868
547704
442818
223792
811033
68956
551041
638680
389474
203447
613482
107776
494020
120678
977957
847007
870703
401575
396876
561974
872601
686102
842497
141024
511111
269465
9479
886787
561243
489790
230443
934084
788292
403706
808377
902432
604349
160824
697047
460762
391234
787469
895652
992042
728472
857063
198772
375132
203447
215519
578237
557266
82774
270118
698572
728132
758952
621311
397607
408232
215519
298976
56254
816890
602523
482173
898587
275978
997236
788292
683206
324074
650683
78605
56254
997308
551041
160824
825579
153913
737964
343654
769134
646632
957471
864616
836894
381662
915100
150791
435474
19522
977957
269465
490361
706277
238172
957771
248251
401575
232427
669938
548868
871810
76609
861967
2469
237488
263660
746879
285884
255552
77764
320439
978072
271879
171914
991937
68303
611980
533973
207644
738430
153913
744640
778473
180274
340621
240779
351292
762634
736958
293588
486970
273946
68956
613156
820241
811899
889795
242676
712257
596754
549383
477122
433505
622788
972154
138368
598033
655635
61615
842525
615769
805847
621311
285884
474494
566613
248729
389123
712257
237488
613416
48668
524250
472826
861121
430059
627933
465925
997448
24114
384525
545894
957771
470061
811033
957471
352553
218518
281682
387453
270846
387453
947166
48668
933937
548868
72409
439207
141916
408232
627256
325948
230443
225804
769134
736958
861121
494020
355340
514445
315051
295981
81361
997663
322727
263660
924870
525799
284833
915100
160121
128102
327645
162906
799078
556322
388291
750819
685721
178414
145053
377080
295981
525799
353481
956676
119488
728838
190
586663
738430
535546
111662
48278
82912
187808
604349
99104
927222
126946
820441
761417
952539
459204
612278
478466
150791
663128
107212
914897
947539
405859
556804
971183
856399
656466
758952
566613
562085
596754
186829
742834
203447
700615
974211
231643
294921
728788
637948
933494
863950
454007
381662
661386
522695
62341
613482
418052
300972
892198
37401
883218
719148
408232
646632
571520
882733
711892
478466
293588
184768
210782
324074
994955
477122
312291
241922
617177
476334
992042
533973
157737
607513
116433
39225
751626
81871
254335
610546
355977
869039
850912
50858
429634
259919
720410
758952
663992
212260
984129
34693
2469
858001
401575
470061
470061
355977
164303
537584
718678
108425
459204
820167
549383
794147
306444
942735
236473
622480
850076
777417
24555
427100
357530
693790
337705
486970
939881
454007
895652
610546
725856
499755
606263
439207
596754
545894
872601
628716
622788
7244
327645
214381
286625
141024
955698
120397
90342
663623
556535
642420
449058
256480
246592
964050
939881
108425
937354
706277
538693
562085
312015
34727
358515
357530
2589
565544
706277
229731
145053
675513
397340
269465
334201
72397
525799
767236
605338
78475
56510
840745
804904
468204
971183
497268
128325
760647
107776
655635
638645
764484
377287
933348
858130
394501
57688
798733
864256
151437
289356
656466
744174
530911
415072
472826
939933
576229
686170
68956
620545
969587
187808
974211
812579
328628
318820
614023
318820
915100
511111
128102
787469
341352
496467
850516
443220
494020
76609
552696
169792
100658
418052
804562
864256
925838
611980
613416
559657
686102
162926
697047
331907
56254
552696
378039
285431
407012
166169
914262
40707
994080
225523
274709
169792
259919
820868
470061
613156
604051
191758
816014
459204
955698
486909
854262
908245
81871
150791
673453
737964
895652
401154
374434
808253
756122
561012
438906
566613
770278
582752
358515
556804
325724
401575
758952
89672
989600
700429
36545
111662
15056
157737
24012
927222
740299
330533
637173
548965
551291
556535
399027
316124
391938
537584
274709
228595
936875
969587
939933
854262
272705
87610
718678
116702
721036
767434
524250
694928
795555
972734
957771
926837
461567
598033
586663
107776
624094
889795
565544
312291
673453
746716
914262
962669
256516
88410
592948
325948
919328
551041
962669
850912
114021
824767
397340
769130
412926
470061
643617
552696
972734
325724
46955
914897
875428
334342
218518
367943
661460
78605
37401
926316
343654
401575
271678
365309
371349
960317
270118
186829
596754
343654
476231
472826
707571
279637
720499
484588
15056
941150
320871
538693
728838
598033
997236
798733
325724
982413
305615
767434
964578
571520
24012
571517
718678
621311
384578
172079
207644
213173
294921
326947
107212
972154
109021
446265
151340
77764
459204
914897
30344
933348
604051
70828
430086
78475
816014
489790
631947
159584
582752
56510
473555
577479
856399
297293
248251
56510
655635
15718
284402
621311
972734
443220
761417
875428
861967
258838
173781
449058
525935
157737
71859
341352
936875
617177
46955
525935
760820
401154
642420
4658
470061
820167
694928
857974
415072
17466
401154
693721
184848
384578
144917
116433
589538
268990
87147
354737
892198
371205
256480
412926
596754
626962
547704
507926
998956
367992
571517
160824
462903
160824
152290
166871
866427
799078
705040
533808
2469
694928
847532
162906
748549
926316
711892
728132
87147
107776
159584
270118
411522
18105
675513
371349
964578
18105
861802
442992
116702
556535
537007
312224
820046
377320
978996
908245
66823
153913
840745
720251
568166
391938
742300
707278
794147
330032
655635
248251
181033
72542
441488
486970
997663
141024
39451
186829
65490
577099
548868
91225
39451
581066
175050
473555
532009
520317
745853
378039
545894
616948
67732
286625
859714
557266
401822
62760
17422
643617
421743
199433
336270
401575
522829
711892
462117
397340
978996
72397
188755
229731
72397
70366
720410
55279
721036
486909
832411
884228
256480
298976
229446
562085
556804
628716
941231
120397
37401
430059
941150
861802
212260
707571
977890
72542
799078
556677
932518
318820
521236
778950
515901
89672
957471
914262
943985
794489
746591
304076
789244
816014
358515
272705
538693
614023
477740
128823
128325
228595
7333
537007
172521
320439
687178
427651
462990
511111
1575
681160
228595
392994
728132
631947
712257
446255
586663
462990
489030
595802
992328
69482
752990
697047
919383
931416
794489
637173
391938
683206
325619
181033
152665
215519
769134
298976
422675
936875
900188
15056
103104
415072
811033
671728
78475
744174
296667
465925
942735
748549
166169
571520
255552
109021
605338
620545
38764
592276
415072
854041
238172
248729
807141
997236
80727
101517
79971
110961
719148
476231
316124
225804
102544
997236
589340
957771
577479
744154
541696
268990
412005
215519
767434
749809
230160
569249
621311
919383
384382
190
624094
34693
306444
126946
208237
305615
214381
38891
734868
1575
564642
1689
914897
382980
461540
203447
427651
203895
394501
504641
916029
850516
285884
736958
943985
413634
298976
109021
67732
748011
787469
355340
81578
707278
397340
108425
361532
78475
620545
682374
336270
700390
858130
413933
243998
406093
760820
514445
50837
186829
79971
401752
511111
686102
644455
510719
100223
242676
556804
110517
281682
303853
865580
263660
91225
610546
555851
418052
269758
780317
231643
587175
470061
247936
614023
168694
521236
248190
292860
218518
861802
234074
389123
394501
933348
941231
564160
384525
546806
82912
303853
409415
718678
617213
15718
419001
336270
295981
474530
735500
430059
949305
712251
183257
793980
994080
926837
900188
288145
282345
736958
497268
34727
728788
213173
157455
433505
30344
527136
474530
898587
931416
633364
696751
863950
78475
409415
661460
604349
997308
191933
622788
225804
789526
734868
568166
787253
267443
903547
383480
619223
243998
728788
643309
759527
924870
225804
504776
879311
409415
613416
634230
355340
225804
740299
343654
931416
116702
613156
50837
235578
758952
804959
84344
107776
259876
111662
646632
461567
461567
162906
409255
834202
66823
742300
693790
245551
312015
378039
325619
718713
767236
875428
738430
164303
865580
762983
626962
449359
992979
87610
977957
734868
592276
282345
994080
159584
327645
886787
397607
245551
604051
697047
429308
328628
23223
942735
569249
442818
863950
515901
292860
100658
462990
167492
756122
650633
225523
268587
384578
557266
230443
462117
353176
256516
168694
459204
98902
434065
683303
639951
388443
72397
866427
861121
34727
728788
490361
270118
256480
762634
692142
152665
515006
834652
924870
820241
687178
565544
978072
270846
234074
840745
548332
225804
685721
155835
333938
978072
141916
320828
114651
241922
846769
191758
561012
787469
633364
561974
808322
610719
705040
183257
274709
169792
857896
808322
637173
13792
626962
504641
878399
341352
213173
248729
155814
924870
906201
319376
223930
391234
845051
878399
734868
438906
842525
223792
556677
845051
421743
293455
72409
235578
377287
927222
229731
68303
81578
569249
712257
191758
932371
48278
386394
186829
89672
769130
533808
808197
420311
470061
804959
744640
930744
120397
457655
38891
556804
157781
120678
327645
357530
476231
561243
741187
215947
120678
36440
770278
236473
4658
555578
382891
474494
102792
525799
478466
686170
24555
870703
857896
388291
811899
682374
138042
315331
157781
685721
830307
187808
592948
871810
465428
532009
537007
782713
320394
508004
702895
39225
378039
610546
857159
429634
682374
933902
237488
382891
407012
882733
712251
442992
613482
997448
461567
712257
496467
546806
335164
908245
649549
120397
269465
306858
355977
242676
446265
116433
253103
551291
725856
841045
427651
617213
449058
267443
102544
408232
552656
481140
961138
939933
282345
656466
685721
533808
804562
548965
478397
497268
829728
846769
319376
808197
962669
9479
964534
23223
88410
60240
728472
138042
884228
36440
326395
722295
639951
1689
555851
811033
782422
514445
328628
855397
340621
325948
926630
497235
769134
298976
650683
524250
549383
267443
90342
294173
240779
434695
472651
388443
383699
728788
100658
640372
378039
902432
180251
138368
477740
545760
326650
164303
942735
459204
923414
907360
871810
46955
633364
920057
812757
959407
820241
767434
724149
378651
639359
581161
77764
81578
247139
2589
769134
303853
941231
545894
789016
175050
160121
533973
300972
188057
782713
820868
794147
854041
482173
720876
770278
397368
72542
569249
319376
200024
782422
375132
623279
883218
284402
738430
932518
978996
140090
644455
484588
318820
18105
895931
507143
561243
782713
685721
157737
615623
541696
100223
191933
631947
309761
738473
198309
516784
598033
401154
533808
675513
223792
253103
8140
705040
627933
114021
481140
621111
17422
997308
582692
489790
33071
275978
925838
391938
384525
941150
328786
738430
787469
852335
298976
336651
393760
459204
408232
236346
602523
720410
610719
242676
82912
637948
200441
236346
907213
941231
686102
855397
427400
144917
267443
577099
435474
486909
258838
937616
9479
528333
719148
19522
434065
63893
666378
504776
382998
941150
841045
394501
606263
312291
180543
700390
533808
783768
213173
253103
269465
724149
621111
514445
582692
2469
740299
256480
99104
315051
358515
906201
857159
81871
243998
748011
861121
808253
170277
473555
213173
621111
854041
269758
638680
40707
341352
769130
325619
467804
722755
338366
982413
951040
991937
675513
358788
442818
137369
27934
832411
869117
589340
223792
383480
663128
157781
151437
120397
507926
998650
569249
243998
80390
472651
166169
87147
110517
229446
131981
906201
545621
24114
223930
172079
391938
611026
270334
248190
515006
157737
476334
924870
384382
555851
250399
847007
2107
685721
116702
2469
709530
545621
898587
568166
365309
384578
631947
474494
744154
533808
198309
309761
27934
928841
497268
474530
429308
102544
673453
807503
411522
646632
596754
712630
203895
947621
746716
627256
333938
70828
556535
638645
532965
157781
470061
345980
725856
804959
762983
556804
298976
561974
36440
417682
90342
847007
236346
358788
522829
742300
865580
712630
829728
173781
956676
827341
355340
671520
545894
577099
854262
959407
108425
851704
936875
188080
851704
434065
89672
680642
328628
999191
686102
998956
320871
157737
971183
984129
472826
903547
159584
604349
834202
248729
37401
256516
285431
72409
392994
778950
141916
429308
303853
384578
188057
601598
736958
886787
927222
812757
796723
859714
564642
595802
355340
741135
606263
102792
552696
25494
816890
160824
616948
567969
394184
744154
87610
118911
273946
974211
70366
415072
279928
274889
39225
63893
925838
545894
728472
617177
478397
762462
847532
363567
378888
50858
391429
522829
514445
141024
321205
857063
327645
397340
742300
30344
420311
586752
406093
268587
661386
120781
223792
391234
913982
545760
477794
472651
371349
279952
118911
26081
769130
401752
229731
559895
913982
445399
300972
832411
604349
388291
577152
378651
62075
48668
109021
349431
100658
656466
886787
736958
900188
231643
87334
746591
974211
631947
760820
113657
325948
728788
858318
497268
585171
229446
334201
449058
613416
681160
537007
752990
746591
62760
788292
494020
7325
81361
604349
429634
552656
762462
330533
72409
552656
186829
515006
693721
569249
758952
437068
2469
234074
18105
738473
971183
151340
698572
782311
595802
601598
946033
454007
557266
454007
555578
403706
449359
871810
91225
188755
102792
712257
751626
808253
611980
210782
270118
212260
167492
601598
576229
789016
918780
191758
263134
720251
120397
279952
593008
337705
892198
481140
865580
522829
892198
91225
200441
327645
738182
957471
738430
779770
81871
203895
171914
71859
7333
112678
309761
914897
711892
250399
267443
564160
826412
846769
859714
602523
624094
334342
707799
874184
590632
295981
152290
577479
919328
62075
327645
221196
848757
955698
533808
27793
997663
753569
724149
987701
969192
520227
865580
507874
562598
829728
78475
855397
41812
568166
918780
933494
545621
191933
807141
295981
24555
314443
288145
