1
1
1
926055
1
1
727025
727025
372791
926055
178768
439667
817376
798155
482647
178768
880281
482647
382103
835607
880281
178768
727025
1
727025
261984
135317
880281
101263
135317
178768
135317
11021
482647
721442
461025
361261
94592
967109
776942
861921
101263
1
856487
776942
1
69297
584382
361261
892754
179033
869898
817376
482647
272480
539288
967109
1
204251
817376
697516
636074
69297
439667
798155
372791
856487
366845
284999
366845
94592
361261
478601
798155
721442
361261
466106
94592
892754
944628
711209
38639
179033
23664
94592
765621
945177
856487
135317
466106
56337
361261
869898
491065
491065
856487
817376
865050
23664
179033
715889
408333
482647
80699
23664
869898
179033
272749
360365
765621
57603
279489
880281
727025
993990
970669
361261
776942
550666
939207
523617
761859
565398
23664
204251
892754
466106
715889
939207
869898
510878
636074
153597
640137
466106
533199
880281
926055
776942
100158
100158
641640
570112
51539
549
173036
153597
750568
861921
765621
840308
565398
697516
761515
366845
776942
939207
835607
133720
861921
836776
156798
51539
711209
332045
343019
970669
935349
861921
550666
892754
550666
600952
814018
177981
422952
482647
185644
875356
261984
416499
727025
196417
241564
761859
382103
376901
51539
857771
261984
561290
570112
120386
11021
876676
439667
100158
272480
133720
421630
649917
545302
606487
142582
252802
675278
178768
361261
944628
970669
981973
387197
279489
641005
961212
332045
321185
372791
814018
765621
727025
641005
711209
153597
365311
422952
721442
970669
680599
173036
27642
501278
467167
534781
282088
422952
947030
421630
133720
156798
509739
523617
402069
173036
38639
804167
343019
360365
880198
120102
804167
96108
435851
651395
970669
411890
127414
474540
640137
97182
775405
798155
23737
640137
981973
892754
840308
438619
639207
241564
96108
252802
207094
45743
279631
640137
272749
304851
156564
966005
797856
128744
836776
402069
992327
876676
135317
132334
539288
168899
422952
863745
765621
115224
120386
947030
863745
695959
902252
11021
510878
700662
623035
817590
840308
798155
700662
539288
241564
939207
191371
332045
120386
332045
403036
115224
700662
714604
77906
584382
753204
639207
510247
356476
387197
969596
133720
298580
958639
618588
177981
622723
57603
869898
639207
817298
680599
695959
622723
992327
208169
343019
370926
474540
16866
817590
37585
715889
515070
603852
964229
444500
178768
621598
804167
880198
835607
148646
945855
880198
815191
747820
861921
700662
870197
325630
262903
943089
94592
999929
217388
961212
835607
198074
744109
433106
491065
479416
421207
39508
504101
711272
588786
510878
55239
173230
413436
461968
790106
72258
404411
122195
701779
461025
439667
970669
435057
284999
279924
438619
221211
515070
148646
276715
196417
261984
857771
281232
103966
547587
391171
362293
973985
697516
16866
510247
16963
102803
722615
204251
372791
26962
51539
312267
294203
880198
559487
333306
787097
245957
606487
967109
935349
776942
523617
958129
981973
600952
36547
730560
370926
210963
301829
730560
886196
865050
625419
383676
947030
1674
379778
379778
880198
875356
765621
710586
16963
378621
736038
1
438619
162121
710586
621598
817376
954946
226903
387197
23664
226903
162030
461932
570112
765621
370926
154567
609554
56337
832140
228137
229281
545807
711209
294203
660187
835607
819246
279489
673098
584382
621598
897176
478601
120386
761515
578948
325630
191371
880198
945701
680599
27642
421630
508009
272480
45290
513299
285591
134620
412600
969596
412600
584382
550666
715889
640369
789606
895301
973781
801777
115941
625419
432991
271754
16866
984226
421207
481923
944628
570112
819246
333306
727025
154283
639207
788779
559487
561290
790839
466106
36547
30491
980741
744109
27642
648145
38639
993990
212263
870552
899405
648145
757950
893482
372685
282088
58469
815191
1674
433106
438619
16963
869898
103966
364171
312149
559487
412600
432991
533199
610758
975245
464007
893155
529968
651395
77906
278611
765621
1674
674859
468835
993990
810141
23664
154283
926201
789606
622723
541291
575457
875356
103966
547806
435851
734617
85971
478601
651952
404411
344644
272749
529968
81657
592176
510247
100664
422952
496708
958639
81657
412600
122195
277987
80699
999929
332045
80085
173407
91744
651395
835607
967109
387197
636074
649709
830411
500867
422952
895301
875356
490235
761975
954946
18971
447637
909153
16251
515070
945701
665903
893482
820433
547806
210963
218899
757326
820433
589816
753204
808275
832140
381583
662435
170719
277987
177981
421630
178625
769694
194559
711272
191371
761515
968207
282088
610758
775405
784324
589275
628804
747139
554166
217388
568702
178768
903684
966005
599752
641640
625419
761274
498312
142582
191371
285591
362042
16866
670094
529968
35697
120320
80699
870552
545807
763393
714148
140091
285591
369870
148276
33538
527777
329338
946385
945855
316665
585167
958129
179033
228137
3588
901238
893155
464007
28122
849317
603852
714604
894420
939705
685298
623554
767861
738552
186250
339695
333306
878231
1
827367
112889
489376
614758
127414
541291
60752
16185
467167
62409
511715
108942
156564
37102
911941
468141
967109
298580
173230
51539
815191
586899
30491
170395
508009
26962
784324
761515
204220
127414
475515
179370
527777
439667
169657
682133
81281
166167
953918
381583
178625
894420
115596
100664
844471
680599
700102
901408
813967
352116
425455
282088
770057
711209
304292
393290
533199
162121
162854
115941
958129
735872
123487
614758
332045
148447
579062
651952
533199
941760
408770
217388
35697
248202
765840
102039
656795
482647
103939
69297
554832
609554
717335
641640
36547
566776
565398
346707
256628
252802
727601
596148
204474
45290
252386
312267
343019
528345
636074
177525
599250
665438
696861
933684
696861
454580
220393
461968
460608
422952
104829
976455
304292
606487
714604
231150
604942
362293
852300
590462
224377
490235
58469
964447
425589
128744
49015
719915
304851
787204
835607
588786
869382
85971
530877
992327
333306
123487
995518
11587
947030
814018
771278
323840
304851
670094
92921
209596
261253
998992
664130
346522
5320
715889
712150
301829
649709
565398
794198
362082
279924
279631
34838
941760
652598
474525
912946
972200
509822
169657
750568
100158
283015
944628
106546
154035
389811
384311
765840
693669
153597
800078
69886
549
461932
714888
886196
878231
421207
422952
776942
197730
130392
914896
852300
757142
425455
625419
148646
438959
509822
246329
432991
498831
177525
291341
454580
701474
135649
346522
261984
664130
996719
723798
710361
996952
34838
33310
60752
599752
761859
727025
848558
992227
435851
87453
252386
914896
134620
130881
961409
565495
705466
643012
305299
3588
792109
732250
913308
359251
700102
682503
403036
728103
222945
491748
108497
964569
309724
666670
187146
844471
147467
789000
827055
458058
104829
60752
398245
684440
271754
790839
523617
248202
684440
69297
272326
678322
388706
208169
123320
337614
711272
69886
986831
876657
534781
682133
408333
162307
115224
564979
133787
992327
229281
81281
122195
596081
935349
844471
921199
948039
584650
69297
401734
110503
921199
359251
763393
240503
547587
329338
753204
578948
431015
311050
438959
122735
173036
308314
180406
299145
103966
460745
46619
32858
510878
32911
758199
356449
30491
332045
100158
861921
143269
177981
976768
756697
576922
467794
995518
832140
576922
284030
736038
252386
729569
478601
724118
819233
912946
444963
825350
494588
285749
69886
747820
38639
87453
640854
792315
981973
373551
120386
108497
177114
312267
578948
761274
595616
85971
156620
686054
162307
284999
613216
304851
185596
761515
501316
34838
125025
23664
947030
873045
738876
153597
649039
787588
753204
561290
77906
336246
277465
746145
312565
431497
750722
934037
281232
621893
134239
754137
46619
102432
973985
788779
280088
650876
241564
12033
204251
975245
102039
625995
528345
381721
836539
312565
815191
658464
151907
147467
466106
151907
510706
886196
790106
656795
936166
693669
964569
913308
686054
156564
173233
756697
77906
998992
235486
685298
404411
282088
173036
353969
787588
337614
710586
919867
757269
477606
919867
724909
747820
394665
645918
961409
996952
886196
441285
999929
934988
362082
508009
420270
591438
681419
604733
589816
877834
508009
356449
888225
916109
194559
578634
394665
317193
117949
323454
835607
231150
675278
143269
766162
96108
100158
312149
652598
579062
183981
406888
533199
104436
514481
28464
294203
228137
774174
351181
311050
689815
782386
849502
625995
452270
199431
996719
285749
9166
46619
761274
576507
998992
474194
721442
434980
491065
178768
541451
290795
489376
356476
433106
373551
649709
863975
899405
572494
112889
962384
460608
114691
945024
332045
352116
459898
421630
725865
482952
133787
362932
756697
746145
836776
918034
988698
567898
362293
554166
697574
290795
876676
724909
137024
674963
287989
581512
685298
937685
871642
546383
675870
25725
725865
232073
817590
120386
65289
794198
99823
970421
493343
198074
665903
859097
843840
998992
154567
284098
105676
16963
964447
149671
279862
254974
358271
810619
208745
285591
556343
701779
667770
170719
14506
902985
869898
554166
26962
578948
828324
731198
80928
771762
584382
578991
509822
340501
196417
367934
100777
368043
178625
134239
717869
158900
479416
719915
106546
827367
623035
221067
878231
662435
56207
831100
280088
85876
404129
840308
489376
968207
208644
49349
814781
479416
393290
889389
690213
578498
266946
26634
202567
289070
532560
859097
299145
603852
599250
264434
349072
667770
133720
792256
287989
552914
577186
658888
80012
192488
382021
796051
45355
771762
877834
466106
316665
376901
150740
932538
197866
553239
761975
963303
701779
248202
29103
379778
514481
873045
761859
711272
854043
790106
674755
216543
37102
857771
62409
372845
22770
645918
171055
626876
293103
503441
99823
715889
488626
711272
314655
899541
767314
652893
329338
186048
912946
797607
818954
922818
204346
767861
615546
851269
958129
964447
787204
584024
281556
817590
138859
7403
628804
28161
385811
22770
584650
187092
107573
362932
36547
186250
102198
761975
855468
889389
960127
235360
696861
290004
880198
99980
37585
996041
652893
179033
330431
465818
877067
478601
590462
483891
112568
305299
817590
108942
814018
848558
675239
694544
276715
509446
221211
173036
9520
984226
171422
824523
387197
722022
323454
134620
308314
91744
846667
701779
967109
669294
626876
669270
28122
316753
798155
85876
690213
524950
877067
482952
176342
523617
526052
849502
754137
121113
272326
724909
588786
515873
610242
42749
142084
362248
501316
561290
432991
45355
246839
49349
747139
643012
578634
884914
700102
605641
639809
496708
451748
209374
212263
490235
466732
846667
39170
774174
836776
49015
537610
844251
411890
926828
468141
545807
796051
121113
944408
461603
610983
99980
6388
427552
52702
209927
658888
735872
367117
133787
108980
218899
309921
422952
672879
493343
252802
99596
209374
668053
830449
115750
49569
151907
945516
915889
342932
672879
11587
204381
988698
972203
603589
639809
501278
763393
120551
972200
216543
702159
383676
877314
174385
672879
252802
1674
174831
369887
256127
385811
112568
39508
65289
288342
966005
287906
91946
753204
669834
871642
586899
675566
290795
65329
528112
572632
323454
870197
284030
150433
286185
142084
31504
868339
467167
84979
235360
362248
504162
352116
369870
129301
747139
337283
384939
604733
775781
403036
388523
582724
434980
643012
686054
753204
192921
761859
854043
385811
434980
459898
640137
770007
767661
797607
945701
431497
29556
648116
52702
585167
378673
130392
945177
130881
101263
293435
844471
841882
656398
926201
587910
126526
500336
789730
884914
509739
351326
724118
27642
778359
782012
87475
504101
868339
966005
558977
187092
387197
829714
877834
420326
529732
761292
115262
756697
856487
298000
912946
311050
411890
886179
118106
790807
676374
841882
656795
123487
329684
926356
787320
707498
973985
757950
782169
115262
789730
719915
461025
204381
430006
750568
204251
148447
546466
179033
775781
877314
985407
317193
765840
53512
197730
209596
714288
272326
817590
662435
898904
61565
324310
323454
450984
648116
603852
776942
935630
625995
916109
933684
717869
193318
539501
790839
546383
122195
201380
705466
884819
329684
367117
294249
373671
26634
927623
680671
715889
736038
767861
750110
276715
656034
304292
529732
12033
373551
356263
243933
909153
421630
39421
676374
366370
877718
922747
567200
543245
17364
691093
509822
218726
715889
30472
333029
747788
512956
120102
943392
703573
607267
33310
694912
431029
390383
623635
311180
965276
197967
285410
281556
242482
154726
579158
20338
6388
602311
123203
410025
446393
858268
722616
374502
133720
769694
366370
738552
637050
992327
491065
353848
569890
207094
433106
880478
256846
320737
757490
390383
23346
166918
298580
820433
638729
638729
341964
982953
220460
351181
988698
894650
844784
475515
204220
681419
830558
192623
508009
872653
149671
404411
513299
45355
500867
537360
876657
134239
531447
27604
512956
91744
531447
599963
599963
404411
831536
752825
399129
150740
166918
246329
160957
319295
481923
591438
620930
478855
689815
99823
525518
285410
337283
187335
620096
113470
705803
721442
764816
940769
403036
368043
804167
281037
467167
28122
198716
407189
512023
601987
3588
135649
27604
322789
830558
945177
622723
403595
428197
542854
453000
682133
102198
986522
142059
770457
767314
829088
578498
877834
245179
667734
246374
628804
635383
573495
508009
387197
176982
39170
491748
750832
314101
221067
836539
419929
939289
16185
459265
186601
579062
25935
285749
173230
998411
252802
285591
108068
625419
245297
128744
944628
231150
857090
664130
504315
351181
531447
458847
965206
649039
705632
229281
802411
889405
36563
729700
148447
857771
750110
100664
103999
705466
142411
482647
505565
844784
22770
870552
81573
858003
45743
115596
383676
213087
957584
943021
701246
893155
344601
894420
309724
352116
160957
379790
852560
650429
848558
210963
653605
820760
176982
548978
344601
937685
881039
728103
681419
91744
894650
119854
783323
204220
788439
177981
115224
142582
869898
431029
938757
10571
321148
620353
662716
16963
401734
679334
844708
585908
401734
115750
988698
906540
533410
483965
65551
36727
858003
473820
477184
286185
849317
201324
115331
129301
957584
279836
135649
404129
94094
984359
474597
838201
843053
497558
326045
311180
228045
583544
209927
306220
490235
401734
108010
337283
675239
670094
123203
273507
970421
361261
855468
391270
1674
731553
87475
353969
798947
545966
121113
88421
777643
314361
92496
53598
544630
546466
792315
111548
603589
32077
877173
850730
800854
662341
185716
606487
339695
282088
975322
914896
5320
185596
253625
92921
680671
463219
658555
704466
473820
939289
485741
130724
192488
809116
160957
808899
130601
190497
649917
800341
575008
869382
204381
197967
748075
616949
481281
808275
772833
232073
4354
787097
832140
99980
926055
197967
115941
643012
415177
7087
859097
886179
889405
99596
857771
49015
196417
528345
268032
858558
341964
477606
173407
766227
515038
648116
698760
166918
833287
384276
827055
523617
255810
400690
317193
198716
962636
478601
111185
835607
351181
800078
778359
787320
904049
914896
961212
73607
658464
468874
689852
830558
607267
430006
23828
108068
871671
915950
389775
336542
147898
725865
757950
444114
124640
438666
838201
520418
280088
330431
23737
538534
870552
474765
204251
504145
421436
658888
383676
665105
863745
681419
582464
468835
844251
19653
339695
996952
463219
672879
517154
840308
241521
31504
852269
188723
893155
187092
689852
969596
372845
102803
825575
648818
382021
771278
666636
953959
764816
717869
441285
279836
893155
975621
441048
905156
185596
662435
868339
651448
91149
792348
712150
413465
279862
16866
879412
935349
408638
319772
839020
412600
261984
603589
228045
526549
330431
34633
528345
974410
382103
89643
975245
662007
39170
102198
187092
162854
817590
670926
885300
953918
632615
886179
399972
768424
197967
405874
856487
789000
460745
597565
574413
554166
690292
714604
467847
337652
835607
174831
822765
260224
552886
780332
355764
876494
429877
388706
903684
744109
567094
175757
147316
429877
230908
116673
921802
560452
653494
638729
515070
944408
406888
376944
100260
313977
617720
658888
513299
611070
826496
397243
894006
17364
323840
775405
792109
610454
310948
860211
156564
29553
460745
10571
757326
101793
230474
660187
914896
844471
173503
542854
53512
385811
440846
648191
179370
123203
356263
306220
693325
959782
581270
314290
696536
49775
10138
121537
115224
460608
296500
830411
748979
119854
55015
204381
982888
483891
787588
809659
242482
625105
830411
711023
31161
356476
31504
537360
803007
929901
388523
879412
936535
183981
398416
294203
705466
648191
547587
30895
23737
706500
684237
87453
431015
464089
379471
123320
528037
10138
187146
738876
372685
876657
190351
85826
106608
912946
817298
370908
884819
218726
662716
796526
174208
226903
468137
875356
372685
509822
186449
355158
855647
832140
826496
114219
55239
137532
311180
102039
332045
620930
159336
933225
366721
133720
685411
468137
319124
847251
529968
999614
450984
811941
34838
505565
701474
815222
551905
986314
840131
891026
774174
348449
43617
294179
529732
800078
537987
340340
205421
120320
622278
622723
205421
792593
478314
527777
531378
78909
591681
569218
643012
491748
933684
644800
929322
447026
970997
237291
818954
817298
71749
672945
610454
222061
459265
410057
364171
376944
625068
176342
644146
383346
94592
351326
917795
705563
795427
101719
481172
782299
615066
881039
774437
312267
254974
206116
435851
123565
100777
460536
818355
665505
120386
674495
185716
490811
290004
191371
729517
520418
376397
43048
660286
290795
877834
897176
697516
313567
649917
208745
133720
945102
876676
90196
865050
226106
84155
551332
468141
757142
930603
246537
701474
728103
280625
962397
651395
888772
356263
648270
512023
705585
957687
764498
210963
281556
856487
813967
702159
284098
317193
539501
230810
116965
934825
960713
496708
863745
691666
894420
240070
272569
552886
745223
863975
222081
213087
347454
461603
295143
442732
455920
711209
980242
121642
353969
458833
382103
506595
108497
190351
872069
929004
569037
5320
792348
322970
789918
840131
889494
747139
453705
538505
959328
328008
767242
559276
89830
465818
356640
118770
96497
914671
398245
765840
832001
945516
723979
964569
579422
673380
226903
787320
108497
529616
316282
479416
982953
867836
844471
632615
370421
112816
498119
648145
774093
294179
569218
418655
279489
256846
421630
545966
809034
499389
931792
309724
609554
749031
281037
53598
927623
678322
785270
872983
529732
262903
133720
65885
679334
587228
36945
957584
404143
99596
491873
973985
889392
727556
782169
322108
889389
187092
881039
736991
650876
12535
948038
461603
89830
897522
275419
675239
892754
35697
317193
778359
748384
916109
780401
564422
123203
980354
89643
250952
750568
274919
299145
851269
860665
856766
22725
833320
536870
639703
541287
839044
710361
757326
613216
185716
253625
424613
566280
734617
792109
162307
281037
116877
624474
598811
967535
326045
58041
578634
91613
458833
690213
985504
26498
166918
108497
217388
127414
204651
314517
352521
708633
804532
675695
648191
722530
417637
279489
165853
402598
361101
154726
304072
474765
326913
770957
547589
245297
746145
351326
221247
887192
490811
614914
148173
148447
762048
50099
891026
304292
627113
885910
809116
265211
360365
85194
279862
568702
85876
636426
992484
812647
767861
115331
870197
772833
34838
553612
957584
209669
591681
673936
310903
750832
712325
658105
617346
581797
416366
599963
711846
700102
379160
9166
239647
846330
959328
143568
813097
56010
857166
119923
767861
584929
211177
976455
856973
310903
370908
505565
964569
800576
322970
770057
297396
697516
722530
37102
947374
484344
231152
158230
344503
729713
877067
362293
937685
61860
957729
746145
825350
965357
176161
922818
479039
603589
479198
627113
215277
102039
195876
314290
102803
918290
568702
343019
973602
560764
426281
373671
715585
204251
164558
712853
84460
197967
259442
501278
802841
499163
887431
284008
284171
665822
506595
974877
541451
996030
412823
684436
943909
878231
918389
467167
963889
856462
988698
466732
734134
479416
725046
658985
240232
961212
729713
889942
578991
722615
761780
800854
69858
190497
47019
124640
407189
934825
483965
601679
549
756954
344043
557547
561290
513869
864294
169657
850730
364969
896570
85971
569890
362248
114691
45355
453555
511715
598620
277465
361175
712325
435057
316753
868339
318210
598612
478906
281232
474597
351326
973985
880281
822224
876676
578489
856462
148646
296885
57584
355211
362932
547587
466732
728103
142059
133787
243933
488626
98540
360087
856187
675841
584929
848758
678745
523075
543245
840996
210845
120485
715374
262279
858662
230682
547587
25935
439305
943909
363262
120320
682545
841882
589275
30557
26427
393837
996041
957584
499163
188723
599752
967535
210149
31161
131184
246329
794198
691093
177209
930603
152959
89305
792315
123487
97166
389811
453000
617720
489212
541291
388256
689612
65329
625995
316282
101719
53429
439305
830558
48165
104076
571667
924916
767314
698193
329711
678933
408333
763208
151703
664330
84155
401501
464987
952436
481529
351181
415177
312130
136011
65329
31161
756697
160007
735597
585659
626638
384311
36547
759630
169499
127099
404777
394745
413465
227133
934960
851269
927623
322108
102039
513299
493343
902985
83892
889485
689815
729700
915950
287990
53429
142084
206411
968207
654991
120320
955161
998992
404777
319362
111270
974877
641640
28122
848558
383961
589275
293103
423533
667770
533490
266441
12792
88814
342790
304072
610454
306220
731309
49569
206411
143269
118059
100260
101719
466106
339699
554746
840131
292469
678831
312149
514643
539417
212112
212263
306685
476777
97182
364137
936535
701474
114691
347454
540087
379282
731562
544447
567200
231050
62633
209669
39882
230474
567094
878231
870197
561115
56207
655959
114532
788779
933684
111632
775405
289070
815193
992327
914981
504101
789606
137918
330065
567200
833841
356476
7403
954310
589275
539417
16558
526549
685298
675243
418799
876841
469225
934958
251786
877173
975663
392521
55015
528037
569890
16866
299145
281215
225188
712772
657109
34633
330152
839020
781899
778959
973602
831536
610454
555202
238511
58469
684883
210215
323230
226106
852482
320868
107573
243533
705466
7080
58041
992327
313977
279143
284293
318210
603852
198716
748384
95256
456616
123487
860211
520418
841595
667770
426281
49775
736339
471582
416695
263745
156856
584650
903684
711852
75268
904966
132556
137024
514481
31289
640854
441480
531447
312267
945047
271818
857090
488626
486229
149176
521746
623635
265211
112308
618422
312768
362594
698068
575377
595811
745481
298689
596081
575008
665505
374502
395393
61860
916682
827055
943939
238511
381583
237952
804075
984531
934037
959328
965206
857771
421207
876494
891618
173230
852708
731562
428770
880198
185716
571989
982181
523617
901408
625068
651448
894420
421473
593443
273507
770457
184473
211177
454267
971212
813097
479135
337663
16558
740329
973985
419336
757109
75268
682133
210370
186048
996693
151703
19086
844784
276775
714888
336269
899541
975245
427248
766958
735479
474597
566280
961212
572494
197866
177981
705563
628804
925378
874167
157757
13214
129301
680671
838309
77906
590225
841623
939562
489376
51539
251607
967109
119854
708633
823092
681040
665903
392171
622723
761515
748764
45355
539670
514658
502761
65551
912953
818198
66168
238654
928769
35212
90787
587910
24528
887192
655069
292756
872700
801848
366721
694757
12336
841595
155427
333300
228137
100260
766673
61860
957808
87413
336533
333300
369772
401734
904966
681277
828450
790529
97182
508700
946775
884104
801848
729517
351326
649709
800876
453705
328008
127414
712107
774437
893155
885910
364019
444754
9624
604733
39170
666670
322108
262903
763208
26498
75268
764421
547740
858268
962636
289070
52062
721442
948039
433876
68367
868742
599966
944408
767310
917795
92711
162318
912946
536641
889485
62633
404411
756697
590195
806579
466106
747139
81281
638729
174756
914671
665173
321148
353016
325010
572837
405844
470953
580287
761859
483682
808693
16185
778359
574788
387722
755539
175757
123614
36698
606216
522561
264271
981435
52463
327963
576153
872700
529066
729700
895717
924286
95332
637050
883154
946385
453341
532431
636057
324310
179074
128315
498037
761166
566067
75831
673511
684033
364905
188723
945024
504145
298276
357267
798633
625096
692845
209540
248845
17273
683758
767661
143494
99596
197941
719915
48913
401498
858662
29556
863975
698693
659364
560862
294050
646513
676565
274469
582464
479198
159854
872259
774093
554746
838972
413784
241849
478906
773385
262903
446973
118022
314736
794154
326913
107573
717869
684883
547982
790839
77698
142587
688713
345623
447637
752877
82495
198716
466052
152302
792256
509739
23794
210845
858558
90787
287990
624456
375586
572837
642834
448311
902985
825575
991149
453555
735687
756697
676374
419355
706169
197476
316753
218789
711195
946385
12033
961191
381583
834698
789730
41853
206411
878120
239791
912001
752825
706320
849502
535359
412600
140770
289070
766162
380428
798155
561290
686054
373920
393128
579733
48026
320737
998992
174385
790904
277453
945102
60035
198978
763431
233292
508224
441480
71252
319772
729700
819865
103370
530250
976306
256127
464987
383282
611690
627970
147898
655670
982953
342932
876898
846455
834698
285410
397772
529616
925754
497531
41853
602109
298580
491404
814018
293103
613244
700989
206866
43956
877542
558977
669166
656034
833841
255418
24906
410025
99865
926982
759791
797607
289751
118022
208644
186449
382530
11843
587910
355158
148570
167376
341964
851644
274469
330065
587563
817590
500336
219439
61565
888643
446393
539670
113477
940769
108101
220492
443293
195876
292405
430451
816154
383346
766227
486229
953959
333306
177981
43215
116719
980741
901238
678933
687606
547047
31289
474540
975663
747555
766227
591170
826462
918578
419012
62318
930603
162854
844618
521074
226984
322997
953918
182357
926055
410057
767694
623635
249003
456616
284030
957584
496708
342790
394665
847251
775300
716470
494292
228137
156798
651952
831100
821673
563931
932694
214202
23828
888721
409328
370926
767242
643524
301676
696861
672121
264271
447637
594815
367117
319124
981332
546466
543245
848479
365048
902985
46408
321847
45889
963140
932538
167898
91677
814781
990989
135317
99980
411925
160396
337649
877718
166871
962053
834698
888721
107573
215979
36547
379963
120320
284558
838201
194340
55995
45889
833287
705466
78093
571753
381802
39460
136011
700529
856462
294203
645533
108420
355211
87453
312149
281556
933197
573153
467847
812647
492995
316753
87413
364267
462323
263745
345269
762048
748384
471228
778502
815450
144668
666124
199431
262605
941760
808144
29556
312565
834542
544630
55015
426881
158900
401254
815193
379437
530877
820760
639703
218789
7874
301106
352521
808144
822904
1769
578489
494355
136011
745986
349776
866924
267194
675243
393837
561290
240240
514698
479416
122313
523190
722856
59876
831536
164025
511151
654096
553921
929872
748979
764239
433876
966005
27039
61365
243574
642837
533199
665766
379035
656536
614914
62318
272749
135047
507216
402625
814018
882884
776371
953959
654906
355669
370421
775405
285410
418590
198064
636074
291341
282088
615995
956155
306027
194373
648978
227558
551141
886655
246839
981253
819233
12833
88421
81281
816054
147316
255894
628315
615995
552886
12833
262903
452331
358576
367117
616285
599221
446393
99265
213087
684477
802740
358271
512956
246537
516218
780943
712107
818198
338310
789606
812647
700247
594312
205421
996030
271754
40186
65885
663726
845674
333300
569218
484318
383638
133787
702057
729011
650429
319124
424613
337659
767661
72156
112278
57603
33538
178768
960127
501316
586025
498103
198074
551215
766162
326045
830784
292405
390538
661886
137285
678933
111270
913308
656624
967109
830449
705066
665903
769448
944186
122195
781599
551905
547806
153575
184959
100777
913308
152302
601247
866407
266766
627970
850200
342986
574788
238654
157757
319772
223436
450984
204474
555063
65627
353960
266946
210370
886902
171055
446176
927623
89643
326045
757490
820852
155577
55239
56337
106608
716606
473820
109438
891026
883209
639096
766673
234405
147316
564961
375586
879790
883154
805699
800576
421140
826951
858728
941631
489243
969596
229744
251607
937685
788779
320289
872174
672983
474194
783600
622278
889494
551905
182001
636840
489212
573168
659364
537045
562832
567812
363868
390538
998710
235033
248614
27604
198716
915360
469409
389024
712772
853185
588616
185917
163444
198064
417190
135226
489243
989176
194340
696605
92496
640854
578991
33390
227021
383282
74861
124640
375456
623035
955940
162030
815525
684043
611070
155427
573282
714148
468137
810619
123320
564118
25725
23737
769441
526414
330065
336533
871896
411356
921199
706320
659364
364267
943089
975621
416695
32990
524950
628455
560481
116965
835119
178959
543245
778359
803007
465005
32990
419336
553730
34633
198693
207460
348449
815191
204220
979785
283012
754831
559487
616285
854472
703335
852482
432991
806986
584929
640854
514698
337798
61573
555063
905040
132584
461634
683758
343019
44213
494301
89379
811051
691269
367934
589275
884303
123270
127149
846667
567839
7403
597565
2180
115941
279907
367117
9820
220467
592074
129570
767205
275217
699646
769441
337989
102098
240232
920743
800576
55015
701246
939171
196046
201965
105220
928209
497531
133787
745481
138859
638729
793099
624752
891944
411356
634317
535359
268032
893554
68492
184741
922783
404143
322997
71252
891026
301968
567835
370126
188723
394745
956155
322789
306275
22770
317686
946228
231152
675870
517963
548278
455124
334070
551971
785360
690642
254974
963889
889942
104000
640137
116965
378672
92563
702962
648818
80302
328008
526052
264271
186881
411648
45283
989663
387722
698012
917795
643524
971059
404946
906540
581302
764816
292425
341964
715374
599966
537546
168282
645171
531975
529613
478601
635416
872069
451748
620861
318888
116877
155531
55015
890382
475206
563931
312768
625105
667770
973985
80652
79307
754137
869627
667807
936535
336776
118022
852300
414525
871552
801274
920399
851269
178959
139047
261984
28464
324585
360683
12535
370126
980741
578498
34088
591472
961409
16963
998830
714879
197941
795638
553841
961689
672983
814242
223436
217388
553612
353601
825435
304851
427248
199431
143710
116708
379160
981973
407244
421630
191476
965323
342932
833902
466732
419929
768268
500040
990891
610242
872606
333300
729700
988068
453705
6902
507216
853892
802841
309724
666124
45283
119854
18082
866427
833665
241564
774470
490468
978231
825113
107250
265211
379067
465818
289355
329711
705734
293435
196046
802413
464426
830411
339539
662796
330854
351326
50925
948038
998411
798830
761975
510247
397772
860728
538831
416366
816154
360285
873948
669270
750587
326045
309921
649709
152475
97166
586625
530784
901375
211177
820852
856424
643286
786535
345623
486674
614758
945855
120793
494874
173503
542854
965357
899541
160957
770057
35103
644715
848479
977422
925918
877542
623035
640279
401685
368775
891944
960999
179033
288720
452248
425589
910844
517963
596169
556961
633053
144447
639207
326045
381555
757142
991149
758227
973127
120386
135414
148570
24290
348449
835119
509500
711195
309921
839575
153575
355003
77332
835607
508700
208791
537546
312149
738252
733591
649695
202649
858662
273322
470222
97117
871636
570112
690642
588616
545966
520418
285591
602249
863107
987388
286185
280088
351237
399705
499163
802841
263097
804544
563931
58200
905285
699892
69066
397988
821146
574459
351237
834698
462682
589275
411890
557238
150163
689815
341964
745671
858003
988698
727601
976122
284171
989663
904732
804532
625539
256846
757950
580287
955045
43215
319295
521746
627113
728018
744109
375829
851062
68492
175764
635383
152401
581270
703755
375829
193369
411925
785811
215190
419336
858268
884104
875939
637224
593651
425735
425735
839020
918944
837734
592176
962977
286527
131403
133486
216254
876898
579422
35899
54028
838972
686846
967535
159711
94908
554832
683758
869273
856973
917523
347679
635329
306275
368590
526052
541320
795036
473241
877283
92695
356640
40859
111304
138837
984359
946003
747139
574079
536560
30472
177275
257355
818762
18082
522169
887192
191476
167522
449452
26498
939207
955940
892425
980475
942544
184959
579158
735687
81573
922954
833287
768424
379778
928769
511715
502565
941658
465818
750609
425880
405280
694757
558634
858341
956448
558977
556022
123203
155952
832140
167522
621704
235486
999256
383282
210149
544447
815193
945047
766958
712196
121113
321132
591246
175757
306996
868280
747192
941009
310903
548517
880281
929872
641005
148447
606850
829714
169234
152475
605641
965206
120551
648116
282088
978297
634862
572553
135414
793099
329684
359549
511715
425884
684883
307094
278611
383676
202797
77698
419695
372202
178924
838201
766673
28122
12336
765621
400690
390470
287471
691555
895301
512413
525716
32387
929322
9166
277389
872069
431793
701474
658985
877718
875649
492280
88886
672945
682879
254957
780547
814018
915958
984508
446137
851972
870552
252920
958099
976122
882016
917560
921804
338959
41768
119854
125407
11835
971170
245957
991761
88814
824836
739186
845674
1867
121322
815154
531447
883166
876494
178625
792283
317564
915958
746201
859202
66168
148665
897176
407244
410156
530784
160957
991031
463219
333069
814018
657109
873045
160396
195876
38474
123083
342829
877314
342829
274469
226295
473718
896901
390470
877442
800078
637802
252463
383638
151202
857736
637224
336533
315585
284293
119923
666670
343019
814242
934764
364137
274469
133538
436819
60035
210763
878120
851972
358437
421630
177720
535850
637462
304851
194340
186702
872700
148665
256846
661743
410057
344601
862965
789606
933225
964569
700247
824941
137561
145475
356263
570226
167376
790959
178924
853581
29463
87033
566280
264465
703755
338159
900879
85451
137285
209669
592176
566254
721406
825575
236494
947350
183435
90196
828681
897226
961064
36547
484681
517797
801129
754316
258812
650522
239630
912614
729713
464089
595616
189352
846553
166918
322108
109438
246565
593662
889571
543245
1
431015
319295
944628
230474
566254
24290
188723
473100
102432
355136
218873
822608
984153
876676
754453
352116
248614
564979
12610
682879
736991
392521
779888
730041
826476
730116
100063
314517
6388
517746
927571
462323
745223
358271
930628
289751
525716
362248
359549
491507
658555
430451
61573
699238
895301
233311
362042
197476
219439
844737
950394
421436
942474
941658
928209
346517
615546
519784
702962
382021
312267
1
498119
500040
296885
77436
17364
599966
588616
24601
857090
355699
782584
5672
514430
674495
574459
380866
147316
412823
655289
862965
502761
941139
794862
404129
863975
825350
809034
293103
980988
72809
31504
87983
192623
655408
817376
156620
271373
714152
318888
227880
528086
121113
196958
425107
409058
120485
355003
984359
204210
733591
871675
283137
529066
807487
119059
688713
118712
345405
161245
861384
493072
35103
750832
175764
487328
557465
57587
932176
974487
230010
209669
142968
739710
26161
93383
500867
703645
872174
63567
915950
209374
960279
417800
917523
459898
34838
218726
553730
657910
310754
917347
693213
100260
98540
63428
335389
701246
564118
814018
531230
55518
991761
589938
659796
956937
529616
446139
301595
301106
755525
339972
253625
895717
275067
87033
703573
254391
642672
621700
281232
655451
619954
513521
156798
918578
519012
298115
639813
121322
234067
870171
155531
228960
783600
435851
18593
662850
130794
658701
860211
162030
832140
275067
521904
816154
587372
468114
948038
912614
819796
960127
860850
41768
627400
912614
701946
102198
482582
592074
880198
921138
564979
843053
222061
29556
213148
797607
503472
398416
373474
243933
878122
566254
265211
87475
425589
822298
241627
918944
229154
362268
734558
479135
571667
997247
848784
980376
570226
281727
655232
121113
178768
235675
871896
617911
287235
203751
511783
287906
789918
53429
466106
288720
709614
409456
69066
979510
418590
880086
513951
582328
260645
189352
833796
178768
641640
112278
762736
969077
162854
451748
733148
663025
915819
85451
483891
123053
968207
465818
903122
326152
581089
715104
699316
547959
537546
822298
27961
89409
927625
917523
998830
889997
550594
975868
18063
430006
484318
511362
293184
491408
945701
684883
670926
950394
291019
284617
417668
389604
822224
498892
565495
717478
811849
526052
698068
921199
234718
800078
685411
836759
922279
65551
644715
61818
660150
191343
589938
553612
523591
441285
738252
600613
909855
491507
359303
833111
115224
618588
803109
803987
39460
635329
96497
186881
990891
561888
708193
925918
859400
748384
804532
416461
133761
238647
57676
48913
409058
729880
946353
67866
566280
899897
856784
116708
696074
792109
322789
861680
246329
551665
892754
154726
366469
578948
647307
113250
22707
918389
347552
68174
117949
602307
476484
357271
249003
562832
270416
284171
231152
41853
721406
841595
548236
67184
48026
77258
651448
830449
803987
376944
653801
761003
525716
432887
822389
3235
144668
178768
933060
29603
440846
757950
29103
2180
702906
627113
882355
714879
89307
697111
921802
802411
334532
900448
965323
639703
255079
519102
473718
871671
462982
113436
919164
783107
870552
441829
886179
148570
408770
853456
143672
947374
722856
61942
119854
877412
413931
55782
617346
90509
626236
263074
417668
627970
847251
625539
299963
222175
847251
400687
407189
972668
856462
597273
9024
195160
12610
70536
69423
712325
100158
334070
171108
803348
433106
780200
454580
961284
498892
757490
551153
438959
877314
210149
141853
112889
285591
297168
590914
561602
67866
727556
656755
291614
221857
933252
808983
803987
554535
970669
66168
100777
593723
232073
785457
767314
835525
120793
127099
36945
284030
706500
976122
834261
824941
523591
498037
918389
22338
733647
467794
846667
850730
545966
153597
721442
345071
275217
464987
716606
151411
516172
453705
556343
526744
347354
649032
782012
308549
706500
16369
243178
517640
208644
175854
599443
834202
49064
918389
190497
208081
427723
852269
333029
495406
51240
863650
860395
217388
740950
254391
312875
780332
508700
847365
643286
158760
686054
309921
43610
770957
783323
220467
523591
304292
193369
411925
704024
89643
56010
653055
294249
68174
970734
283440
376985
399705
27642
150435
437025
237326
540087
859377
184805
64647
916109
163444
451135
868280
101786
126526
281215
809054
396531
567898
306303
281037
535359
713922
865050
482236
485123
69148
956937
352095
820760
578076
597273
701946
569894
425107
963691
936958
453267
214999
774093
24989
514658
724909
339255
404683
689852
625105
998411
429717
77215
718828
347454
268956
833796
104076
617720
792348
975245
955940
928209
87647
682879
832118
654906
919966
44535
66701
234966
929046
703882
336151
712853
237326
773119
514698
373671
360285
724131
642834
26498
491065
483682
213674
94908
201194
366845
415896
82047
334691
419929
877542
28459
794862
167086
533624
203109
855390
36698
402625
148570
422952
567812
656946
978885
242482
941631
380182
481757
864603
490811
490227
816154
54669
819057
152355
243178
477845
383638
118106
893155
811597
860665
968481
92921
627113
723979
173036
729700
250952
600913
757269
137532
847251
759630
848558
928209
190497
147898
68035
725046
164264
9520
127601
538831
520109
374057
872646
822389
737465
32990
208334
781664
873045
417800
592401
926982
517963
339260
986368
176886
878433
171422
446973
18928
70444
593651
256807
645466
337084
684043
201380
962053
549985
612260
242482
65329
77906
312267
881858
636074
58469
504315
175854
20192
387334
935597
924908
11835
574413
578498
263745
643979
227580
728804
537045
189352
748260
162307
889494
798243
235842
738876
167376
109049
623719
438619
969596
544275
314517
585740
943939
873992
786535
458058
562648
768079
248202
450424
127601
454977
990663
571836
264382
585659
315694
372202
474540
922740
576922
444500
736339
738552
458069
886902
519815
828681
441362
432718
69295
939171
420455
273847
985574
358271
936166
560481
378621
61948
571989
970838
519855
528086
956942
195608
240070
835379
863373
667052
224298
866390
993787
191236
128472
2054
840947
261253
50977
964569
439784
315694
884831
806045
834686
789606
606216
48254
321079
985727
495489
560862
316639
933225
860728
435057
799731
526447
401734
221247
848784
844784
843840
294050
880280
257992
11609
178664
23346
753644
856462
523591
135226
331725
943909
757142
590914
724131
83010
598286
405721
62633
549985
824948
484313
884819
617722
844708
824316
143710
249455
466052
777954
286030
971723
808777
760509
627113
581358
28669
669834
19086
603589
291458
926055
326152
789918
96954
136728
281556
34088
332002
12833
568702
759791
87356
689612
52348
871896
173714
48559
416461
532223
528920
302118
381563
91744
998280
230548
432991
933060
436819
629117
73607
106348
601987
387398
884914
300352
985727
865361
478601
218873
845674
905040
947869
24989
578076
955161
787588
309363
523166
808081
800341
313567
348449
425909
884404
177009
368043
596460
501316
872069
668143
853892
404143
88861
819103
194845
32647
464323
423927
533490
672078
643655
198074
730560
770369
479039
53598
297983
91677
11021
980242
759176
60903
391270
18928
960999
35212
603453
13473
963691
80928
277409
858341
742852
245409
964447
949116
697076
483338
193405
178625
204346
304680
100777
416499
195876
153575
274469
229154
785270
826496
661684
91149
648145
12833
196417
834542
856029
924916
856784
973781
362082
752877
345405
878122
746201
230682
872518
176342
179135
429717
711852
141301
10138
876898
290932
199485
991149
452270
776371
504162
532411
69645
119059
305674
896213
556264
626393
55995
526414
509822
862965
960127
525673
404289
828450
513688
234966
493221
626236
667807
814337
453267
583247
107029
428141
241627
985204
581417
512520
123320
195190
491065
28459
261784
118059
868280
939207
712196
770057
131184
73171
26523
211249
756062
431015
163116
202371
550666
798061
390916
393956
623288
212100
672273
16185
545783
613337
808569
423927
291019
511783
355111
224377
235027
321132
981973
198884
781664
234067
885910
62893
541287
559781
756062
116573
916727
427099
32911
582724
527110
574459
610916
762736
191969
829714
824948
51733
665549
284711
133787
384839
653605
628455
476180
461968
641640
151202
727601
404411
497531
282539
896570
203109
585659
624519
115897
933060
104076
828681
590419
561115
262903
806579
700247
455776
687281
257021
505430
680679
317852
435057
124640
640751
392815
945177
117747
856458
173524
750793
553841
986522
953330
106608
123614
260224
690142
110503
740950
483682
573751
502844
746145
370126
861921
856766
284800
916727
199431
385811
676779
106348
340359
686054
929133
612883
89827
403595
541330
340040
916511
373455
696536
226903
345219
72950
413465
262322
969596
717254
223819
886512
931029
359384
788557
691311
865050
353397
887431
364171
709888
338390
797489
198064
752877
877412
779079
213620
481923
608407
752883
717936
16369
851062
532431
9624
267864
229475
909855
96985
652893
372547
705632
888752
700247
327787
941299
385039
124962
880478
234368
714152
653801
135317
599496
361426
665173
852300
345269
750110
20070
384555
888225
132207
663025
345650
347317
311361
20070
311180
149316
174208
823900
167898
646513
282713
443031
809889
956942
233194
4259
639197
228421
789753
214219
3235
825725
179074
999640
928823
642834
440317
93637
628804
760509
817008
336963
353969
514643
926731
305280
978885
700867
26161
195653
464007
792315
446137
862731
121642
861384
147488
996952
889886
982888
103838
167738
848292
547740
412815
608407
464987
814018
863745
235871
147467
416499
536641
364521
249964
57603
335258
162318
637310
351877
959926
151074
649709
332845
119131
334691
18593
421436
45754
122735
923564
376740
192194
858093
68174
79307
925378
879412
232846
104436
778502
815191
503206
87473
681419
564227
335454
950394
12751
525884
432752
943939
270172
786265
196934
91149
340801
508185
601679
113436
986014
136969
835330
368775
984745
390538
116064
145475
76143
963303
277453
865050
231150
249964
194131
639703
855580
141619
378366
59860
427099
439022
450592
415086
764816
589140
764816
797607
977203
427771
858341
419415
131945
68575
859231
485123
673384
36053
19653
725287
168286
742159
501278
772833
111438
422816
61444
123680
934988
458299
176183
840470
117949
58700
425880
233194
973425
934831
635329
420270
131322
100063
22770
770852
219203
565458
598612
789253
497821
632615
568702
930628
577186
23794
989814
378736
20282
728018
529920
581417
808081
440317
315694
628455
290170
714288
985407
863238
380428
658122
971240
182028
11609
664272
639197
606728
914906
795036
79881
514481
61565
588786
433106
170268
905040
95256
863443
23379
714013
916
690780
467847
27604
228960
368166
993149
453341
566237
11587
531230
160007
129599
21390
206411
883372
921804
727025
947350
701474
344603
102198
395493
415028
973774
176161
92563
21329
207094
388585
137561
511453
840306
796051
631824
412823
604942
370908
454267
873580
62893
711209
877542
431702
886196
907888
929004
388585
468017
58829
187335
418878
68174
978885
409509
512694
271754
824332
690642
123053
973127
767314
953407
627400
809116
543614
221309
666636
194131
602109
511362
468387
488626
627267
517640
260176
399972
813855
43215
504145
761859
673380
73841
843599
904732
48559
148665
67604
931679
654991
711165
442732
566237
781094
358851
433812
315585
217388
773734
794809
826667
947947
767242
175854
117835
696488
503383
100772
925545
585659
871449
430048
381167
536870
441840
36722
155952
866407
404922
592725
122519
745870
557818
74864
174441
186250
746145
697574
887083
856029
501316
335278
180406
944628
793099
392746
617159
798947
29556
498312
623554
74861
481923
129301
79590
411756
718987
658111
446139
980376
854043
57676
320737
978297
282088
8158
716606
663103
108942
552693
446973
484681
177943
106078
717478
709614
241646
444114
21390
985407
560764
376901
858647
678135
322198
180525
210940
69645
100110
889997
398025
35117
201380
822608
101719
570011
466052
625539
375727
910200
532349
167522
891447
924286
292603
319895
785754
750110
649424
59455
401942
112889
57057
501278
202649
621598
186881
175560
964401
676565
561264
762956
822186
195608
950777
749676
276358
269076
848558
695959
567757
127099
111632
365240
499163
883372
610242
772862
640854
28161
836539
394745
872174
12792
299
141619
169977
396785
815080
609573
883154
569518
768424
732706
927045
767038
256780
68174
596081
975652
242948
328008
142861
562656
222945
921153
712211
781995
428492
819233
417090
996380
425735
310948
311180
294249
815220
646930
703335
843599
732250
233362
703645
376397
143269
205015
460999
194559
105106
624519
81111
360993
909090
860767
573282
23808
169977
534444
707423
760664
477770
808275
189830
48951
845063
816319
390060
86035
393837
724170
922747
576153
975868
152861
1769
642960
837419
233292
123083
673386
785457
727825
144870
625059
342690
9024
999020
262903
368166
765877
412303
808983
851417
212626
220393
771516
836759
167376
587148
943021
161261
940074
526031
383790
217765
229478
154283
126526
77501
926356
296557
18065
943256
191496
455908
408770
594312
833111
532223
162894
877834
218679
672879
218873
177209
755840
877412
659364
50402
62592
100110
847313
888756
45564
120102
89409
341433
339260
470953
268032
963889
477845
69645
182028
246329
123680
792315
684354
844205
551034
235033
70536
775410
655956
166730
116573
327787
529344
711272
109071
564111
117949
867379
448477
264271
767205
721406
452895
266586
36722
452358
301106
656911
233194
269173
734969
421140
428141
282713
74181
465818
539745
995625
599443
780651
315694
988698
238647
878059
928769
569568
650161
491404
743664
200733
388182
77501
374913
198074
823117
572724
228960
666893
809034
24601
287659
113504
219203
638551
155850
322108
144668
571753
828450
570512
711846
333989
146707
490143
464987
984508
947030
148982
728522
659364
623719
144870
807487
801274
537987
718987
482023
624229
281268
917795
673386
111045
660820
47142
1501
430451
917082
681087
205015
16280
273507
295728
533624
984508
217945
144978
840947
482520
277652
450592
62871
762588
613938
678135
970838
10081
411599
973874
121642
411756
914671
230810
442174
234966
990989
844784
491873
369808
264898
262478
430006
848132
685298
78972
967297
702962
841882
957687
254974
519992
339972
163444
553612
519012
486197
587148
745870
75831
315585
368145
252424
612255
196046
949144
202103
993818
309363
827367
172322
416499
123270
59455
772318
914371
233292
733609
444693
567835
49064
548978
235117
71252
853690
286040
895717
781155
970734
367848
759461
578711
323491
728530
655297
782778
213148
153806
479135
792593
346522
691510
210215
694443
46408
512827
351237
282982
799187
309033
164308
468874
502761
179147
523591
655670
601305
173233
193338
628561
626886
63567
701246
377949
558634
49349
797324
512264
822111
848558
778621
243639
297396
588175
313514
811849
686280
684886
105220
191969
269352
509732
12033
864138
169360
431620
826432
870545
930904
169788
651395
653605
292603
588175
545739
347679
902252
767694
486674
935630
672452
893554
565486
94094
870918
853054
576507
408614
615769
883482
594026
509407
498362
191969
276775
345650
782778
158760
922783
572390
611892
313567
690642
728522
202373
996987
471499
233362
616905
179070
800876
273398
13473
884970
855174
476484
912326
742159
474176
16866
70334
950777
792781
135226
886655
699910
663103
93525
111438
550884
990989
241943
992484
132556
949944
65551
797814
593651
631100
894628
526424
714907
511826
626332
911140
872174
857868
320649
138300
658105
750587
903598
61860
235317
227572
774437
26962
706500
486229
300800
928823
384555
981332
267625
959328
570512
163947
637802
312149
921802
781995
491748
873635
1769
891026
42066
762703
673511
201283
924766
307857
915958
545966
814781
185596
424996
691269
33928
240528
106371
493221
453000
202649
651952
327963
545783
419695
487634
167086
680671
309724
559840
481962
214999
867556
323491
625105
413436
843599
96420
160007
656795
733351
345971
665822
35117
399705
81111
166871
146870
147063
234340
32647
476910
15660
586796
832004
538664
797324
87044
850112
99823
845350
387168
880198
308577
810141
313977
395781
489243
392821
722615
366311
273182
465005
738876
504356
317072
878120
684033
867793
863373
490143
583544
88595
497531
772833
908993
3362
272480
899541
742546
830358
88928
404946
126946
194432
16280
156798
97627
184030
854071
709520
214148
173233
279907
767021
736450
179135
19653
935296
525015
567898
657910
213620
727556
268480
264382
189282
878575
914626
717973
877542
465133
607487
372357
260645
375829
675841
92921
79495
364300
294871
324096
924908
621700
863176
88928
65885
177209
133115
872499
116708
221067
170601
489374
297652
195868
169788
502188
498823
340878
640640
230733
881523
210963
332104
232846
673373
82495
198716
235117
477847
107456
655544
175581
659364
344601
822904
197941
755840
511151
587563
722022
6957
194340
188021
250890
273000
756874
123270
360365
44357
377639
548206
602844
245640
497632
822389
618835
786265
883482
243178
162854
48951
423927
640619
529920
705563
646930
625105
218899
996952
345071
258812
538590
235033
745670
120102
428197
954310
896213
715028
79461
969077
80891
557547
109528
785360
169360
877067
299232
896570
918944
686846
176161
183824
373551
642834
425455
246069
773251
232151
674495
549044
38505
45564
279245
887431
612933
379160
531609
114532
309724
538831
635806
421207
339539
927714
1769
893482
636767
700086
859400
994449
892425
339833
734134
688850
887949
963861
325277
383961
431497
589309
355560
247757
308989
266433
509446
830895
788825
928210
656117
688636
672665
771762
802841
909175
571963
284030
147063
402069
465801
464358
418878
636767
999020
818259
696012
919966
372202
233495
982756
457725
602311
162307
721519
478314
700054
421436
476303
879518
749105
369913
631422
415327
216543
221247
397511
288494
379950
760664
590914
625751
142311
62592
483682
714152
417351
847088
159549
541235
355137
611070
966350
672365
211494
947869
273359
616896
860211
403728
247966
986831
177209
230908
476910
547047
487645
781093
725792
166382
32966
2077
46980
977203
273398
811976
241646
254467
458046
884218
727704
399785
707576
190233
878433
712107
577566
110441
164455
10138
656946
140957
952899
102432
278611
728804
167376
718894
55136
512603
833876
800876
774280
798527
151907
206116
44119
856458
22850
207098
728530
69297
405460
278741
30177
729674
559781
753162
286914
185944
753155
228714
508185
986014
359720
642271
696012
649424
972895
502761
560832
146780
483891
43617
371580
91744
229154
146870
810619
948530
314101
690142
286914
160049
486197
605755
13577
564880
229744
796968
236754
814242
198908
405460
808777
850506
767242
355560
397891
67233
889389
545302
547589
327963
780943
91677
378366
873385
137246
458299
808275
684436
109181
154034
538592
64647
872646
418401
355158
341859
695190
982181
400631
70263
26498
528345
533624
856307
135156
73137
696384
965256
571989
428492
871945
65289
778959
53542
861340
130544
312149
555528
840843
171371
215979
443337
72156
440317
871896
432433
342790
219439
466535
123083
985204
84460
847313
773682
851269
830358
555123
972200
638990
178924
438720
654566
412303
67912
491748
714989
379035
927864
775678
716539
530822
696673
523166
734969
429877
364019
103838
331217
652326
509732
925259
142696
325596
286857
498037
248855
784324
939171
659222
596148
559878
310948
873948
977778
937753
358926
839044
61948
358576
699910
175560
115897
317564
564815
325010
930628
684436
23379
174181
714604
875970
895392
10081
198884
70536
292405
570112
841544
150163
560862
826667
857132
178702
691555
846667
525716
475317
421140
574460
337742
718077
693782
448653
593443
899541
116965
386304
88421
318088
67233
965276
107478
383790
809054
598171
792109
53043
746201
492102
284171
863511
919081
230010
452523
980354
777152
511453
329711
710822
552886
402625
655069
511826
955161
39286
538893
109438
427723
537360
484681
339234
44965
228045
182028
246119
632615
412815
736339
840843
942474
456128
227021
631100
962977
368145
476469
484344
12833
181808
358882
870171
255106
723401
996693
170395
857132
388523
467216
561979
760067
782386
984153
220533
837092
800336
817822
794862
989412
757269
822608
576153
860850
358437
735736
502148
111045
860850
503056
884610
779403
666124
376987
99265
722615
375727
448653
151202
670714
120820
418209
454844
996380
564118
305299
928210
127414
948838
827055
508224
411599
91949
179135
321229
40868
768500
850672
861068
760848
188525
559333
706146
127414
732498
806986
860211
835119
843284
97325
817822
823044
530941
309022
276715
869758
589668
167872
986368
246578
770007
857121
397511
134508
776942
603156
355092
260176
17967
162711
935349
846553
193405
797153
498971
121269
320737
363485
765105
208898
347439
191533
337649
717869
998710
587910
723906
513550
382103
733647
159549
31504
912261
841623
905361
859400
901142
549299
499389
624209
756161
399206
476775
427957
39508
908708
140089
167898
192432
977740
123623
579733
178959
462231
877889
541060
7874
983370
960594
783573
611690
457712
13577
191821
750110
934988
912614
290395
763105
865050
440576
429877
778135
753204
7874
331217
168286
271365
341964
962636
411861
455570
426866
489212
103999
65922
963691
324096
195160
383749
706146
984508
534629
103999
966291
759362
828
100759
345623
977740
269504
681419
506649
988698
464323
979104
790032
898322
381230
924908
160712
208644
749361
89827
800336
407191
323644
813504
314361
245976
808366
860665
383014
176183
670094
656755
433404
584637
774090
369870
438255
103094
822740
279245
543220
450592
835119
769774
787204
794198
981390
298276
554746
622738
195653
687281
687606
945372
938707
680671
555202
952899
336963
270446
375139
774093
456016
46980
439667
171737
482184
551467
192623
886241
849505
3588
691858
750110
60427
706122
136240
819642
562648
417587
248855
77653
106546
121269
745671
541972
936511
700989
766117
612403
156564
18472
910794
792315
186583
946775
854472
124368
407189
728261
625539
422952
905678
981103
656117
651042
599752
440506
803266
287906
874672
787097
280908
455908
311596
965030
838201
883974
87161
928209
811933
213087
196585
106546
24491
960999
191388
509822
404683
401734
972895
250480
996952
102436
424737
24528
387398
197363
787320
587069
320649
242869
925545
732349
580287
827700
957808
510403
792315
112568
512264
667807
868377
704024
455570
952567
720851
650873
50410
390882
855714
687366
823605
829455
290140
218899
773669
681419
459898
811941
58041
901238
113436
599221
169254
724118
101279
233495
940769
962038
250890
589309
576507
419012
931792
61401
264434
680988
471153
895525
628459
70536
57054
787588
339699
863518
483682
725865
339680
379790
133761
856151
122317
92036
584024
984226
581175
824348
339488
538893
408078
334236
712107
152727
418691
808983
599307
72258
139769
438675
590195
930628
29792
970997
529732
60903
792593
901499
883154
182001
56441
138125
54669
439305
36698
135156
526749
833841
483905
786574
275457
858662
187780
355092
457444
690642
494874
180131
475515
577768
56924
737114
990891
734236
802298
659979
956937
305809
157018
396438
226348
235117
255079
583060
964401
761292
758139
806986
432887
825350
872700
904576
892970
861384
452920
476775
471228
32387
628369
781094
983214
535731
319777
544447
655988
83788
761003
925545
68338
525518
517657
787097
8869
884218
440506
727825
922783
353770
956860
143366
559892
154676
431029
230908
247966
433812
705340
210861
872259
439667
911085
594026
522853
375829
250397
252386
947030
720488
665822
925918
191476
47149
813504
740899
248855
468499
976995
145607
362594
356094
950508
279689
450702
51745
494780
36636
284558
246326
661915
947374
592840
964229
371580
319320
235027
252920
492623
640640
279631
963580
198716
852895
867036
996030
160584
114691
882969
658464
704466
821580
60903
630926
646930
395444
617505
427552
273398
8446
915819
395444
649002
229154
642960
484681
16657
234203
97117
598504
761166
72896
601804
697574
515070
22310
554319
147898
69297
698760
576513
586796
417668
227237
85771
351592
417190
689507
875680
109438
152401
642271
86491
204651
947374
24382
419336
696654
886196
792348
216658
791475
477606
770852
48913
138436
559276
130602
631824
603156
489776
570765
91563
197967
264434
400353
90276
551334
229088
603231
426277
735420
52062
355121
379240
595616
602249
808899
85771
126712
103939
254367
933623
374502
608407
428492
155850
264200
779664
338582
65885
179370
984226
432991
177431
529543
811356
958317
218726
23831
940489
314361
656034
649002
423179
867014
339699
760673
460999
369142
840948
140189
158230
458891
954841
372791
458847
33928
924097
944071
694443
898322
387722
718562
358437
219978
927466
213148
409308
89352
183824
439022
578498
789750
971240
121113
424218
14880
975663
120810
282088
426281
541291
538534
401944
412906
624009
750609
54594
717936
84013
628509
43527
658888
636074
79495
616108
84263
409578
456016
598286
553730
376213
55352
814422
849502
33697
762694
261788
296975
190770
685411
508121
272480
697754
69066
519012
157820
43215
710822
265179
517657
762740
669761
818662
308549
855468
603231
670094
251479
137591
293292
736876
37874
517746
714989
614914
95465
521074
151703
85194
942645
107951
905361
672945
360365
57801
159336
339260
754453
444883
4789
209187
417351
889392
72156
680944
684043
174181
119676
684354
77462
176982
761082
983214
284211
628509
917795
796051
283871
406888
169657
366804
523617
795427
781738
911701
977778
553513
919626
992445
237952
601292
918290
581175
304072
551215
782778
457001
584090
878497
640751
769667
477795
610242
107029
521746
456609
933225
918315
928210
97182
308314
909153
598916
776788
825350
347582
309449
973315
608834
153575
718536
688531
142599
696605
941299
359303
375829
155105
904732
311361
420843
510606
371979
5784
623456
696208
53429
632680
802928
330065
134857
139198
839210
771822
859188
189282
375067
444057
620353
800822
306027
796526
925545
357271
781738
168318
918315
652797
530877
759358
226460
241849
659325
252386
867556
121407
700102
820495
355158
819233
980475
402069
127414
447428
800336
650835
1
101143
675128
602249
210763
309363
411925
92138
758070
470978
250083
464699
718828
877779
345623
539552
766960
62871
397891
825350
325596
827389
895132
227123
778327
77567
91613
853185
346791
245786
340122
38196
878127
754554
901589
447342
602851
922973
92390
297766
872026
984153
379963
458046
162561
180492
863650
481757
879078
91946
270172
289722
196398
931792
137285
24528
780547
116719
905340
596994
670714
458833
437025
86819
870552
523337
33538
482008
836443
314655
411841
300825
10571
740185
770738
246601
587563
326803
169315
179074
551665
377841
267638
218898
441048
902536
786265
767038
91563
935786
485741
884819
83974
741894
763893
832571
506649
294050
47019
701154
719210
616108
123680
328697
529953
740971
849914
397511
650876
693669
332599
461025
805570
191776
827367
256171
453840
995350
328661
492623
623065
28773
66559
765683
464089
815222
592047
473928
248207
175503
766407
828415
553921
431537
884404
516655
678135
400690
428079
712150
721214
618565
121322
509883
418058
626886
510433
762736
771762
748384
575457
226264
781738
961027
791599
238772
687640
624229
356449
441840
32966
39460
863373
367929
8158
105106
730041
177720
665706
786395
783573
875649
136728
43215
783600
24673
971240
741894
333703
767849
63353
462982
551215
401685
45588
337030
463219
507727
368772
96420
180672
288494
912700
767205
902641
951002
11021
806061
398823
770919
253149
691666
433876
872234
220467
489007
59876
46715
196958
220460
365311
83974
9144
419695
319362
943802
405280
593651
745129
626236
144569
875362
844399
510195
330152
490673
821197
52863
769753
489776
98598
801134
736075
471582
273359
335454
202103
27961
672875
338076
271365
980988
230908
326629
47955
32966
434182
178625
766960
3269
557465
246601
383282
234970
223819
422952
732498
733514
111632
144447
654210
489975
468141
908993
103896
360531
160007
897358
255079
201380
339680
666873
429717
428197
151703
820374
106546
222716
914033
667770
933684
651179
107094
559747
800822
899007
591711
981390
893155
643944
63764
167898
221247
230474
684440
792781
140957
620706
758494
300800
547047
844471
122317
476858
644977
275457
222061
395674
180171
798478
326152
451353
162307
142861
659364
886512
404777
611423
870918
739710
653801
917795
367299
434807
262478
358576
126526
834686
59112
530781
365027
956937
986000
39286
969596
352733
460418
242948
996123
779888
272480
489376
84275
159336
768500
666689
985407
604558
762694
370522
892754
905040
612403
861692
90698
109049
804075
349072
646830
402452
453210
111233
875200
329903
982947
804071
676139
186881
338088
365885
77567
384555
383638
324988
711118
295314
283137
583449
334571
68471
353843
35899
500336
283015
511783
77332
679758
797607
770852
819912
471272
637050
512743
339260
581175
766673
97082
105220
107094
560450
22850
115596
837092
881039
86928
70918
973550
929841
755539
363649
655408
479416
706500
63823
732250
188184
689507
619954
487144
494530
229478
425515
234563
371347
770919
515090
718894
776942
563108
832571
749592
957808
940489
110569
26427
54669
930080
786535
928654
789720
696041
767033
104931
151202
532349
689852
201965
757326
617159
507506
890382
708214
921199
998280
156845
758899
945372
847088
424218
633316
58691
48913
467967
917602
914549
113183
689373
628455
131772
642672
11021
818138
270533
185516
461287
232075
965514
252354
288720
223940
876432
969077
25935
730051
680679
658606
560627
390882
487634
957729
702443
197730
718828
823117
428971
307264
256819
761166
983854
765621
123362
306562
789253
63764
56337
773682
918605
980884
215251
320649
542022
362714
51575
641661
774174
892791
103904
637462
741206
691888
461600
440846
498103
144870
197967
660820
122317
63764
465412
386111
385814
125999
467216
719526
859883
996693
911480
698760
150446
111030
279631
479501
654621
411841
26634
797607
543383
662796
591711
733351
364969
362932
333300
916113
384469
404289
34030
40868
649002
193338
724115
656795
352924
249455
839392
439704
761274
94241
914033
735687
488093
529344
732904
197421
528132
939623
307808
240070
685411
972086
487328
250000
973550
928768
818068
859859
649564
383346
546466
948530
752561
371979
70423
945855
16025
718033
801151
253653
718987
196046
690006
873528
47718
487645
180171
92563
339539
829375
78972
389438
670926
531570
419468
889655
264711
856495
104004
539552
77215
619573
632615
898296
191496
365311
168318
893482
539911
962038
658888
889494
428331
69690
690254
746785
177728
494588
798155
227209
71749
977500
428770
436150
539911
613938
105015
45513
860728
260467
637100
405613
770457
662808
10138
603707
482008
234580
477921
38639
169499
468141
43984
181119
663895
281192
760828
143366
732387
601679
860347
148982
562656
707063
24673
980696
796237
49118
145198
435711
507864
285591
585740
4798
702591
858268
769585
559333
486674
697035
380866
54669
278003
380866
942870
735872
528132
448014
131159
19653
782778
227123
721525
717254
884303
362904
235273
565270
894320
3490
379473
376213
681391
476858
314361
567859
60942
840843
591472
680550
694435
417351
566061
598286
596356
849317
748052
814018
680044
378672
637310
333887
480576
934831
823900
730241
372202
810356
885700
28859
286914
72258
319112
552914
532248
978444
255333
376152
846553
762740
71137
70770
157068
694591
61818
557465
679758
398245
376987
502761
789750
533867
207092
585154
531247
375428
180525
541918
603231
408078
131184
648895
988983
182692
945047
606216
402614
827300
781094
173503
675496
49569
190497
551215
535731
907693
96931
528037
720588
938512
919257
159336
532560
3235
93335
792109
565526
632204
33487
780200
408333
517640
772078
997681
330152
591574
935630
383226
300460
223512
130724
983854
769023
777120
202138
44834
253176
51634
809073
702057
975663
583121
109652
23831
698068
765239
604062
255872
911870
532223
642556
492458
705507
314778
260768
720851
317808
804075
738601
837365
844462
723055
12535
413436
979192
687366
778792
327091
79902
272569
935344
397810
761882
853336
147063
627970
714907
727712
828681
346008
208644
288342
17364
905361
77653
48951
610173
369386
227133
923725
861376
654772
197300
617722
411648
523190
592183
689624
476484
339699
789253
510606
289355
473997
173503
703458
874973
338390
904732
883166
923853
723814
208849
569890
914549
498954
989412
839168
719311
67184
476777
243978
21358
781094
899868
326045
724640
925378
557547
246152
706397
774438
173731
756509
718998
245179
178036
937685
198659
988431
463110
630217
514430
533410
270172
158900
531990
358713
201307
322178
299257
980475
732349
9166
400690
592047
747788
876147
948274
106608
254974
307264
8158
960713
918034
195190
267321
698095
815193
847144
555042
78260
196046
481517
714907
155427
91387
91391
556022
164455
355137
227021
449292
416510
833155
222945
550475
525716
459615
848292
561979
667052
914981
992825
316665
241943
697254
599881
672665
177275
877883
695154
815183
479942
757491
84107
357267
367929
839596
494601
610858
784744
413931
532431
338310
100759
974875
404584
174441
118022
415148
752825
190891
696654
143672
469479
195020
449278
337810
16963
61565
740185
880478
934825
120300
384311
186702
757027
169292
272956
743315
651501
699371
76912
866207
234340
743488
548810
645918
366721
79461
102436
901062
203151
155843
569890
133486
761882
531188
198978
888669
926653
586879
652186
330227
667734
663895
672427
180663
648578
169934
730067
988764
495172
458797
767920
824151
58607
150446
586796
47149
166531
178868
166730
214202
498312
531944
464323
601648
715585
458299
660108
255106
419929
340878
425840
307923
325596
939086
414525
421389
262322
408502
735597
444409
144870
873528
377662
255333
266441
823092
201380
298972
930603
923725
14693
141799
387722
922243
866924
936828
650522
279603
159549
443947
348254
528854
581302
401176
905340
758899
395393
593662
444968
910768
8446
208081
863511
748764
134094
295408
416510
213986
434980
641320
814212
421140
129521
684750
260768
118141
817209
769694
577556
487645
211249
716995
6388
396531
290795
48951
284616
377501
797324
476910
90630
786796
21076
796051
984153
30177
66559
746785
164811
795694
497558
71749
314655
568702
856766
634317
809311
379282
900461
734555
863745
297519
117234
204285
403036
387398
314778
27673
178226
852300
372526
329684
238848
526671
934671
943678
30491
197967
106537
139673
860606
793603
314290
188184
738252
911140
812045
690592
539911
855714
853336
878575
97325
499683
863888
131826
864147
433527
316754
608772
406502
567198
769441
727601
798527
264434
265626
26866
182028
811512
844123
328008
250952
715327
687281
580287
367644
907639
720442
306027
981141
54879
690254
364267
14058
734236
566280
595235
248830
371186
604299
438212
30896
838483
734427
208169
54028
847885
960846
774090
108010
736876
504162
419803
660150
905182
376651
135226
625403
541549
995350
923725
908033
838441
889886
128223
443337
493938
89554
875039
230810
111304
416690
464358
159262
581028
47736
308577
752612
904379
464535
636057
834985
262903
761780
765400
927714
378018
362714
444963
735736
670714
384839
392171
543089
840948
153597
320737
954310
91518
733072
979471
48831
467167
751489
777954
531247
224298
794124
787312
662808
534008
321148
208056
395700
301420
392477
441840
554746
852121
69690
556263
89117
692845
785950
523453
881665
153333
909138
135156
568018
787081
823145
591282
796968
793634
977109
930904
540087
813072
431537
202786
217861
158130
874167
870918
396211
285348
515300
821580
317083
897522
494292
171347
151811
797723
396979
839392
524950
364905
226937
591438
810201
895078
823063
528111
372357
523330
285656
