336183
484244
20368
56869
997704
449776
929825
459190
368414
151242
718078
544332
812454
98077
745135
769548
88624
246705
837841
485177
916911
249712
492850
808286
502540
892783
850804
507763
694106
712232
589266
133284
286915
171754
686538
753633
307812
474012
927258
101684
740102
186209
77461
310092
808878
907418
658965
89386
988571
181969
946822
713788
955717
325022
394385
586224
586098
356971
414153
668182
47765
219749
502879
710564
213307
558104
301154
116074
372361
578447
584091
634170
324516
76842
11211
385894
863753
509700
691744
763373
888976
194454
454714
865518
776704
672229
782474
455602
150684
550173
599716
350272
235639
12583
57511
553117
359790
280239
299824
941844
317680
587420
893951
320054
567156
122005
88658
16935
417085
368311
311590
485296
127328
54711
220302
379905
739074
735912
889337
538378
537065
292427
596390
907892
706884
299933
778893
466904
321292
443936
384178
391273
471634
97751
659733
20613
927917
854331
256890
646401
986491
814922
732441
55077
933359
1851
649707
402022
978377
629202
845555
211641
294735
443711
854495
891872
820325
337379
250612
484765
438091
145483
899392
643555
235695
58026
788419
695632
615375
752104
183213
335216
590791
474900
167068
32830
502837
189094
558092
705124
133828
700625
386587
6327
730262
215585
923540
882216
491453
628163
153503
254849
79466
312318
872730
486061
360392
365986
202675
302849
833795
651114
730136
91953
669290
995719
88167
341637
319835
650010
15953
484758
535847
905454
515551
992927
488742
558879
449560
38204
36070
914451
895673
326557
169907
401412
795603
324376
785531
427174
488090
717618
420424
185694
114807
799193
317709
888858
187601
431073
691120
640946
238296
903692
614950
193193
127626
506822
4050
415197
171275
425410
292590
446954
503348
209499
952486
153498
636641
892451
530483
384171
138210
839145
423338
563195
32177
675866
614631
180018
726254
120401
862185
57364
359964
51845
956517
561665
323457
94405
23194
948441
327848
76938
429657
823189
237878
29152
547148
234665
978501
743896
659225
54620
810012
931692
895044
666554
196174
176248
543830
790388
658718
709458
876820
97530
353665
830350
409786
442073
568933
253230
532437
43761
888628
156604
873448
412295
628692
736687
32927
500032
125264
802009
760318
650735
273462
493887
528961
907315
220519
637631
537272
570102
891120
383118
598616
886223
242486
675967
347824
207465
121223
515621
468621
219927
443640
924532
642250
13774
343313
613997
818105
129801
527304
872360
675213
139605
845503
309554
256622
678886
513939
26171
484506
870103
148533
920456
565297
41118
733773
266170
202290
843696
995130
841639
38908
278692
889433
930562
565238
557365
115538
983152
942617
892535
450416
977546
335202
178735
44230
962782
663748
733021
519523
272944
444202
546726
448763
46661
368618
959654
673525
347547
260622
240873
399912
744996
597016
249110
918344
443885
291626
25808
9587
242759
93204
559115
446548
660511
933288
979922
388241
565610
770497
654703
814737
269791
518145
72316
193107
522131
347989
102134
151452
163999
17188
897237
83664
607526
440277
720475
469665
656502
844368
570147
349865
156454
960165
807141
821968
236114
115984
390472
531010
707606
494472
667063
676764
195961
517914
2617
680899
358481
695269
429750
252762
551281
289324
373484
729832
76811
224984
275049
394276
488478
313226
163822
655047
138085
449997
243564
944283
157362
783414
588539
226165
856213
204271
786562
550010
504005
41529
125625
196995
661812
573027
180178
166974
424317
304431
287962
356939
477037
500014
455119
538962
661150
549914
454141
528173
989350
453419
76157
673087
38732
658849
564685
538895
108458
632752
957798
776173
60497
589897
682724
566687
164896
815093
895563
557902
792429
458197
582429
54960
663392
207565
886498
902893
977811
866315
993364
961064
726597
917032
134743
955572
775641
207520
519126
822102
587709
201384
320683
774619
261072
814282
942840
93935
369453
160836
199906
649783
532658
639968
384568
49558
626663
35509
706327
160688
123517
314685
40799
757412
315861
581048
713570
188339
459116
135074
162402
898963
856382
362006
855193
877473
725800
692962
101679
299504
234704
185021
806870
313336
825548
855721
302666
309424
505957
116940
267376
530086
636066
341241
607128
343308
72502
541930
965386
689069
825844
829289
641824
651308
121872
373674
759210
104344
726711
530065
124176
59460
245850
499754
803551
711248
14607
181290
235074
264678
306941
497935
891258
506895
607879
226415
561523
843032
962877
127723
799663
251078
291584
880626
734154
413136
86886
289617
29335
406935
282325
222429
156078
408180
335566
71751
24263
740429
245504
95880
294042
346522
224090
104365
814093
906964
28465
750127
920781
790318
77623
54630
377207
167453
397009
776913
979017
59863
5149
592655
968562
83926
502533
585745
442640
477142
523038
53236
717083
991112
634568
201871
275261
337747
55619
453704
372653
265400
684897
792920
124785
789425
912193
131133
392215
871603
289000
560068
876488
709768
935811
122206
581279
551331
917249
418692
287277
198148
774607
574283
236866
301526
985005
339547
968412
592496
518626
417419
437755
992230
579170
898064
271460
603968
746608
969139
364029
701647
208231
381548
946048
339856
775801
497624
536634
477351
232251
180723
876262
366993
691181
139170
834956
170331
394949
883897
59220
816178
215536
947616
617855
250677
444494
754084
763310
366746
571526
526811
714933
706792
353851
871470
75686
689087
153051
724679
302790
88376
261396
9822
81427
765722
753547
188195
123323
641892
940210
174606
10493
106836
414468
866449
837736
774131
772288
829586
349526
927967
729163
753082
672408
97746
808902
217668
937012
499067
86985
666714
589823
193951
408453
843775
840327
749551
128906
370581
153328
838789
480132
688296
404509
188135
111903
363053
88730
239875
893529
316664
71499
700286
132869
970081
817775
659046
941612
653645
454949
695
782036
151268
50899
998595
572542
191991
990403
516768
774850
915029
700064
748549
731061
596234
74536
120486
975748
35990
929665
479927
596103
304433
10303
705328
35881
884793
726294
730951
883830
214161
648905
691066
506607
470038
152377
123346
195804
863522
760277
638574
397889
203141
693667
983952
189679
761796
465069
199108
897722
921347
273485
771361
516325
586788
198942
77162
223020
800284
956647
688741
581990
798406
621674
855635
669295
620885
614319
808375
275027
408632
181001
728589
317649
11862
980563
631437
966387
41794
965170
549170
561938
937808
945860
33628
29656
618012
158356
333023
905590
2818
168263
718854
761946
368312
448886
69002
527174
427947
365439
62695
20707
203280
565910
316030
824283
839337
153070
818963
368907
218224
739422
243395
357898
833647
983819
330263
5685
104170
2525
13079
660548
531168
473007
543470
619745
404074
597655
757511
405865
663684
235197
526130
608449
770160
982669
860993
409723
764483
9922
659803
825410
907619
160202
328460
56769
505374
71777
656758
97138
791976
461975
198031
509422
305394
489232
218664
591285
80193
826112
587255
952804
446571
495067
493457
405297
532713
324213
146042
856556
605706
543232
509344
244704
80922
510345
356275
467483
101185
694070
454365
314384
989896
49379
372368
380205
860346
979715
227846
419423
922751
81777
369539
571524
847828
447963
503672
619910
951179
54246
106782
828587
317242
844362
814839
909199
781531
586760
662164
862841
259082
691280
665342
869488
260494
799233
857547
882316
616970
628920
337410
283250
332674
14225
777771
185001
474591
832092
187767
935772
111814
541055
863147
530322
480497
993334
837496
317326
516914
60349
652106
766804
613482
790528
230065
968929
279068
655603
779760
951476
284345
421326
873135
669502
8774
422972
324300
801593
438539
215143
978488
693798
170833
952527
203668
305996
15323
237161
339425
789783
295326
428176
670204
692447
768859
669701
930546
467587
488021
86433
49448
573061
585217
265307
981706
932546
941278
175173
175332
166743
167699
119870
445011
249756
573897
546077
123553
230504
400167
114809
962196
62118
9054
486649
584387
829548
244924
259068
456099
308502
44633
528361
987556
808638
216852
255346
136922
200426
954537
318685
647698
451503
602329
36307
348171
121598
267867
233054
306045
99384
135591
947862
540282
588711
578496
834108
153938
101411
157628
246570
733707
97015
778377
780165
495226
355437
510912
674860
662881
371291
11271
761482
369915
294573
831254
405475
782585
527609
298874
321918
100232
531513
322059
686772
257457
457649
811481
186392
475766
424750
648493
382737
704565
960450
724080
831925
604550
364765
379006
787428
850211
666227
806849
167939
584647
14551
556106
585231
287573
23590
912990
992234
833200
28486
904992
98765
896905
391474
636427
935396
147962
801617
48539
563318
604520
567310
88155
860609
91535
603864
21283
942397
211404
507107
693339
891234
918406
936378
228735
893393
696659
117161
376531
310824
374235
339824
929382
299874
928027
538524
144848
39210
239660
118035
689126
336196
27047
210898
823061
734633
21124
44502
390126
961208
896415
314552
978509
762927
817982
501017
259432
257682
642084
398394
922894
151882
961532
529072
168293
383303
618989
305842
429506
480085
825621
508564
816563
896770
962915
713127
533620
598016
29658
775308
414309
323254
559299
198461
630104
195570
823879
131514
136325
25941
722637
486049
483538
251182
227725
372173
589044
235413
949909
313699
465168
522313
651703
484336
2488
158785
329458
915102
713917
450195
948007
940934
725395
652617
502256
925385
180938
876805
29358
782378
759303
279124
729663
521848
425916
715184
255968
406294
812941
534306
871208
757916
198262
370864
184834
236443
605028
638013
204657
293592
650196
753777
430859
967538
146698
726824
925134
882117
58332
182103
20859
535984
818382
777401
523623
288023
434359
538128
479438
528931
349864
352927
44860
421140
234185
859928
414627
698184
864393
904106
568916
739776
781861
912533
379090
644473
166257
816127
467455
173967
341059
652856
370641
782464
818090
412182
697997
971873
428921
862898
858818
341858
513311
175913
474644
614051
511803
312330
179638
282545
106326
32993
486325
462225
830625
159843
649085
254462
106647
564688
715478
809462
248095
402914
75297
145713
733356
250575
76961
39788
669226
815944
775955
730485
424727
317804
733309
655443
968734
859072
394603
185204
746591
824158
753415
202734
731401
638900
563124
208804
319940
79946
765258
380450
224018
464090
771056
120236
176335
804708
239581
987567
685548
587358
101922
504664
33171
715791
415310
102351
772543
818586
915163
244833
338005
998811
634609
170574
867632
878345
315913
582967
573981
10245
248697
179151
647273
317262
587439
196354
124057
550037
866001
60411
587185
631855
588906
402516
271462
144603
851282
870287
984130
489015
197964
791324
614924
6443
729698
964171
736123
789545
858959
784272
820373
379243
728088
221925
453400
703915
767469
783863
888257
885722
314536
309303
962807
28223
189305
940250
651742
647349
494898
366884
579618
563713
360535
988125
51368
619672
767211
444269
980685
545317
584216
237455
120529
761869
584166
527510
633289
460930
633809
922768
334630
923968
169242
679164
353543
947296
660616
406170
147090
992106
356085
291325
860865
315998
33208
74764
738468
780080
534847
992075
364991
252069
131969
819331
632567
726904
602864
119716
773427
874526
419411
453115
908162
661845
863463
871333
362751
272206
879406
923483
595386
534012
30068
914954
732222
270664
817131
357415
128032
849903
923856
310930
57061
334844
504904
324930
955750
192064
272043
812949
684063
478520
71359
300120
98585
686899
74111
900658
417083
118689
774145
571347
620164
102740
356543
288021
373378
402295
812400
80147
350870
887088
346469
194944
9918
66862
360280
57212
974371
824964
796150
255421
308060
8018
83909
805729
254337
96486
30550
515558
886562
544124
675120
355023
612745
23058
818080
620479
617475
41132
368646
177718
783749
479500
841060
271718
861263
232717
732752
690939
459341
550874
232231
993801
454267
648817
834267
79086
39412
488082
83895
796536
910375
683325
467016
804493
921614
993806
714135
858471
832680
979928
462072
838791
742161
793374
540985
946365
885561
96223
845339
952074
760370
95906
646645
732109
94464
421335
819629
218969
668859
705361
182743
67605
419262
117387
843959
594627
812478
798380
928242
999817
540779
619041
439352
305718
210080
333072
965029
586654
247425
660979
723458
288427
425645
621764
899032
799939
6202
749288
540715
18030
309284
426371
110801
142336
66784
515515
93039
789092
742097
234847
576931
843805
228081
14833
907221
801876
350113
733348
624417
822786
854069
250389
451302
639334
52276
173796
277406
355756
136974
47871
617699
296686
21490
119754
735309
664167
312005
458938
97931
167989
235998
233933
764685
220541
103334
23928
862575
706358
340302
376113
651409
514057
343985
370806
791206
55304
21028
132479
939729
115729
184599
890556
673733
365835
483900
108272
733172
562400
340662
857678
678587
473941
70411
632329
439544
102400
500271
556045
827794
369069
767770
561772
865702
501703
728929
933783
387694
78090
166035
852584
842147
476711
866654
275422
132352
711768
963483
605938
378485
116993
243437
36386
231858
806801
853540
594961
761803
997071
514102
80006
830842
195400
132970
285769
436576
148116
440560
398078
70362
179273
942388
659809
24904
876206
164167
447188
450196
992719
180328
814661
979545
987785
7913
134353
164430
41920
502269
865577
288019
800502
874486
36107
114255
886391
289337
562814
562043
850974
602993
295246
242605
390040
169628
714065
427123
918556
787016
656333
935477
926319
522256
47255
953951
104744
552337
409342
471689
182020
351348
228668
209826
15979
976574
192621
993027
827497
825042
938324
380528
260591
66204
362506
726348
244347
534746
803808
908988
110005
428102
652691
781321
165827
440324
806601
693434
361573
178515
26782
837530
385781
993647
424198
749657
976541
801682
887898
917626
436128
271865
300777
489209
772383
515448
357375
966998
973586
824939
117394
954678
903001
147562
258200
711756
576385
751473
202735
541902
737974
132484
514828
816642
463941
638
186632
317971
29135
233180
72033
643939
44435
103655
591469
169181
27718
619152
663353
702555
295941
357067
943249
850995
55863
529138
117575
939498
660483
562467
270212
616874
447887
84569
848127
468931
822539
282549
794788
415680
517057
820372
486686
924111
617205
268653
120447
542678
395765
307185
716360
368284
513428
901304
313096
261094
114859
827587
404233
217162
603335
987460
139409
602465
876521
437918
264435
258844
175579
28175
389089
78410
151462
23868
448203
120345
364209
480772
849399
810239
232313
720686
914144
742831
885412
917107
382577
700011
646390
165212
552280
440185
498019
822232
489554
763406
168791
578573
70645
605955
691977
794960
354794
624970
726282
620146
301705
506818
333253
546627
90162
388058
966116
111520
400632
166674
534119
234743
420587
816264
456435
968957
733232
553511
792557
922651
93898
56173
841514
998972
416624
404197
361531
82781
364371
815875
428730
626878
885002
495430
996919
12088
611475
931867
240784
998195
259073
520167
719594
456586
812143
571807
924676
647922
572477
664636
909408
53733
411067
354440
107653
457474
457358
585062
366938
206714
490422
567969
942367
28271
322847
239575
181197
125268
713880
721021
216857
722643
966819
14106
122919
902919
765369
977426
286251
243041
712159
233371
30483
888116
488116
204993
117515
646262
793186
497906
200152
152780
416005
616165
266224
289460
17156
481246
401793
13028
558295
323841
266799
907664
16522
786419
695350
449549
974522
912680
825069
427682
154236
38205
735020
408915
616885
806150
814472
110737
772286
734975
295489
155506
776775
351533
501231
459143
432206
988772
974398
37959
391206
7667
978065
42743
971538
412643
934405
716077
33684
324738
108430
371212
978142
430168
735512
716115
994986
664907
148222
751488
612994
624118
67432
201242
318730
700451
254914
892002
413688
559932
779880
950128
889235
342914
87152
410053
687518
853336
950019
726286
608875
538145
63546
556064
727613
104596
379144
683198
643992
371280
575228
717034
268398
60554
63878
501005
483657
736535
319786
707244
67531
7930
788627
256791
227777
424430
199755
695687
575147
638564
891451
230922
488598
332106
545828
790010
634705
259939
250710
729170
454604
99429
201173
582844
389643
812195
833693
219705
117591
513737
629943
27818
646573
289989
115213
201498
108311
26990
731073
912960
523852
730857
475789
747131
537074
373387
469476
801580
437636
83486
592226
262954
2857
479281
958054
517626
258661
486898
342625
601219
628923
82700
641129
720867
907279
257958
717012
928672
396711
726873
679718
380269
737561
471768
515302
250593
725902
182790
773522
351478
543153
154082
81921
984626
181780
625953
405856
726235
555608
702667
956206
163044
343943
43647
867386
759956
223508
48733
611895
967466
100147
41985
62233
184338
215523
26952
937754
205925
445737
415909
789824
729315
414273
919777
607096
540468
890821
448350
684541
625865
913390
132153
521333
974763
646383
231350
900309
603910
513478
956216
593705
623399
128969
146823
616227
543393
211134
306018
222461
33536
245
559859
782560
848000
233752
300624
524659
53495
888744
569406
47205
602399
199158
966927
674347
50821
37448
319651
606514
907552
161899
195664
984703
179879
972540
377377
597184
273036
926929
671166
472552
166908
182640
660044
62226
638381
602636
916136
137289
456846
916569
12654
592423
559792
618089
123714
114969
318174
528906
127623
211149
25292
153072
610855
842657
930258
189941
788145
19794
981584
694819
896658
30008
917871
860126
336352
8609
54572
579435
807480
945766
613127
251575
125624
937349
465437
329098
108056
523197
525873
570218
606536
840261
223853
880339
231637
844828
438767
616568
693698
899802
145484
520266
501588
277436
976521
220460
205734
579086
298967
76281
390804
412893
14818
165546
435185
278022
687816
21445
600761
22373
817507
172529
921746
81045
270815
905179
365434
321875
611148
752434
790425
901345
664714
853915
924422
607602
681811
390052
198834
520762
1716
99032
32531
293659
964997
849426
565383
56136
556299
423813
862770
140054
748518
733307
353301
306494
930334
490092
642072
537730
640709
490050
957701
814415
691368
803976
332146
386508
206698
478613
433369
408869
554175
436640
901088
218666
460209
919259
591804
944845
199132
268881
274566
344884
79661
109919
35598
965954
947230
370621
508837
650107
668297
198718
6864
107865
812407
900002
524770
548131
441900
112764
418083
461414
921972
894118
818460
833513
809691
441337
631506
879755
351825
872419
402482
606271
972545
11713
167916
561458
219982
385067
793965
373323
554777
979525
677485
811258
666152
475513
754959
592971
677663
621476
494922
901856
696940
52098
321751
625707
75718
629258
652388
360844
701806
155758
736461
452373
146341
178341
334548
597147
765785
15684
592887
899939
805240
985193
305419
620200
406604
644691
336415
416782
283405
231114
54948
411686
235055
688921
107910
703480
478874
521457
128197
769127
711480
992379
823447
130965
620229
358718
238879
718214
80441
752778
557146
321346
489689
718962
859738
895477
547367
147639
987048
457466
270298
261288
861721
758658
857174
961353
971421
268317
76338
382810
677726
959369
76340
544637
254928
308204
9968
523139
164680
362158
732034
237199
967886
610256
577012
327634
933431
312981
403756
868885
399184
148511
592905
307684
946241
615962
827358
316264
440574
44954
373572
764513
52909
877030
586410
347968
697889
902289
129522
594806
855159
536839
132004
255253
652227
314964
609483
433849
889557
29904
404734
670959
868876
526284
520737
377986
584824
171046
306706
32164
191582
991343
674203
55024
725248
746896
439281
967608
705616
877538
289763
745542
775230
228342
673074
296644
127602
221322
35163
476438
144861
998829
150366
151376
254722
496529
990099
172565
683434
767277
134076
668052
105841
520902
642740
173171
453652
698563
954670
467550
387122
364939
136838
806819
73088
500568
165252
694722
785256
898905
585535
977850
357919
242838
538879
242779
585589
410670
759063
774941
172350
63886
268043
415053
223691
95472
529998
72372
966031
575825
496340
452225
458665
385391
673394
316490
196466
690421
144950
334696
963003
835538
921725
271921
654810
789853
890074
193744
877293
29604
54633
417908
630096
998872
187609
582499
532657
447631
78043
482111
588774
365768
395335
344559
391571
150735
270649
571833
885421
936085
545318
223146
294505
756693
142534
72533
457507
6859
471529
493491
224138
117107
814368
633048
743294
36149
361182
319025
429641
626890
193269
827243
809357
465016
576088
549056
677715
23117
802754
40907
384131
206396
791044
811277
8539
154820
639905
298038
758774
566323
894454
821751
600434
613389
124271
993063
910662
369636
357381
696116
444867
105722
361242
583749
490290
620445
398277
5667
218547
242927
230219
434664
323233
746949
80356
940207
328164
933020
129497
669993
818306
353720
977245
688839
925240
186044
682297
492525
373015
618433
565319
567376
871006
399860
163225
738167
305963
110688
234561
805786
548718
582316
163796
108553
369535
583051
449234
619149
783347
350939
588293
553402
960576
127449
14946
151059
919998
205724
103447
245271
804485
866096
567014
226075
212117
244352
583877
824911
822936
666754
869989
809769
66136
224828
32898
875986
783631
489276
635501
167114
174571
264818
524755
591984
68656
411911
867295
413391
533264
231559
496718
481951
847505
628820
404111
57525
262878
474853
458815
41691
207113
465822
123042
873067
277552
220684
866068
38194
899342
777624
437372
48998
690096
106381
45191
876271
416332
833906
790844
229640
110154
107382
332637
33740
102919
810842
518757
248143
243221
139031
295583
744345
419738
337950
215195
302387
520807
475663
592527
747334
135114
945658
176324
549835
8443
439470
589683
596237
204802
443723
663357
858490
566154
191866
766198
184223
467983
410552
726833
819466
395080
642028
287273
212664
297077
460505
449804
917367
936573
218632
990350
71074
520595
922552
443578
310630
266125
939011
332303
665203
535623
407079
658314
300706
911380
401050
806286
469253
160538
834143
924356
872059
300808
893580
321474
844169
417201
980233
993816
496275
757546
63127
264353
799261
738266
148838
204152
356141
846366
719578
407528
878000
175314
932329
559709
155470
35752
559866
576734
182032
720010
706599
915212
341953
459802
203281
434649
149771
451342
577386
203546
535456
291261
732769
821683
495760
305595
658305
415501
200222
223860
971020
215806
810766
810457
235062
989776
483633
137772
651065
385709
47679
589505
444445
954373
770233
270491
184995
308097
620593
577404
759895
793351
19693
422711
601263
80382
53809
642374
402712
881788
847154
39853
32325
468090
874455
208502
144756
992824
643226
331857
248835
460169
395809
832297
675684
336851
68481
511759
935104
758965
507309
723674
619761
269451
598451
359886
461140
630787
192934
972571
367947
219135
689028
289277
209217
888007
456307
922597
792628
595803
613798
812154
525312
436201
283320
552175
899776
85104
219103
896667
202163
726542
809700
574881
52783
837509
347621
462491
806316
89307
629912
842190
725333
40036
971295
717668
907967
7747
818459
25947
765400
656853
447493
589509
592489
591184
206650
859381
747250
758142
733457
147630
147560
963906
357504
34363
82800
233718
526220
429417
560088
292300
461734
366645
994747
954462
985344
714192
585599
282027
445431
183846
937772
368444
270826
354879
853167
983046
447605
285848
384072
380091
612432
293155
463095
398995
771052
465329
192404
291869
848246
493464
140837
979176
743486
85074
454419
501868
272189
759579
40174
619376
933608
38222
386096
217787
302860
305571
711490
958687
170911
164637
113691
53560
73163
349743
795680
792387
747104
407245
485687
720210
630967
735921
59674
634221
165204
813398
465618
820369
112249
215026
88666
3422
615243
380245
449199
129456
607544
683885
608178
302256
987900
647148
772391
794652
751550
893870
659811
800241
605650
238922
546650
192583
920171
519371
516413
27110
336753
590214
691639
693735
993375
629725
792796
404030
209535
800608
249744
726883
475632
47884
881170
127905
311219
797873
150121
842281
435874
478501
870022
874696
506183
857083
953665
263441
859948
878054
453426
113656
621593
74845
425325
234982
98274
720614
542478
672291
395873
456028
970830
19494
988110
84883
59081
902166
344053
235884
223321
685448
188348
105324
252132
905766
87665
264518
745941
358456
584506
275650
407346
671353
792475
990209
555734
512033
223863
564492
823945
248129
786611
780117
121853
188957
484775
574110
342304
404870
237193
765949
333504
876902
143059
391402
328048
815107
947631
991232
870211
224959
174767
381740
847104
254846
807772
572128
783102
255547
14977
662644
465958
394984
791271
220902
613758
57941
354124
959250
554692
111870
701976
25873
705471
615890
984384
493525
553763
335151
737453
352319
870482
773834
467353
800413
547078
903921
949362
22950
145209
278627
1718
274740
991911
92953
158998
845242
4361
340446
677598
873836
226725
250611
98803
791229
569499
390124
279401
950337
653274
260157
703473
275680
652449
407252
463776
308918
356231
671489
748778
372577
839112
570228
412160
538394
120371
803579
73304
704193
888223
666482
411846
60583
148548
260252
175614
948171
309104
755574
298443
609723
457643
961081
714476
834360
279087
762112
173685
645690
687524
232227
761713
184939
201827
952980
805192
148312
72839
533636
862490
427104
270505
868213
341934
895273
231809
629956
898854
633615
254624
771287
338870
8680
568121
476483
595881
372354
528011
881582
178190
862647
434009
506221
549233
174848
351137
199344
586316
520684
116387
145702
122540
649634
516769
301372
366185
528007
484432
440275
523534
438941
464957
265747
980824
845133
87972
529589
105139
656154
662942
415120
533197
672118
833088
932106
823979
754910
991753
424944
239609
222232
309213
535019
897915
354422
194209
816470
914104
823831
91597
860927
224123
692766
245305
576792
828777
234699
172153
773007
105844
881215
210383
355588
425631
640968
921882
941818
524002
9735
395932
949841
888273
185314
471546
483774
164749
660564
786064
573261
423743
204240
246711
141647
603354
544507
385272
129713
780511
900177
951923
348477
300361
817477
332430
41931
743273
371206
888062
578347
112736
999656
297461
966444
742666
205132
436609
993369
218669
931811
683767
806988
311353
285175
304625
169376
273282
354152
452703
12032
892447
560011
268752
767567
947372
604072
251591
889212
758444
591452
669427
748234
317462
865542
116752
324211
627285
778413
675641
368682
386108
836298
519498
594525
550027
791906
400118
544196
447634
107394
341713
657873
919897
903951
473115
213536
559141
843628
712029
317431
474843
657091
248594
263108
201575
207664
250977
811918
783543
347413
136500
465551
969524
423812
239548
316978
163283
847093
154866
766653
852542
565471
752734
997580
11255
905382
683077
892357
148477
160779
189555
716669
244038
924591
184300
272383
535885
806905
599032
89465
88795
557231
822540
28600
973275
563364
847404
342561
304446
226523
149041
464558
747038
668158
640355
635396
945679
257761
704273
534638
288774
686795
163322
249818
142952
331285
245321
104603
930092
718922
160732
611499
143440
57489
28408
363861
248724
250155
598448
669761
632565
472607
112273
636364
397083
841256
51321
739365
180050
173566
104279
32740
160125
539882
257968
767207
396838
557218
226753
385564
603054
410183
297295
129460
15561
239924
776976
835877
314763
450218
565918
708686
802090
75736
4000
117896
424283
906285
946910
825830
633964
444831
850097
213531
595789
292210
506673
792501
943623
769763
494810
471585
886240
486057
823538
97880
754196
155827
433914
659467
30469
434577
336253
378430
972882
739252
878710
338636
679343
527003
852803
266009
898472
26076
76356
201760
323225
618022
10675
451728
953421
60701
812451
486394
689835
387541
361324
957316
354462
981708
310494
110552
622112
963496
211935
971187
907182
445668
342115
407109
408346
105809
762621
450217
691786
751908
641030
689006
562564
278584
989455
465663
755615
887105
544885
586418
111536
251438
167018
526198
263005
867747
591867
997746
399032
781261
784738
291558
477853
583718
163775
300650
475749
941916
565038
193308
21754
523836
374228
753420
248045
367852
575842
400644
269813
976733
812839
966805
657996
853844
286358
381330
225473
483357
327385
853277
190888
428424
777405
913143
483113
435317
789112
486656
96120
626845
375458
214674
333677
20293
407541
1849
824808
183528
897543
746580
359667
392368
373287
386027
497821
942060
471062
755727
140075
937696
772219
245189
241692
593460
856465
425573
668517
15101
893339
40350
706490
499123
314436
459309
912024
70339
572910
491938
885141
255643
43464
449143
231935
22595
830681
203945
321095
757800
292765
372195
657115
462526
432233
903309
411593
946912
727487
990597
995090
94959
518250
608074
186622
274663
469464
863686
993108
289649
851470
445563
362171
807267
940734
29885
916519
952676
488017
898465
692304
521546
761718
527020
995315
357718
435847
118738
305736
114524
341134
333632
342529
754548
183059
757649
267387
984144
910019
39989
231647
409067
184520
568718
346167
537648
891502
739312
205577
580311
138549
309758
838552
491501
495573
948714
265077
398320
46133
64623
246147
207258
976959
6919
515195
654149
915108
415872
483132
386831
39556
979362
156042
522474
858581
163218
831381
546601
315976
547054
60082
207995
74191
261219
90941
429070
439889
387760
230739
702010
966320
162258
63883
637236
550524
70131
882447
207796
442759
375254
666908
607521
365374
575406
10171
360779
664534
60595
587981
341944
924150
696149
22581
789997
557012
456844
255434
56061
379923
811317
424820
554358
908587
494634
594744
621727
591046
214333
681988
689220
74761
303185
110385
962533
225143
244323
31356
493508
98054
352841
804462
889473
108729
615734
745124
688375
215874
393401
173437
608914
371789
176393
390202
108547
414985
663231
195004
223440
743802
83637
423104
719247
252690
223944
922845
968300
178705
811794
973519
640541
966738
908885
822822
514794
117163
173554
848021
34353
416482
516122
690803
264283
695335
254077
921850
794594
216694
764891
118781
924202
60503
328381
221584
347188
619023
774759
402614
767948
626943
288730
757220
287471
74399
563336
161798
634432
30450
883097
553829
475793
281837
305992
181795
120896
512784
799428
611125
878578
417089
473090
403878
45987
99528
318122
350846
211770
605279
217169
260139
602692
438845
585951
637926
848683
240076
396540
712535
83263
309856
611411
305749
871584
262571
982056
464446
458981
528016
965974
948249
555389
116344
972089
409113
456703
600080
110830
283662
468401
465312
109457
282072
537173
149752
680412
927358
691012
675408
778040
26360
330675
865043
121613
859132
469356
620213
297473
183841
77113
414814
894379
202601
804353
700669
92763
519508
929859
488530
581317
339046
699870
707161
695945
741496
548298
571225
533230
215221
103806
384324
389429
886669
370294
829828
186800
553414
652993
946654
106659
366798
61295
11035
218337
838095
435450
885197
106055
786362
268557
187869
618817
832509
663805
848651
793123
470969
397724
983051
320332
720285
293786
900226
129424
506216
385487
961548
150172
757506
229022
955344
844985
406206
400270
742718
922571
461070
522266
72455
832542
949866
164987
955674
15718
19663
414195
819334
768912
738845
123029
43850
82351
136123
582888
206447
199922
586194
895999
582425
73128
202785
358340
57580
384878
731271
127557
455411
517696
995569
984872
78639
458511
682968
585084
569265
216558
94885
737248
467765
78376
668950
84417
374377
350115
626221
393847
829837
267869
900809
670982
182979
192581
334506
864261
859042
366217
590713
750503
859835
758123
876875
218642
39982
112675
396651
575684
188727
505889
666012
844405
613694
839736
100666
42133
632988
130334
626433
463501
322396
872091
460369
703670
384234
850051
898325
546890
400367
374597
419044
894012
858916
414147
38931
415988
138480
839970
37813
49410
911236
700610
701432
894604
145331
863808
295386
724773
778419
908552
636495
778289
897643
453997
595333
978703
669562
437723
85951
401312
399696
888451
281023
705664
143476
154224
651496
250005
514419
141440
935992
182975
203608
808978
203666
289930
574840
327288
651190
270837
300006
745671
158206
975282
935434
63164
416667
156379
881847
535910
383477
954331
229997
398424
330711
978759
489566
655776
894560
882537
597582
973952
479333
235761
183277
854031
753491
249511
922893
701676
213086
23445
767476
361753
409334
987812
162173
807517
445235
278631
560852
799235
405396
356372
684149
191534
324687
337080
566228
468869
687945
288520
774543
887727
298113
24042
389558
171124
517912
292573
110091
283929
114164
86963
851007
893121
72657
714857
502286
864846
59366
867127
837862
594965
652671
628144
199037
530676
208735
282266
414987
850099
541123
55765
508964
871178
360234
813518
166979
742939
443088
39822
302983
910129
221492
574985
205706
56635
448788
433594
773744
152166
824195
994662
838856
984464
460335
633409
900822
864103
974895
59729
704238
311377
930909
727442
768882
770370
940954
173371
285678
632146
753250
144844
201073
479564
799978
391126
391828
282657
403209
250181
371866
641877
516135
227140
674525
480473
971028
784850
493762
49271
906950
145171
240461
508132
597659
359994
112152
759673
861124
228202
611227
501547
192721
128488
200477
317037
263397
567166
178493
559820
484566
241006
178818
463442
501921
24070
499893
185915
169819
355196
157292
675736
812631
356025
55913
227171
38312
810936
614478
716104
999262
499624
250859
441268
550357
616961
973938
120035
2442
941653
542603
763208
49743
49932
194283
833778
137057
863745
483182
676107
744744
938197
72781
643801
786291
320102
9775
314154
818740
387408
775466
848943
701246
546741
618426
206712
228582
802813
119564
474551
43421
654542
216706
637810
768734
255070
327737
629546
626864
819218
706504
225422
152813
483109
32734
512270
292557
945362
615628
699390
172598
717302
560408
359109
679183
857287
334292
229150
360852
833423
736546
320952
201535
272089
580958
238679
912093
751130
643083
919415
694330
343542
797384
442802
8450
403107
720870
926703
696577
732025
75522
214113
599525
534530
802276
101388
720860
35994
839831
410782
589552
123718
450769
276809
708650
302526
270713
565262
937081
425399
822270
941230
323994
821361
463006
759422
227628
376352
73921
365626
821599
195406
784420
837800
743749
742858
148594
383452
212544
640320
327539
448649
443744
822683
270393
845210
897104
91328
707976
443547
127217
269890
632942
113805
501034
549919
335474
166094
94976
352143
692166
406833
896293
812788
397948
43246
985995
818229
973390
488284
232643
448905
255612
952670
252329
455809
319807
659652
658150
850763
858017
356631
443076
297268
580911
409894
640722
351870
358254
190570
961737
939599
545119
951377
657082
510227
56559
611785
126269
462735
146642
829529
126321
337138
700821
768438
237207
641216
439379
179885
30063
513875
63759
680688
950614
676186
158511
1446
905265
781157
165082
30377
992910
495231
599061
560622
607719
290623
443099
286266
313458
388087
795448
706809
329023
515981
50521
200972
906834
323199
329414
303433
391142
20188
311143
297364
247934
886656
56896
824486
458048
57197
845018
824511
35038
537168
782455
676789
593913
652946
932943
405934
809997
468842
703269
370315
152334
721003
622863
63299
661068
930511
39098
144311
517318
362265
167975
870368
641643
867578
727435
28641
491960
83183
633905
767848
239281
566318
242443
836070
749406
483640
941412
538791
215387
322865
651092
642870
284167
161290
502887
483961
680438
2204
454837
659889
920304
159011
875392
571778
701419
343986
789819
668112
698468
146927
588205
25140
269177
166762
300066
646958
397937
244879
614778
95032
984714
908752
36884
562872
32346
97704
580356
845065
765985
249104
618830
137254
992439
871760
830776
800629
241840
774778
770214
782232
504799
888164
461248
494140
460213
663260
746204
351880
913952
242090
978519
124184
840936
71316
806243
125569
544825
516870
322068
292127
632605
960404
673721
200033
54946
332662
157421
145152
169774
342560
209649
939650
950917
419057
535854
526713
76445
348496
469410
857543
653868
284006
633923
935074
852058
116730
368346
367154
883239
698948
115749
683653
441964
222233
829481
537005
138754
521626
530784
984056
854210
287217
144089
392173
358415
690674
755886
198678
287182
574628
881454
146978
613507
760030
566500
790945
120004
582312
168831
343358
600012
945520
866756
599959
294391
313880
723774
149859
537930
489002
251259
384192
172159
399827
93106
275527
879978
334051
432452
487081
101560
841952
853430
976987
901630
163271
141050
520927
931873
281068
900981
927305
755546
370440
852458
62057
196268
154180
581879
153792
754817
375349
819750
674721
667115
437331
826730
317914
197053
694746
146831
608893
132603
901819
841684
222353
805162
312772
29510
385988
434976
890105
71367
434201
455129
522378
675988
399532
841918
376365
697204
505151
521562
86707
688489
822062
968347
532756
40453
499787
733683
645447
33980
451893
34793
885451
778813
352315
2653
518966
325542
294658
3796
49412
28185
350089
961091
401074
652339
592681
358502
817291
356258
246325
17860
749522
80236
129439
114676
283109
438958
718231
85178
86209
594037
357490
430713
579809
866993
900986
315547
78208
537144
898458
193538
983736
602877
903634
43428
275460
864345
374117
409201
443771
483531
1166
474344
125784
279154
497373
107462
394630
76884
84353
946337
997526
703307
938928
396109
558943
303198
890582
985602
502897
16029
904286
602985
131741
378359
642977
491492
527817
665880
535470
190296
105538
774739
718118
892574
300332
792407
948698
372942
552548
130938
274558
341278
92011
779963
852871
817896
464202
919786
439141
299984
539428
932406
204344
558516
172490
143231
699807
757686
25137
821163
431497
266336
918338
569787
908027
215692
897683
864430
302407
480389
563969
737006
139004
387294
510148
55912
436691
580427
539062
441745
393821
855090
711641
821846
127548
63973
405560
536526
30426
212930
637421
886798
533196
961555
714253
862385
584439
513293
739185
236063
342994
615788
899787
398877
584614
650374
828253
319355
702184
814977
686526
162201
964578
442717
554194
381348
402081
765999
155032
150062
856118
937251
733618
931538
84687
851317
785695
683506
896963
996558
898403
262199
300225
559294
619640
540631
502697
82225
783151
667288
992800
268973
29436
657033
962558
699810
835385
373062
115063
648664
145999
511947
180117
782631
410717
770266
194823
822958
594700
925555
812982
330217
427745
132299
877719
318560
803027
295301
173717
485565
118616
606524
213548
178117
930796
248992
597441
707120
241173
311677
118101
45781
437378
149410
816981
432737
162489
482382
493756
803256
461238
849182
685296
346933
517462
721072
533917
854750
914171
61514
192325
202090
635685
981718
775439
330083
769060
626924
565334
329786
551352
993185
79856
265804
675576
788324
932332
511225
15074
433954
707766
284446
748183
916095
295669
580775
828696
761390
614618
556846
715182
584580
149764
570558
946019
575751
865729
441232
45854
606621
748512
100311
340354
721929
498948
980062
777976
628277
656011
79927
556829
16553
353008
798450
718429
555091
169652
870692
25442
494791
244063
174080
981730
707011
808240
533633
792320
201119
294546
976388
806364
753161
669324
199506
590149
748533
694730
708094
10588
542993
422799
224129
963250
46806
349206
581057
575815
602174
451243
463753
742780
191630
610039
203493
611991
572303
299427
355952
890114
354018
144441
601264
146817
433510
230898
604545
165434
188818
573192
777336
319997
380414
503402
322713
931519
285629
168217
338815
762261
122385
541017
680597
233497
483217
291836
820214
822557
782148
630252
533478
573712
401667
886232
605029
591094
102248
333976
232304
296836
138080
101273
496727
721529
513574
787416
810493
695400
543922
295585
70961
713719
518213
381344
226155
917193
70877
438038
11184
936579
912369
222130
363869
958936
468393
842093
940386
527121
862699
742508
812697
13293
497917
80461
381214
616585
61379
536894
507115
201431
938707
655710
810258
176348
340655
356560
599732
557468
615636
221958
520049
316806
770783
807235
281407
448767
408325
928747
846397
736262
459248
429507
767052
84681
796355
283301
630925
126650
59124
668786
350857
405002
783670
883276
21504
556099
242450
720848
404159
223094
197884
396722
881500
209389
510783
114722
917341
81172
329742
746463
973414
214279
346485
894671
492518
962150
372508
395759
347180
921451
681290
780839
808028
632455
418123
725162
390949
762898
41883
739847
503180
635963
676848
527650
803161
11230
524935
990703
214112
985200
259855
52581
594539
326338
697461
408397
972877
363256
269905
97121
820724
952195
854334
399430
903764
510948
938960
238260
526554
666315
768420
771673
161323
537456
765541
572995
698579
310763
914720
390781
754038
816842
756381
792369
303528
687028
274844
614857
734505
540221
450170
885280
709577
121491
725470
810073
421867
546796
517623
379893
506295
896795
314372
577653
803781
656359
609343
911185
891528
524417
238316
17847
688067
106723
764266
727211
547920
795979
144527
560872
189157
885632
674214
900636
511469
273417
130366
814288
443305
470463
979746
35597
391764
154238
902428
772949
320306
601268
518752
587518
824444
468051
953765
863736
316937
111614
676129
734319
187453
461504
736233
361471
922729
781428
579985
253114
823714
563378
696878
531520
311418
863582
275318
454766
758365
39318
451900
66792
644852
776987
834330
81690
65053
548185
884359
802230
843755
716288
90406
332027
822032
18459
404420
828241
750472
950531
326232
896572
141772
582928
830337
119976
683067
944342
232525
676170
984466
499953
930598
908503
77760
955700
204410
809822
348382
352235
79724
239173
527965
349270
367104
284179
734582
613867
798392
762598
612975
414305
776174
305221
368056
110700
208243
305046
384972
217084
940102
819478
331298
494301
741303
229345
454426
632408
684202
513607
937164
933128
189622
302832
59646
451126
354783
441468
260374
111766
137690
294862
282787
621241
432543
395448
599330
409739
730742
500670
737937
197232
107137
688795
735470
913887
761855
812380
638632
856729
994738
51781
875299
465261
355768
793212
926202
496398
220049
759118
520893
59405
536316
768465
797806
723499
334354
439451
341780
366933
15421
941617
115084
615986
239449
946715
462267
777454
95490
618190
529571
159372
319899
55087
719378
912786
983220
432993
340127
2937
849366
628740
503739
799134
813352
809453
666854
96040
944689
610940
352560
924879
969646
274296
579069
566302
534713
419760
437227
852463
446229
922212
112359
797773
476425
484147
544141
721921
176727
11806
841981
311756
955687
374411
617800
500973
222765
692774
104241
934631
697237
338763
616225
323617
338504
590655
563641
440398
611938
571436
262699
204948
199948
54666
78230
912445
713804
372724
178132
716382
764064
551453
449668
507858
434886
814171
848141
199394
543763
887229
486872
494100
456439
291175
491897
862122
932062
527852
576869
759010
724248
641296
999432
686055
823868
501227
175296
804096
766227
874530
22482
983248
954807
876251
68918
165218
935425
80409
575975
975950
113292
937565
525360
747516
902711
324571
757836
786370
533801
383359
613084
413048
748472
57559
291022
48792
847543
435585
742602
128078
230577
873242
845742
176958
181564
172123
681016
956708
160351
949966
484839
847902
27661
999464
437438
894573
149834
500751
534081
309401
678104
348076
983445
13955
792583
21929
793259
175721
707754
17894
162612
925989
521966
52170
547255
159257
622099
984725
455688
273429
164192
523717
677611
975490
922302
802480
836097
147773
412656
945412
131045
744151
762734
338575
899044
271813
648275
656484
304734
974621
610806
333190
262852
113280
397543
34911
671821
916466
412290
110499
661996
483076
307297
983967
859167
957566
46642
703956
600787
678264
71153
569125
692965
266032
596792
697650
331937
837822
900462
490209
791357
46187
300897
16303
77979
795107
548388
850539
655237
443006
931699
138638
969615
461202
894069
956493
536548
938338
441682
809933
905495
667870
203120
132651
804145
837994
917706
50971
355774
633981
284034
690322
591338
768082
758999
363082
61136
986735
479430
468369
641173
7841
24459
243656
623775
943235
583480
904682
952956
507602
547011
783097
924518
698357
452915
639958
121923
927299
533628
521441
740025
435698
932022
191888
826846
278616
710796
312632
518417
222400
381276
561408
936511
591760
842262
369339
177242
555479
667326
961412
678131
506998
779612
600467
910775
253528
169813
174250
478877
453123
406299
341753
530360
221827
211720
844021
379205
904855
76252
173988
449395
978326
961627
736102
471839
325414
570500
806692
124517
52558
99885
583189
845921
247279
504382
328945
117506
984168
687288
518395
594242
741795
948492
985182
412892
385869
355483
742553
187193
149690
933553
222261
811965
783197
179449
810039
169231
870825
886800
213198
525782
726537
187492
7738
496124
915181
896959
231720
292671
353685
588942
336750
142252
359212
69636
537032
65208
534581
692733
789886
802646
930342
961987
299545
769834
640614
193093
963589
88298
824515
423282
593688
489300
18977
55969
606501
523302
280412
1752
10410
766087
471405
717399
861202
78670
869511
631497
801376
437675
884209
199971
695563
936370
715200
687926
205118
630574
384579
629618
487481
965853
635291
684361
854957
149572
467621
976079
790158
31602
198761
664557
318429
807199
134668
380239
465588
896618
318921
223359
205108
839345
315283
506039
136860
53028
667865
368805
441200
188401
887043
691412
546246
534485
535972
359936
518547
197384
632606
143439
62189
673586
96953
581115
903158
525752
527889
954922
676024
789319
554145
654080
765771
22220
438746
320501
589764
540687
510568
576451
328600
880156
611224
760909
743619
601591
271459
448610
909854
119601
925877
67248
349618
710658
971792
152015
723367
248275
377404
260461
857636
68848
820169
556603
765387
914062
940432
766771
703628
2835
201977
711863
917664
940500
841921
5758
860421
86406
933471
67095
623133
917791
344876
508090
278408
966005
771211
633671
542512
462791
902077
303297
511998
852182
55292
245091
824942
193143
677549
603413
312855
34386
585985
615316
964594
925522
91715
489213
324979
501216
550316
131953
95174
811725
901762
46263
59831
856816
94302
616747
872612
93973
313206
166457
383271
950235
965723
177198
169436
960995
754009
799105
881167
751881
656171
390011
485311
449944
745358
362815
590402
805866
632471
801481
710859
587089
112534
255734
977843
862884
782773
609001
50622
805991
964696
554351
629039
605465
736241
459572
837987
70980
517427
541314
471602
318635
865324
517205
810523
399163
630705
740268
249353
651581
386736
322835
506119
679259
984301
907878
212716
892110
104707
710075
818508
536033
339273
94490
374152
345344
353132
250092
942898
239591
896719
442348
399118
960532
219037
845383
264665
463527
158956
741928
255638
702744
606705
70859
241178
221167
354296
621813
639076
667615
50537
123147
112270
924200
234334
219894
90434
868517
981349
847455
519222
467432
109950
637453
720771
194905
632185
842351
727061
189422
77923
347613
505528
289095
804747
689022
5761
312901
130086
143234
752389
391612
630837
26428
913729
493426
680909
310212
41000
57560
369964
879690
218253
631564
700015
193494
140390
540913
160800
864150
704853
846324
43881
706822
823381
417517
783814
596660
622107
720787
681721
314679
117563
916354
354746
750502
119792
10208
50090
24469
478831
117177
400487
332692
826911
224515
365486
180668
928993
972311
748639
787847
615828
18567
468823
593982
305810
513087
176462
572535
559464
208784
102498
9496
911439
730308
904897
674831
387494
597233
824977
438978
399887
810860
497907
118530
176061
479433
839983
768101
126523
929972
47495
207831
990165
811421
436493
363960
293747
329158
906515
472747
546947
991180
564684
714283
841875
995626
123886
646516
895105
980239
86983
141797
6572
281363
990040
790451
393613
486264
931967
510839
219568
784426
328282
570791
623199
414482
524083
513598
82855
879093
851076
903255
542982
80524
453816
298426
18425
116969
772122
918249
816579
33469
109047
69293
910916
188457
289114
795944
483124
156283
759093
469187
758405
25196
890328
876861
813766
467895
772155
656236
109853
973219
471555
587094
337049
11311
609069
92646
253477
726143
87456
317573
524490
869888
912001
752363
914133
209578
964849
853034
394357
413861
529642
366739
331311
474176
66730
804790
848631
752929
101247
736534
205875
911510
352942
371602
946634
355165
110527
945803
66504
168210
7505
473377
726906
450712
897479
984037
445818
541971
985093
74285
698704
227256
968972
351663
177684
586375
75132
379530
863943
470001
337936
897401
751678
111241
332299
788143
724152
15385
145983
413135
406914
828112
1923
172868
939033
778512
846587
365204
472313
644006
239083
586452
750164
886912
524863
579279
113221
532251
11968
584986
698682
191398
354402
336076
9817
231284
500456
989815
526078
737700
827294
209398
275096
67988
791569
852164
110105
365820
456038
699838
528274
277337
935765
957134
827811
903056
496190
179012
267447
33465
906142
626561
216594
830066
635417
808249
578750
231190
835427
531934
789879
527451
366507
723285
784298
301660
808027
556109
844485
79318
849079
567476
683760
164069
683251
658458
225511
371727
238204
601569
442779
594063
868472
76930
296149
354089
472376
352909
189637
33577
904118
556177
442933
810055
95006
446041
167083
432898
146275
895141
754499
706968
864819
736771
937144
287393
896656
931918
160265
666128
657464
684086
755309
817448
440582
900601
569080
901409
457559
303909
787183
384489
280841
78826
759625
742821
745064
595919
379557
881721
36789
924567
96709
26759
69202
878922
809448
809934
367082
201612
76653
470829
274738
23521
892046
521552
615080
218751
668037
686973
379965
438808
698834
480479
481813
571439
354930
64828
856834
926796
891589
32373
974479
456633
603330
149633
944614
805650
601184
2503
780463
107445
769520
919747
967748
849783
423789
205316
16143
829384
582181
435547
480292
775414
299281
703573
62492
432350
412566
360146
84679
216623
254906
171744
126180
660865
333640
805522
559727
281107
147798
153713
152480
129516
733715
95697
931754
290137
36220
159468
156930
244328
135951
637976
405523
693720
971925
497628
58350
169744
978581
864517
643030
81409
905496
933512
376021
212077
477957
335400
788753
466325
187494
399154
252022
755387
107204
320918
760981
285240
571740
246044
219757
736243
609198
504407
525997
688853
164083
93432
981746
875461
196884
685853
573176
7462
165469
61854
330485
136486
959361
590953
363648
856898
895902
516308
575795
722813
817319
892225
510745
724930
593981
786854
152525
128725
410012
992501
732612
670205
297676
267350
374292
911028
250867
963960
393663
189509
608251
60416
284959
562633
659137
206688
768974
902493
881666
83206
224013
547795
844784
670424
112440
863403
205465
279837
801894
423617
231487
955098
780532
817639
285789
788330
495236
655935
178311
804171
508066
768928
659713
572208
19374
108572
561172
877392
498805
939083
243269
416731
461889
288439
188378
667948
739402
541657
54767
63407
599900
952210
276188
932862
170961
354008
413365
328262
27982
563753
306072
141597
306726
827374
420051
700759
213816
97457
867413
194939
629046
201135
903821
127047
88172
794437
148564
325795
846278
108772
733676
130446
959337
283720
765002
522348
13860
861341
903378
9629
244896
305473
599842
647779
747704
113195
593175
114647
359851
883211
860687
942854
485254
968022
129823
983038
299513
91172
209516
178863
665751
878191
928785
954387
5883
496932
495242
505583
378248
837481
943921
772171
614229
21562
324240
425196
148306
474131
986133
153699
674764
232355
867428
239561
757536
648315
511341
993713
769818
466313
334800
939749
926772
236340
551289
416158
418320
340442
371708
519486
62069
405910
601434
698660
616505
232397
20865
315062
997962
585232
412511
810912
59222
924025
371264
879128
450095
525653
855975
64130
843730
859041
970152
57889
54400
927883
999519
769549
467864
722993
283264
279004
70644
741422
260408
845225
759463
602470
142276
656184
492231
320836
348002
668700
348089
426559
459603
356356
282988
166847
321889
924431
281225
420050
280309
161067
133809
227237
529932
625870
593528
884848
30176
854656
41978
615485
998449
308751
752476
319246
284455
442604
831197
195360
759329
438744
173509
418868
493048
933273
136568
831126
573609
728577
88783
299424
159471
871708
665571
543300
317437
936514
730343
312198
312315
104191
796611
543277
276958
389484
553828
239092
585542
627217
821306
371965
221190
398542
348878
329004
653369
874588
441962
852548
438141
500765
360804
857935
825093
302359
528860
177404
190702
67721
706473
847926
163791
678637
677844
815226
811082
139739
25590
332598
906478
142156
518557
937556
152473
984977
677158
150202
876618
156317
337384
243581
657398
940307
160734
177743
739437
704259
691032
801258
588715
338119
898973
681828
705625
236588
334528
891773
447056
699911
745210
613884
95836
909569
348500
895311
899367
468348
668670
811941
72186
526727
672543
55200
937460
328782
526052
672510
872566
526051
829426
131770
691191
413487
862409
410680
700346
80073
241719
30647
847521
946455
205251
185656
32567
444378
159772
817330
888175
245290
811496
105491
843881
869648
511824
254679
298578
89037
884108
257056
549617
575309
792916
895352
868180
270805
831241
626683
337839
348087
371531
970352
219725
615386
845294
882519
118311
350576
826071
363826
982804
598288
407183
42573
741906
463993
854568
947141
429078
758511
282004
988145
217928
471969
327725
292520
124695
593283
425418
872472
879307
398120
461968
600464
693364
543813
222311
309126
208619
786391
934454
886333
17665
833786
921737
310106
726563
767981
982825
13216
458909
406073
27329
527824
194564
9705
15460
104551
341400
220813
280015
362477
36228
142871
279869
3765
827838
825296
943980
456632
560698
430451
767089
253966
877334
796501
91913
523209
716909
516248
715868
781830
542631
879562
969849
315082
402254
510549
243028
944895
98793
383126
579950
424539
821641
875872
483066
729451
997669
302486
19901
104111
232918
850384
794107
958690
913870
543835
618197
409939
653334
909128
318694
186113
938687
709340
878932
629765
407359
907187
16928
942714
945255
731663
656822
276589
267454
679515
184196
255431
369559
824236
506662
509035
680307
249427
190134
230204
368165
902546
434708
20527
223631
557633
563955
7306
325656
263562
425735
565226
247326
469725
18137
962760
799300
169103
392541
162413
886774
265531
654279
92683
396801
752922
121513
670515
112785
947653
324858
612337
580865
795348
256540
787527
748017
841581
251932
17662
778287
90106
528959
845585
989013
885473
893926
612948
234639
436217
769747
283581
382556
101617
436881
445028
365644
66606
388541
512405
309057
47176
853527
601637
940575
692678
187461
28454
749583
659184
93652
881747
482408
518030
472936
445076
707360
677651
537225
96087
526401
92215
608858
135707
694591
377136
939608
336996
447866
994567
240826
748150
781791
956031
467177
969445
23757
269001
977785
193966
220642
367173
792082
663852
252225
196981
635848
769125
383229
327394
84094
616097
590113
569487
416552
916830
721788
650545
434642
914458
894919
6228
908729
292622
234152
70665
928116
389444
586665
134223
629643
370127
281003
539288
858139
851088
706582
432211
52367
725555
735361
317893
140920
130374
706849
934472
41767
319725
286965
622207
960308
917281
889104
261073
911264
515636
542591
818071
449127
909673
61077
955873
842444
35495
535888
153309
970891
237895
223566
713601
768832
877912
437694
148114
100345
565196
323668
417022
974647
968865
358766
689418
448209
346248
454421
632074
562314
245396
806444
473545
817411
962065
120087
518075
791653
508591
624949
230916
815433
527095
188789
676709
578480
449190
178403
619461
753529
629988
361078
588221
292549
725163
679904
34462
798102
873618
465684
200669
699795
77334
261342
928954
580533
290163
676474
522392
176313
257618
815762
510740
134536
384501
335195
129792
855712
312413
585110
305338
234316
5706
613224
621728
248859
358738
972589
663210
55679
690101
156942
168378
628003
315044
567375
471843
191382
143759
732875
99546
653018
251956
319368
595683
98126
358743
389515
967961
157702
847865
208327
164676
89131
392391
955327
296634
898913
798361
610227
581275
155864
26862
374345
991645
264597
248447
729346
806103
481914
977077
157933
696931
126166
615389
744067
525139
176400
180486
640842
403431
782213
814331
351692
766464
378244
415260
252326
818250
415612
485590
859769
979704
685410
120573
363532
573351
334778
96876
530106
767356
575357
389396
379321
669492
250463
806767
509281
68044
281304
584249
276131
709852
633596
151111
167595
385535
212506
429175
311313
2645
806212
894805
269947
412974
784517
249274
827264
133207
556375
911440
738585
412228
311794
819524
1000000
588227
839089
835791
831230
737719
549963
992812
445980
808799
442577
673903
662706
748040
156318
696264
906364
614650
369093
108827
425456
730387
874439
282338
729458
71437
744229
182681
954656
954110
152165
426712
589455
335427
556010
999160
680346
306866
237133
468178
153545
441566
967498
680553
979954
87725
611433
813428
852228
405313
626182
739964
215283
756264
635011
770873
346760
456234
102197
630683
926218
76251
320666
894753
218225
875015
883840
472921
355092
756265
118374
60664
960657
61609
13485
107668
854700
650812
195980
194819
701877
767155
80887
353268
810062
411609
221937
306772
916920
375633
865678
552090
123872
368776
524293
360182
711153
611882
588243
546122
786165
525383
744361
736394
375761
483317
122444
934261
589671
49746
331019
600655
681789
296293
773151
79678
533656
54418
269233
600974
169879
680246
119713
24037
783585
282800
804362
399048
605733
606339
11988
750462
155752
310683
585179
454322
178541
422015
588631
840340
771893
54482
954896
203264
166444
445554
4732
297733
616653
745710
840520
344155
193292
224107
191760
712962
214960
737716
869651
847099
176951
777505
675935
586297
158360
480327
778456
581340
211032
576940
894973
92159
445996
741108
12319
608694
784960
947732
29640
490672
578334
499831
5668
539254
401643
697151
559851
260257
425116
731478
916849
39142
469904
992598
17940
334357
189902
700196
564881
437339
17999
383854
966194
988035
931812
802289
325457
143384
562154
739519
282069
880293
299101
680732
569504
14212
353950
180172
679874
942800
719620
154402
815836
871679
397089
524925
226882
620011
604773
637931
73520
639134
913124
323697
22377
211421
634595
518814
973927
252338
532295
440728
157251
998827
369361
512144
791002
546170
710521
17087
900276
511394
720928
989962
803711
629470
237138
118471
8791
118190
908902
198302
278436
810869
168761
915967
794759
840075
597071
402798
363225
154695
117380
444126
702655
727687
914203
221367
787458
834808
872412
974314
199387
169339
424683
796794
396700
232884
965919
224603
542824
989473
92201
519626
922769
437764
957663
870767
847683
889326
6761
506649
846
891606
611486
717756
742566
646349
222292
495927
210109
767369
197447
783111
142114
403656
250945
472895
280751
113005
668595
167804
68064
951548
718186
816714
695548
179194
492729
258330
81656
855930
142655
376776
978040
447010
903633
322344
458209
913935
267491
710803
579631
184420
108682
721934
494407
83665
182974
611692
125951
628967
69439
405272
196948
842944
165998
233099
220503
880359
17624
423562
413666
721644
182146
827585
457524
826643
633785
805356
846828
664318
69696
184956
726546
153634
661397
639568
35644
49803
981623
541756
942848
120712
666130
600164
277069
843953
654045
252826
385991
354483
244294
349888
802137
632333
859746
103767
399494
69245
51894
611713
686467
76418
142621
574633
148617
255411
760296
146425
974040
199274
460586
16747
317282
599160
879667
680663
320969
447781
838017
896831
91842
741538
99181
188428
561948
801819
168789
635323
340634
252186
638378
456440
71378
506568
378959
846863
796040
73682
295967
377838
102803
869617
298230
381889
460009
208923
917837
805850
722233
128712
783101
992382
226354
429042
915570
457020
30986
361890
10914
644112
925460
116495
807797
416061
943282
439104
622999
816463
644522
655375
944214
290901
595802
235245
968065
759838
925742
514455
721544
714005
738692
734396
412903
324634
426574
748496
237035
171611
151631
25437
496052
362780
382527
883006
491592
760690
801907
104653
238987
925046
121938
622668
82054
65205
666207
30436
625505
531811
606137
379298
822854
501284
96344
665712
18777
180123
616312
4011
694637
445068
732435
117502
49357
505689
757371
449305
464110
230629
120253
920260
264627
620854
832163
32115
946506
640032
12193
624655
906539
963550
293230
225996
189719
567227
855253
115092
560404
432607
989278
921029
276108
234086
541561
413724
605840
482956
181527
106810
153709
290011
951625
811707
136061
536790
658302
138402
800130
399271
922297
840730
734105
823151
887529
95147
713175
618821
404119
739732
230669
448477
828876
57717
500205
961607
271470
545448
210369
837110
891797
394219
940280
168303
4110
660729
767982
978997
804450
551736
427584
39056
123350
27303
3415
660465
745619
260940
804564
138288
819427
526405
762469
893012
141230
192019
714122
740607
82336
879941
315043
212456
871844
166103
98112
501907
815158
391473
495348
867285
857846
657235
380510
535815
570651
163586
142273
894775
672154
562982
461368
463723
156810
118298
812571
867724
210387
742637
960788
569359
714341
996156
307583
80101
955091
378228
241008
633666
485616
836694
45206
797267
522514
112603
788688
685880
917294
94676
230601
556252
847203
927326
227317
852325
745449
969483
709474
763924
600543
372517
313081
920629
212509
457348
379546
803318
62508
709324
153102
102745
521293
17232
229744
803231
72163
510186
288994
662267
758234
18669
287438
650075
987129
990688
541120
644372
900446
949248
963536
649734
814078
752870
944903
864162
774782
808778
230685
18960
871318
581466
401815
818077
398495
59835
68892
796242
672762
208308
658100
487884
352502
701957
945553
750343
722594
757988
572424
961648
160864
387644
937528
68457
812179
383020
865639
514564
502123
813252
445074
773089
564229
448094
759981
547237
358490
132739
678307
639646
469517
707271
418964
366688
562225
300404
894734
802458
519790
175306
551251
1158
859424
406022
948075
729622
354779
808403
440911
888195
738738
23433
997150
608707
370951
188540
345695
579249
574135
83917
169678
990725
939540
768550
966323
377719
113519
907305
490945
440827
577728
543762
928143
1167
344982
527392
107536
657344
831275
661506
764843
198230
161367
372242
129087
922474
175704
439846
506529
873737
781310
727182
291909
668238
991015
5084
128796
363091
765134
604816
674485
701117
638642
122940
1770
693275
235456
378079
900114
622423
703702
755490
83547
324407
865320
823894
682910
158336
251045
747164
849113
328311
341895
644989
175928
921335
384781
157645
159413
126395
275265
237982
862905
470821
434108
288467
858897
511672
367952
318668
113924
299216
161826
66219
970679
66107
290522
908256
231762
172386
198894
270432
252021
190221
588275
678623
817136
193468
309566
757856
505204
441203
664215
108037
815002
995121
415062
854529
743867
841413
122890
504506
172594
259212
199400
676754
276839
903547
356625
473844
285072
969304
338782
126762
711424
39866
221191
568393
779710
466973
142486
362015
531360
383671
687312
105380
199349
91002
15832
694107
952002
236586
576162
628687
9135
331932
377441
18104
726153
606837
558184
487759
382412
705424
11361
273269
500454
739922
687097
628049
609638
952375
381324
375113
972179
197584
680919
672315
546965
675072
749750
574529
686399
50927
574107
806813
203560
741877
360061
151589
855542
7467
426952
714718
951117
74782
821974
107032
464668
187792
144207
768677
6242
910678
357976
858033
472763
295743
949217
394926
789424
696630
427562
575397
674615
377709
215527
479839
949516
959861
802890
708906
159039
475304
617676
635089
346409
181009
810298
715157
341081
157065
701875
809888
991738
276749
283181
68831
634783
442183
552895
154138
706389
211275
4210
191320
511151
314918
721478
732585
521139
959051
89623
801290
253708
814810
196335
220729
207998
551917
401910
592213
540003
660823
280653
91437
107703
890091
49393
255116
894167
82792
946170
98833
686381
342478
64173
918806
990289
420502
332275
231758
905532
316339
112314
887869
456544
771956
288051
135037
308217
89717
351638
685593
67344
309924
703461
802650
658684
239713
537372
204994
229392
597981
131386
707488
22486
345308
680111
291057
650734
960917
665128
930178
126655
971906
194285
956564
259254
959154
652411
577020
81092
798850
778495
67040
401325
988750
905461
340490
815988
288216
719370
889759
956952
786786
350551
155246
581064
62232
175033
910188
685059
86565
602752
614393
163445
71329
605065
626204
304745
459790
532528
565418
218483
208428
268633
165533
418701
390196
849845
152614
688295
37658
415256
115497
231199
266798
394811
421689
937908
402953
916828
323210
108834
639828
917895
616231
787686
883120
492244
190253
267022
791089
625775
345573
498907
751553
384427
786046
18446
247890
241156
324888
652987
679342
873400
775317
63772
328864
169528
3786
959592
866100
760692
906917
953960
374299
47191
269832
150459
983239
961973
703334
811906
973903
530931
134940
683711
551240
896869
335619
822243
707193
710440
665875
810566
627834
388953
274904
399846
776620
68365
696066
920226
20704
719281
599219
821578
459595
184247
295839
403178
678726
517031
872398
510563
401383
267914
990389
813623
391424
768997
573648
66056
130277
402622
38711
220441
19406
715723
254032
195402
593275
986863
902801
970715
257077
341152
226696
634159
783015
246652
488033
308330
931574
87211
455929
860180
265329
388686
22875
71947
489587
779573
242423
636346
231973
31010
409727
858330
701526
346983
179711
962384
682371
968456
596754
866072
409441
481686
874178
120482
210034
288264
204456
581295
626954
489382
990349
390875
748440
645297
596252
508537
285619
157911
915618
369743
38019
417645
808091
309018
66780
173375
285259
192457
388876
114532
796072
5910
531142
913196
525591
66613
30136
707744
238077
840492
442889
835703
474610
201513
929210
419685
833630
991706
272548
14816
365251
939751
205359
116727
625119
744994
529635
690918
929721
149021
309738
65043
542261
495371
906416
360893
754975
223911
356114
111277
365872
340875
413700
978948
920676
506917
293137
20624
604654
7357
346497
463972
196029
724262
53130
702064
651715
14982
98029
440383
829038
70441
444063
56374
131119
477026
173249
361369
362814
950505
785720
773551
317196
555759
4840
958518
180430
929533
830063
829612
362444
117905
474449
227878
438961
24479
727592
218879
398975
906864
307312
911031
312741
56214
117374
700383
935353
357121
350483
268273
199549
724307
394323
367474
194459
220629
64470
991431
788043
900760
212084
888193
722900
323498
987148
679577
551186
998463
289824
153741
511062
298816
864555
119228
96808
480754
866343
779113
848110
645260
59066
436214
379454
433632
372814
464676
989456
348949
605052
828105
487097
829985
470938
78811
590408
537401
834518
48978
638768
69940
87396
119496
28243
351047
432574
385743
679041
749894
69423
237354
426919
999814
934021
967263
584026
847820
742735
234402
309990
579941
484943
567737
759242
400972
673682
726863
119009
380222
255188
877573
820986
275184
228204
547306
874782
521023
441588
376452
546536
812108
504018
650392
344154
416752
160889
124794
150106
406993
403281
91403
374307
68342
220013
568670
148815
583998
955052
263270
48239
545872
181950
563984
812181
519564
943466
95186
701531
901704
77058
723671
11707
743201
234990
967603
619086
926721
559428
683907
748220
130068
318448
952729
198403
759747
970478
345808
806443
49434
148861
924948
834270
183748
856156
747767
853900
711080
507584
291395
246281
148269
172907
728431
693167
985034
374582
505396
669203
729297
482761
927833
740974
655310
967844
487113
943664
361680
406840
368624
859804
635404
738131
282660
280326
759004
825386
496289
440753
792578
521599
104199
724946
133240
497621
545395
378834
557979
567590
555490
967103
605368
325664
271996
79999
471411
715373
834467
453753
370398
192850
389242
842
906207
56499
37728
55511
740530
484684
118838
399487
492952
181668
156573
99027
60033
273311
530980
312526
24926
430401
161276
320025
679914
314485
916168
371630
57545
1271
527108
127227
937333
439659
423193
64073
96802
294612
727696
755350
633375
243935
435859
606927
574632
883339
806562
555764
656631
466840
233028
415586
171103
963023
770180
94637
543399
702498
417124
197882
612052
46119
370952
738849
513039
458313
927461
269224
146239
793118
575343
476423
107578
842395
563408
90657
246020
122406
551221
853611
419721
711841
295888
825821
944666
549893
420447
458722
848652
817128
681226
64138
116915
923312
307314
495128
428923
19773
757214
200484
887682
927752
960008
855788
682574
220654
866941
889598
51584
894652
624680
878481
753492
50558
605663
282837
838611
264391
600663
276603
317778
802287
376514
144676
196200
210025
779751
134040
588860
298384
517222
326927
188923
70951
176819
951221
4538
708950
486467
368826
970154
217789
136242
772595
886175
339992
370045
496461
916179
711133
960821
845771
914953
257273
383713
24151
993111
863297
947496
40768
332832
684047
471326
934962
429473
219471
131732
15571
130380
456680
307959
969949
528086
59145
821520
936922
830339
199733
28493
328665
342460
401887
324394
791951
63155
310271
899962
789731
522824
777286
786257
177164
357010
985820
278519
382003
91593
577337
141886
403766
635445
492046
872391
610712
763934
273137
763078
721993
731772
161504
704061
572899
98351
996704
627645
961221
254231
867361
724538
283155
763034
542836
804389
438086
791212
749985
198937
686561
639276
936433
320553
481992
821105
443789
748565
662545
632049
409874
42985
395038
211695
67509
639159
169305
597178
10641
885480
561773
373652
321155
902450
42849
505071
404621
342166
640601
325331
75518
569694
443020
229848
893355
322819
102971
851206
98327
370692
450338
927961
111480
185778
328837
360366
836235
903159
80965
779297
514091
519617
821066
823393
763101
318119
849671
40644
15750
78551
788477
853329
176127
846177
355875
832030
440087
492782
663830
728894
705031
839266
127437
661632
16785
418331
269079
603638
430765
737899
405902
589694
934916
66343
744243
666276
891972
829857
637564
826729
293286
747067
444943
