315404
415659
997790
539634
703939
740164
429735
264009
287102
452557
207094
720160
982482
971099
238579
601720
965222
25297
571964
873239
808649
350187
432838
930743
548950
525690
598921
57247
676891
63940
772140
381883
177451
321944
425875
330605
752219
327897
911533
154321
52385
508321
690517
206934
242098
836043
763981
204585
854795
938285
626329
529300
277787
263989
103756
185556
920790
18157
794041
535400
739395
37520
410722
653589
145491
581038
658853
887440
803147
530869
521248
808790
592087
978161
313062
609052
301912
165292
367602
664485
457472
909814
272100
433049
369526
964480
347513
532697
196972
733608
57705
747509
773210
425284
880204
667295
663842
703724
487462
506745
555377
617028
398937
159877
694198
834418
944361
782179
687361
433035
36861
719952
543091
136291
236491
928455
821750
222424
180091
255774
165997
5110
87126
634974
588501
195257
581819
863615
943013
319335
708753
216769
474302
307609
283883
771815
689748
839004
21201
712362
462044
522986
148478
291748
655964
923508
123517
445205
909668
709534
38055
511502
789852
120820
904916
619836
952223
370618
744929
175521
690478
543058
885656
702791
870311
317289
437262
766887
432212
19511
261581
595701
20167
497614
969916
176223
447016
860373
225859
41664
732091
246152
123356
2153
709819
953571
406563
448765
699195
916515
922003
902257
467234
674587
822955
773641
518630
771330
372466
962484
702783
544379
65604
293444
561497
676473
90966
240604
7581
971255
813231
532841
713789
465181
514591
248196
352484
186996
229420
74309
582392
558198
88399
143246
805746
933037
414449
767098
234111
979866
325750
368208
903961
41722
401382
825749
154499
425828
72488
121121
196871
327556
483383
457280
720592
858302
31552
672186
977204
84840
775578
742769
824496
850598
196950
438804
195053
174633
438233
444621
221269
429380
857515
412454
510294
14566
500378
960151
372364
232460
407209
463087
393814
101044
75570
555584
506145
722717
507472
861355
110442
658035
291313
108995
561656
977908
442909
723657
18682
195240
635387
610474
241960
458134
683887
854964
828427
642707
700182
4761
456377
899987
666957
200131
406160
327527
345608
808991
628699
702552
637036
590743
194682
636858
46172
617772
407086
305963
79925
20871
893432
337994
443900
786900
219693
519398
661966
400173
850
648452
18922
458094
652242
120328
825981
848223
333900
675989
118605
785454
443664
8603
199141
547576
493527
48204
438884
498085
250532
789418
154521
10846
488010
314592
661227
323777
942253
695694
205767
74317
710129
796564
674269
934116
995240
663438
61973
287040
693429
114830
227087
435036
823680
350066
100448
975157
894344
430647
877429
668814
927500
928875
566836
187460
328539
519016
816470
309280
927435
32290
334130
756810
908772
418787
270533
834344
366218
831587
70436
325069
735799
908828
608467
898346
951060
608263
828097
137702
613895
691219
406725
644480
587246
195972
45360
139034
926948
550268
101991
484765
655523
663459
724458
119779
256432
304113
881216
770432
237144
245971
618697
457360
216921
742080
38239
364548
6299
599583
809113
326206
697408
497711
426743
326972
494620
947028
256304
814650
239223
53020
742703
816075
88506
223721
747582
36272
562217
710078
158165
490321
513417
764379
943446
142496
825628
327013
178751
502525
596517
245939
765887
52645
471137
146136
588598
677878
917447
940090
86274
459281
482533
235188
372018
515787
52438
589310
319794
666639
724594
448396
154893
646494
979228
794540
448918
654885
964501
725240
36286
516420
323681
316175
217261
579223
874827
921726
559887
100865
762577
257624
428283
91837
257739
528343
851613
122884
939503
155233
730997
436649
570143
331700
485046
180635
328397
454651
472370
312991
134418
561825
37772
448984
403093
21167
989350
699533
509396
887695
882336
268846
245147
513954
626348
258898
34530
61610
606683
35803
455731
448679
177996
211308
255697
90488
624312
780585
109319
209414
507422
951891
268893
687682
496445
322184
583296
983422
100164
320780
680277
29475
324383
204890
653309
363137
117093
99542
807990
464521
56736
572324
702226
916428
167121
849210
598321
668222
709821
998782
50706
964802
213832
162802
910400
583781
96881
508661
133099
686448
40499
114334
71653
792643
430002
428471
14896
663695
73290
449266
80844
514661
723130
608708
374208
399978
918281
698528
146578
181624
782752
297032
824745
621631
966540
276931
384886
113524
65912
181597
516338
568598
374132
693080
744144
544944
884727
372245
772328
381141
126445
565521
144251
722914
223119
113549
380061
942691
634185
364811
88624
5944
241333
990253
638844
449876
692514
425976
213
980413
995432
674076
242666
470365
924886
719077
749632
248403
160395
267591
898421
840332
816960
234450
536681
83274
845230
206821
669907
744797
248952
587975
333236
705049
660684
625846
372725
880092
553756
673793
89254
435186
246885
20685
291287
107867
660122
269214
738032
358839
213698
587662
421926
380727
590453
111188
605448
966591
405313
581636
525941
156039
14232
486227
131906
514428
397897
236875
734376
457536
213486
270014
402825
666523
598165
100957
418552
421375
594666
726491
531067
611245
646731
903632
935315
34990
38141
73033
326951
843466
844610
362497
275024
272679
657272
345367
206609
498728
432726
955571
382303
36732
407224
557655
225744
75788
837571
720164
696627
460418
405395
201511
994619
243752
443614
437773
319698
997262
549126
809626
705747
898248
406231
875088
198321
563794
840825
552706
535916
739978
524410
70145
278202
82444
542806
835545
853348
236192
801311
959334
947681
849483
887962
196215
855953
72522
38882
612121
317269
811897
848831
243152
585929
308834
257443
672326
582266
888406
682757
931744
321039
172748
393062
757785
789149
89711
210979
333375
47886
223104
549799
304296
276592
929405
600202
526887
372670
382902
76158
630147
711564
103180
336000
893403
598923
397776
33427
972046
839039
494630
743555
134770
142751
57476
479337
986242
622672
790023
400365
462240
988714
730102
833130
448755
338987
445582
607257
38639
442038
647572
225470
958204
387604
609872
997660
648783
60405
518229
873950
387865
574672
932320
845764
57525
935968
455925
1841
29304
72652
605575
389519
37101
851137
196627
386218
283201
709103
880365
916294
884315
837624
731215
658239
993762
220022
864273
730467
704187
72357
941912
177240
21417
726138
542554
497268
768500
915205
736213
417614
535488
667048
157588
877343
124064
481426
782434
489801
158005
922142
254104
63028
182778
855158
435946
875177
976067
878492
499097
958752
834813
662559
92273
896382
459149
105068
90591
44577
30047
485915
760720
292266
342605
309429
669144
224193
749693
716226
719629
969159
37680
262646
201783
395510
581422
353794
771667
590086
528831
663135
678690
747521
143211
902415
329879
268337
670175
286627
423127
713175
166855
206104
841949
366550
483271
655046
690915
373838
687537
259298
555669
929432
399860
473435
832373
417529
900027
52809
326499
357050
680996
79779
588211
561365
605547
516972
697436
285505
728702
968855
172674
728880
10121
